{
  "runtimeTarget": {
    "name": ".NETCoreApp,Version=v2.2",
    "signature": "d31ece29105fcafabb8d3cf8cebd44a785d3e7c9"
  },
  "compilationOptions": {},
  "targets": {
    ".NETCoreApp,Version=v2.2": {
      "tool_fsc/1.0.0": {
        "dependencies": {
          "Microsoft.FSharp.Compiler": "10.4.3-beta.19253.3",
          "System.Data.SqlClient": "4.3.0",
          "System.Runtime.InteropServices": "4.3.0"
        },
        "runtime": {}
      },
      "Microsoft.FSharp.Compiler/10.4.3-beta.19253.3": {
        "dependencies": {
          "System.Collections.Immutable": "1.5.0",
          "System.Diagnostics.Process": "4.3.0",
          "System.Diagnostics.TraceSource": "4.3.0",
          "System.Linq.Expressions": "4.3.0",
          "System.Linq.Queryable": "4.3.0",
          "System.Net.Requests": "4.3.0",
          "System.Reflection.Emit": "4.3.0",
          "System.Reflection.Metadata": "1.6.0",
          "System.Runtime.InteropServices": "4.3.0",
          "System.Runtime.Loader": "4.3.0",
          "System.Security.Cryptography.Algorithms": "4.3.0",
          "System.Threading.Tasks.Parallel": "4.3.0",
          "System.Threading.Thread": "4.3.0",
          "System.Threading.ThreadPool": "4.3.0",
          "System.ValueTuple": "4.4.0"
        },
        "runtime": {
          "lib/netcoreapp2.1/FSharp.Build.dll": {
            "assemblyVersion": "10.4.3.0",
            "fileVersion": "10.400.319.25303"
          },
          "lib/netcoreapp2.1/FSharp.Compiler.Interactive.Settings.dll": {
            "assemblyVersion": "10.4.3.0",
            "fileVersion": "10.400.319.25303"
          },
          "lib/netcoreapp2.1/FSharp.Compiler.Private.dll": {
            "assemblyVersion": "10.4.3.0",
            "fileVersion": "10.400.319.25303"
          },
          "lib/netcoreapp2.1/FSharp.Core.dll": {
            "assemblyVersion": "4.6.0.0",
            "fileVersion": "4.600.19.25303"
          },
          "lib/netcoreapp2.1/fsc.exe": {
            "assemblyVersion": "10.4.3.0",
            "fileVersion": "10.400.319.25303"
          },
          "lib/netcoreapp2.1/fsi.exe": {
            "assemblyVersion": "10.4.3.0",
            "fileVersion": "10.400.319.25303"
          }
        },
        "resources": {
          "lib/netcoreapp2.1/cs/FSharp.Build.resources.dll": {
            "locale": "cs"
          },
          "lib/netcoreapp2.1/cs/FSharp.Compiler.Interactive.Settings.resources.dll": {
            "locale": "cs"
          },
          "lib/netcoreapp2.1/cs/FSharp.Compiler.Private.resources.dll": {
            "locale": "cs"
          },
          "lib/netcoreapp2.1/cs/FSharp.Core.resources.dll": {
            "locale": "cs"
          },
          "lib/netcoreapp2.1/de/FSharp.Build.resources.dll": {
            "locale": "de"
          },
          "lib/netcoreapp2.1/de/FSharp.Compiler.Interactive.Settings.resources.dll": {
            "locale": "de"
          },
          "lib/netcoreapp2.1/de/FSharp.Compiler.Private.resources.dll": {
            "locale": "de"
          },
          "lib/netcoreapp2.1/de/FSharp.Core.resources.dll": {
            "locale": "de"
          },
          "lib/netcoreapp2.1/es/FSharp.Build.resources.dll": {
            "locale": "es"
          },
          "lib/netcoreapp2.1/es/FSharp.Compiler.Interactive.Settings.resources.dll": {
            "locale": "es"
          },
          "lib/netcoreapp2.1/es/FSharp.Compiler.Private.resources.dll": {
            "locale": "es"
          },
          "lib/netcoreapp2.1/es/FSharp.Core.resources.dll": {
            "locale": "es"
          },
          "lib/netcoreapp2.1/fr/FSharp.Build.resources.dll": {
            "locale": "fr"
          },
          "lib/netcoreapp2.1/fr/FSharp.Compiler.Interactive.Settings.resources.dll": {
            "locale": "fr"
          },
          "lib/netcoreapp2.1/fr/FSharp.Compiler.Private.resources.dll": {
            "locale": "fr"
          },
          "lib/netcoreapp2.1/fr/FSharp.Core.resources.dll": {
            "locale": "fr"
          },
          "lib/netcoreapp2.1/it/FSharp.Build.resources.dll": {
            "locale": "it"
          },
          "lib/netcoreapp2.1/it/FSharp.Compiler.Interactive.Settings.resources.dll": {
            "locale": "it"
          },
          "lib/netcoreapp2.1/it/FSharp.Compiler.Private.resources.dll": {
            "locale": "it"
          },
          "lib/netcoreapp2.1/it/FSharp.Core.resources.dll": {
            "locale": "it"
          },
          "lib/netcoreapp2.1/ja/FSharp.Build.resources.dll": {
            "locale": "ja"
          },
          "lib/netcoreapp2.1/ja/FSharp.Compiler.Interactive.Settings.resources.dll": {
            "locale": "ja"
          },
          "lib/netcoreapp2.1/ja/FSharp.Compiler.Private.resources.dll": {
            "locale": "ja"
          },
          "lib/netcoreapp2.1/ja/FSharp.Core.resources.dll": {
            "locale": "ja"
          },
          "lib/netcoreapp2.1/ko/FSharp.Build.resources.dll": {
            "locale": "ko"
          },
          "lib/netcoreapp2.1/ko/FSharp.Compiler.Interactive.Settings.resources.dll": {
            "locale": "ko"
          },
          "lib/netcoreapp2.1/ko/FSharp.Compiler.Private.resources.dll": {
            "locale": "ko"
          },
          "lib/netcoreapp2.1/ko/FSharp.Core.resources.dll": {
            "locale": "ko"
          },
          "lib/netcoreapp2.1/pl/FSharp.Build.resources.dll": {
            "locale": "pl"
          },
          "lib/netcoreapp2.1/pl/FSharp.Compiler.Interactive.Settings.resources.dll": {
            "locale": "pl"
          },
          "lib/netcoreapp2.1/pl/FSharp.Compiler.Private.resources.dll": {
            "locale": "pl"
          },
          "lib/netcoreapp2.1/pl/FSharp.Core.resources.dll": {
            "locale": "pl"
          },
          "lib/netcoreapp2.1/pt-BR/FSharp.Build.resources.dll": {
            "locale": "pt-BR"
          },
          "lib/netcoreapp2.1/pt-BR/FSharp.Compiler.Interactive.Settings.resources.dll": {
            "locale": "pt-BR"
          },
          "lib/netcoreapp2.1/pt-BR/FSharp.Compiler.Private.resources.dll": {
            "locale": "pt-BR"
          },
          "lib/netcoreapp2.1/pt-BR/FSharp.Core.resources.dll": {
            "locale": "pt-BR"
          },
          "lib/netcoreapp2.1/ru/FSharp.Build.resources.dll": {
            "locale": "ru"
          },
          "lib/netcoreapp2.1/ru/FSharp.Compiler.Interactive.Settings.resources.dll": {
            "locale": "ru"
          },
          "lib/netcoreapp2.1/ru/FSharp.Compiler.Private.resources.dll": {
            "locale": "ru"
          },
          "lib/netcoreapp2.1/ru/FSharp.Core.resources.dll": {
            "locale": "ru"
          },
          "lib/netcoreapp2.1/tr/FSharp.Build.resources.dll": {
            "locale": "tr"
          },
          "lib/netcoreapp2.1/tr/FSharp.Compiler.Interactive.Settings.resources.dll": {
            "locale": "tr"
          },
          "lib/netcoreapp2.1/tr/FSharp.Compiler.Private.resources.dll": {
            "locale": "tr"
          },
          "lib/netcoreapp2.1/tr/FSharp.Core.resources.dll": {
            "locale": "tr"
          },
          "lib/netcoreapp2.1/zh-Hans/FSharp.Build.resources.dll": {
            "locale": "zh-Hans"
          },
          "lib/netcoreapp2.1/zh-Hans/FSharp.Compiler.Interactive.Settings.resources.dll": {
            "locale": "zh-Hans"
          },
          "lib/netcoreapp2.1/zh-Hans/FSharp.Compiler.Private.resources.dll": {
            "locale": "zh-Hans"
          },
          "lib/netcoreapp2.1/zh-Hans/FSharp.Core.resources.dll": {
            "locale": "zh-Hans"
          },
          "lib/netcoreapp2.1/zh-Hant/FSharp.Build.resources.dll": {
            "locale": "zh-Hant"
          },
          "lib/netcoreapp2.1/zh-Hant/FSharp.Compiler.Interactive.Settings.resources.dll": {
            "locale": "zh-Hant"
          },
          "lib/netcoreapp2.1/zh-Hant/FSharp.Compiler.Private.resources.dll": {
            "locale": "zh-Hant"
          },
          "lib/netcoreapp2.1/zh-Hant/FSharp.Core.resources.dll": {
            "locale": "zh-Hant"
          }
        }
      },
      "Microsoft.Win32.Primitives/4.3.0": {
        "dependencies": {
          "System.Runtime": "4.3.0"
        }
      },
      "Microsoft.Win32.Registry/4.3.0": {
        "dependencies": {
          "System.Collections": "4.3.0",
          "System.Globalization": "4.3.0",
          "System.Resources.ResourceManager": "4.3.0",
          "System.Runtime": "4.3.0",
          "System.Runtime.Extensions": "4.3.0",
          "System.Runtime.Handles": "4.3.0",
          "System.Runtime.InteropServices": "4.3.0"
        },
        "runtimeTargets": {
          "runtime/unix/lib/_._": {
            "rid": "unix",
            "assetType": "runtime"
          },
          "runtime/win/lib/_._": {
            "rid": "win",
            "assetType": "runtime"
          }
        }
      },
      "runtime.debian.8-x64.runtime.native.System.Security.Cryptography.OpenSsl/4.3.0": {
        "runtimeTargets": {
          "runtime/debian.8-x64/native/_._": {
            "rid": "debian.8-x64",
            "assetType": "native"
          }
        }
      },
      "runtime.fedora.23-x64.runtime.native.System.Security.Cryptography.OpenSsl/4.3.0": {
        "runtimeTargets": {
          "runtime/fedora.23-x64/native/_._": {
            "rid": "fedora.23-x64",
            "assetType": "native"
          }
        }
      },
      "runtime.fedora.24-x64.runtime.native.System.Security.Cryptography.OpenSsl/4.3.0": {
        "runtimeTargets": {
          "runtime/fedora.24-x64/native/_._": {
            "rid": "fedora.24-x64",
            "assetType": "native"
          }
        }
      },
      "runtime.native.System/4.3.0": {},
      "runtime.native.System.Data.SqlClient.sni/4.3.0": {
        "dependencies": {
          "runtime.win7-x64.runtime.native.System.Data.SqlClient.sni": "4.3.0",
          "runtime.win7-x86.runtime.native.System.Data.SqlClient.sni": "4.3.0"
        }
      },
      "runtime.native.System.Net.Http/4.3.0": {},
      "runtime.native.System.Net.Security/4.3.0": {},
      "runtime.native.System.Security.Cryptography.Apple/4.3.0": {
        "dependencies": {
          "runtime.osx.10.10-x64.runtime.native.System.Security.Cryptography.Apple": "4.3.0"
        }
      },
      "runtime.native.System.Security.Cryptography.OpenSsl/4.3.0": {
        "dependencies": {
          "runtime.debian.8-x64.runtime.native.System.Security.Cryptography.OpenSsl": "4.3.0",
          "runtime.fedora.23-x64.runtime.native.System.Security.Cryptography.OpenSsl": "4.3.0",
          "runtime.fedora.24-x64.runtime.native.System.Security.Cryptography.OpenSsl": "4.3.0",
          "runtime.opensuse.13.2-x64.runtime.native.System.Security.Cryptography.OpenSsl": "4.3.0",
          "runtime.opensuse.42.1-x64.runtime.native.System.Security.Cryptography.OpenSsl": "4.3.0",
          "runtime.osx.10.10-x64.runtime.native.System.Security.Cryptography.OpenSsl": "4.3.0",
          "runtime.rhel.7-x64.runtime.native.System.Security.Cryptography.OpenSsl": "4.3.0",
          "runtime.ubuntu.14.04-x64.runtime.native.System.Security.Cryptography.OpenSsl": "4.3.0",
          "runtime.ubuntu.16.04-x64.runtime.native.System.Security.Cryptography.OpenSsl": "4.3.0",
          "runtime.ubuntu.16.10-x64.runtime.native.System.Security.Cryptography.OpenSsl": "4.3.0"
        }
      },
      "runtime.opensuse.13.2-x64.runtime.native.System.Security.Cryptography.OpenSsl/4.3.0": {
        "runtimeTargets": {
          "runtime/opensuse.13.2-x64/native/_._": {
            "rid": "opensuse.13.2-x64",
            "assetType": "native"
          }
        }
      },
      "runtime.opensuse.42.1-x64.runtime.native.System.Security.Cryptography.OpenSsl/4.3.0": {
        "runtimeTargets": {
          "runtime/opensuse.42.1-x64/native/_._": {
            "rid": "opensuse.42.1-x64",
            "assetType": "native"
          }
        }
      },
      "runtime.osx.10.10-x64.runtime.native.System.Security.Cryptography.Apple/4.3.0": {
        "runtimeTargets": {
          "runtime/osx.10.10-x64/native/_._": {
            "rid": "osx.10.10-x64",
            "assetType": "native"
          }
        }
      },
      "runtime.osx.10.10-x64.runtime.native.System.Security.Cryptography.OpenSsl/4.3.0": {
        "runtimeTargets": {
          "runtime/osx.10.10-x64/native/_._": {
            "rid": "osx.10.10-x64",
            "assetType": "native"
          }
        }
      },
      "runtime.rhel.7-x64.runtime.native.System.Security.Cryptography.OpenSsl/4.3.0": {
        "runtimeTargets": {
          "runtime/rhel.7-x64/native/_._": {
            "rid": "rhel.7-x64",
            "assetType": "native"
          }
        }
      },
      "runtime.ubuntu.14.04-x64.runtime.native.System.Security.Cryptography.OpenSsl/4.3.0": {
        "runtimeTargets": {
          "runtime/ubuntu.14.04-x64/native/_._": {
            "rid": "ubuntu.14.04-x64",
            "assetType": "native"
          }
        }
      },
      "runtime.ubuntu.16.04-x64.runtime.native.System.Security.Cryptography.OpenSsl/4.3.0": {
        "runtimeTargets": {
          "runtime/ubuntu.16.04-x64/native/_._": {
            "rid": "ubuntu.16.04-x64",
            "assetType": "native"
          }
        }
      },
      "runtime.ubuntu.16.10-x64.runtime.native.System.Security.Cryptography.OpenSsl/4.3.0": {
        "runtimeTargets": {
          "runtime/ubuntu.16.10-x64/native/_._": {
            "rid": "ubuntu.16.10-x64",
            "assetType": "native"
          }
        }
      },
      "runtime.win7-x64.runtime.native.System.Data.SqlClient.sni/4.3.0": {
        "runtimeTargets": {
          "runtimes/win7-x64/native/sni.dll": {
            "rid": "win7-x64",
            "assetType": "native",
            "fileVersion": "1.0.24628.0"
          }
        }
      },
      "runtime.win7-x86.runtime.native.System.Data.SqlClient.sni/4.3.0": {
        "runtimeTargets": {
          "runtimes/win7-x86/native/sni.dll": {
            "rid": "win7-x86",
            "assetType": "native",
            "fileVersion": "1.0.24628.0"
          }
        }
      },
      "System.Buffers/4.3.0": {
        "dependencies": {
          "System.Diagnostics.Debug": "4.3.0",
          "System.Diagnostics.Tracing": "4.3.0",
          "System.Resources.ResourceManager": "4.3.0",
          "System.Runtime": "4.3.0",
          "System.Threading": "4.3.0"
        }
      },
      "System.Collections/4.3.0": {
        "dependencies": {
          "System.Runtime": "4.3.0"
        }
      },
      "System.Collections.Concurrent/4.3.0": {
        "dependencies": {
          "System.Collections": "4.3.0",
          "System.Diagnostics.Debug": "4.3.0",
          "System.Diagnostics.Tracing": "4.3.0",
          "System.Globalization": "4.3.0",
          "System.Reflection": "4.3.0",
          "System.Resources.ResourceManager": "4.3.0",
          "System.Runtime": "4.3.0",
          "System.Runtime.Extensions": "4.3.0",
          "System.Threading": "4.3.0",
          "System.Threading.Tasks": "4.3.0"
        }
      },
      "System.Collections.Immutable/1.5.0": {},
      "System.Data.Common/4.3.0": {
        "dependencies": {
          "System.Collections": "4.3.0",
          "System.Globalization": "4.3.0",
          "System.IO": "4.3.0",
          "System.Resources.ResourceManager": "4.3.0",
          "System.Runtime": "4.3.0",
          "System.Runtime.Extensions": "4.3.0",
          "System.Text.RegularExpressions": "4.3.0",
          "System.Threading.Tasks": "4.3.0"
        }
      },
      "System.Data.SqlClient/4.3.0": {
        "dependencies": {
          "Microsoft.Win32.Primitives": "4.3.0",
          "System.Collections": "4.3.0",
          "System.Collections.Concurrent": "4.3.0",
          "System.Data.Common": "4.3.0",
          "System.Diagnostics.Debug": "4.3.0",
          "System.Diagnostics.DiagnosticSource": "4.3.0",
          "System.Globalization": "4.3.0",
          "System.IO": "4.3.0",
          "System.IO.Pipes": "4.3.0",
          "System.Linq": "4.3.0",
          "System.Net.NameResolution": "4.3.0",
          "System.Net.Primitives": "4.3.0",
          "System.Net.Security": "4.3.0",
          "System.Net.Sockets": "4.3.0",
          "System.Reflection": "4.3.0",
          "System.Reflection.TypeExtensions": "4.3.0",
          "System.Resources.ResourceManager": "4.3.0",
          "System.Runtime": "4.3.0",
          "System.Runtime.Extensions": "4.3.0",
          "System.Runtime.Handles": "4.3.0",
          "System.Runtime.InteropServices": "4.3.0",
          "System.Runtime.InteropServices.RuntimeInformation": "4.3.0",
          "System.Security.Cryptography.X509Certificates": "4.3.0",
          "System.Security.Principal": "4.3.0",
          "System.Security.Principal.Windows": "4.3.0",
          "System.Text.Encoding": "4.3.0",
          "System.Text.Encoding.CodePages": "4.3.0",
          "System.Text.Encoding.Extensions": "4.3.0",
          "System.Text.RegularExpressions": "4.3.0",
          "System.Threading": "4.3.0",
          "System.Threading.Tasks": "4.3.0",
          "System.Threading.Thread": "4.3.0",
          "System.Threading.ThreadPool": "4.3.0",
          "System.Threading.Timer": "4.3.0",
          "System.Xml.ReaderWriter": "4.3.0",
          "runtime.native.System.Data.SqlClient.sni": "4.3.0"
        },
        "runtimeTargets": {
          "runtimes/unix/lib/netstandard1.3/System.Data.SqlClient.dll": {
            "rid": "unix",
            "assetType": "runtime",
            "assemblyVersion": "4.1.1.0",
            "fileVersion": "4.6.24702.1"
          },
          "runtimes/win/lib/netstandard1.3/System.Data.SqlClient.dll": {
            "rid": "win",
            "assetType": "runtime",
            "assemblyVersion": "4.1.1.0",
            "fileVersion": "4.6.24702.1"
          }
        }
      },
      "System.Diagnostics.Debug/4.3.0": {
        "dependencies": {
          "System.Runtime": "4.3.0"
        }
      },
      "System.Diagnostics.DiagnosticSource/4.3.0": {
        "dependencies": {
          "System.Collections": "4.3.0",
          "System.Diagnostics.Tracing": "4.3.0",
          "System.Reflection": "4.3.0",
          "System.Runtime": "4.3.0",
          "System.Threading": "4.3.0"
        }
      },
      "System.Diagnostics.Process/4.3.0": {
        "dependencies": {
          "Microsoft.Win32.Primitives": "4.3.0",
          "Microsoft.Win32.Registry": "4.3.0",
          "System.Collections": "4.3.0",
          "System.Diagnostics.Debug": "4.3.0",
          "System.Globalization": "4.3.0",
          "System.IO": "4.3.0",
          "System.IO.FileSystem": "4.3.0",
          "System.IO.FileSystem.Primitives": "4.3.0",
          "System.Resources.ResourceManager": "4.3.0",
          "System.Runtime": "4.3.0",
          "System.Runtime.Extensions": "4.3.0",
          "System.Runtime.Handles": "4.3.0",
          "System.Runtime.InteropServices": "4.3.0",
          "System.Text.Encoding": "4.3.0",
          "System.Text.Encoding.Extensions": "4.3.0",
          "System.Threading": "4.3.0",
          "System.Threading.Tasks": "4.3.0",
          "System.Threading.Thread": "4.3.0",
          "System.Threading.ThreadPool": "4.3.0",
          "runtime.native.System": "4.3.0"
        },
        "runtimeTargets": {
          "runtime/linux/lib/_._": {
            "rid": "linux",
            "assetType": "runtime"
          },
          "runtime/osx/lib/_._": {
            "rid": "osx",
            "assetType": "runtime"
          },
          "runtime/win/lib/_._": {
            "rid": "win",
            "assetType": "runtime"
          }
        }
      },
      "System.Diagnostics.TraceSource/4.3.0": {
        "dependencies": {
          "System.Collections": "4.3.0",
          "System.Diagnostics.Debug": "4.3.0",
          "System.Globalization": "4.3.0",
          "System.Resources.ResourceManager": "4.3.0",
          "System.Runtime": "4.3.0",
          "System.Runtime.Extensions": "4.3.0",
          "System.Threading": "4.3.0",
          "runtime.native.System": "4.3.0"
        },
        "runtimeTargets": {
          "runtime/unix/lib/_._": {
            "rid": "unix",
            "assetType": "runtime"
          },
          "runtime/win/lib/_._": {
            "rid": "win",
            "assetType": "runtime"
          }
        }
      },
      "System.Diagnostics.Tracing/4.3.0": {
        "dependencies": {
          "System.Runtime": "4.3.0"
        }
      },
      "System.Globalization/4.3.0": {
        "dependencies": {
          "System.Runtime": "4.3.0"
        }
      },
      "System.Globalization.Calendars/4.3.0": {
        "dependencies": {
          "System.Globalization": "4.3.0",
          "System.Runtime": "4.3.0"
        }
      },
      "System.Globalization.Extensions/4.3.0": {
        "dependencies": {
          "System.Globalization": "4.3.0",
          "System.Resources.ResourceManager": "4.3.0",
          "System.Runtime": "4.3.0",
          "System.Runtime.Extensions": "4.3.0",
          "System.Runtime.InteropServices": "4.3.0"
        },
        "runtimeTargets": {
          "runtime/unix/lib/_._": {
            "rid": "unix",
            "assetType": "runtime"
          },
          "runtime/win/lib/_._": {
            "rid": "win",
            "assetType": "runtime"
          }
        }
      },
      "System.IO/4.3.0": {
        "dependencies": {
          "System.Runtime": "4.3.0",
          "System.Text.Encoding": "4.3.0",
          "System.Threading.Tasks": "4.3.0"
        }
      },
      "System.IO.FileSystem/4.3.0": {
        "dependencies": {
          "System.IO": "4.3.0",
          "System.IO.FileSystem.Primitives": "4.3.0",
          "System.Runtime": "4.3.0",
          "System.Runtime.Handles": "4.3.0",
          "System.Text.Encoding": "4.3.0",
          "System.Threading.Tasks": "4.3.0"
        }
      },
      "System.IO.FileSystem.Primitives/4.3.0": {
        "dependencies": {
          "System.Runtime": "4.3.0"
        }
      },
      "System.IO.Pipes/4.3.0": {
        "dependencies": {
          "System.Buffers": "4.3.0",
          "System.Diagnostics.Debug": "4.3.0",
          "System.IO": "4.3.0",
          "System.IO.FileSystem.Primitives": "4.3.0",
          "System.Net.Primitives": "4.3.0",
          "System.Net.Sockets": "4.3.0",
          "System.Reflection": "4.3.0",
          "System.Resources.ResourceManager": "4.3.0",
          "System.Runtime": "4.3.0",
          "System.Runtime.Extensions": "4.3.0",
          "System.Runtime.Handles": "4.3.0",
          "System.Runtime.InteropServices": "4.3.0",
          "System.Security.Principal": "4.3.0",
          "System.Text.Encoding": "4.3.0",
          "System.Threading": "4.3.0",
          "System.Threading.Overlapped": "4.3.0",
          "System.Threading.Tasks": "4.3.0",
          "runtime.native.System": "4.3.0"
        },
        "runtimeTargets": {
          "runtime/unix/lib/_._": {
            "rid": "unix",
            "assetType": "runtime"
          },
          "runtime/win/lib/_._": {
            "rid": "win",
            "assetType": "runtime"
          }
        }
      },
      "System.Linq/4.3.0": {
        "dependencies": {
          "System.Collections": "4.3.0",
          "System.Diagnostics.Debug": "4.3.0",
          "System.Resources.ResourceManager": "4.3.0",
          "System.Runtime": "4.3.0",
          "System.Runtime.Extensions": "4.3.0"
        }
      },
      "System.Linq.Expressions/4.3.0": {
        "dependencies": {
          "System.Collections": "4.3.0",
          "System.Diagnostics.Debug": "4.3.0",
          "System.Globalization": "4.3.0",
          "System.IO": "4.3.0",
          "System.Linq": "4.3.0",
          "System.ObjectModel": "4.3.0",
          "System.Reflection": "4.3.0",
          "System.Reflection.Emit": "4.3.0",
          "System.Reflection.Emit.ILGeneration": "4.3.0",
          "System.Reflection.Emit.Lightweight": "4.3.0",
          "System.Reflection.Extensions": "4.3.0",
          "System.Reflection.Primitives": "4.3.0",
          "System.Reflection.TypeExtensions": "4.3.0",
          "System.Resources.ResourceManager": "4.3.0",
          "System.Runtime": "4.3.0",
          "System.Runtime.Extensions": "4.3.0",
          "System.Threading": "4.3.0"
        }
      },
      "System.Linq.Queryable/4.3.0": {
        "dependencies": {
          "System.Collections": "4.3.0",
          "System.Diagnostics.Debug": "4.3.0",
          "System.Linq": "4.3.0",
          "System.Linq.Expressions": "4.3.0",
          "System.Reflection": "4.3.0",
          "System.Reflection.Extensions": "4.3.0",
          "System.Resources.ResourceManager": "4.3.0",
          "System.Runtime": "4.3.0"
        }
      },
      "System.Net.Http/4.3.0": {
        "dependencies": {
          "System.Collections": "4.3.0",
          "System.Diagnostics.Debug": "4.3.0",
          "System.Diagnostics.DiagnosticSource": "4.3.0",
          "System.Diagnostics.Tracing": "4.3.0",
          "System.Globalization": "4.3.0",
          "System.Globalization.Extensions": "4.3.0",
          "System.IO": "4.3.0",
          "System.IO.FileSystem": "4.3.0",
          "System.Net.Primitives": "4.3.0",
          "System.Resources.ResourceManager": "4.3.0",
          "System.Runtime": "4.3.0",
          "System.Runtime.Extensions": "4.3.0",
          "System.Runtime.Handles": "4.3.0",
          "System.Runtime.InteropServices": "4.3.0",
          "System.Security.Cryptography.Algorithms": "4.3.0",
          "System.Security.Cryptography.Encoding": "4.3.0",
          "System.Security.Cryptography.OpenSsl": "4.3.0",
          "System.Security.Cryptography.Primitives": "4.3.0",
          "System.Security.Cryptography.X509Certificates": "4.3.0",
          "System.Text.Encoding": "4.3.0",
          "System.Threading": "4.3.0",
          "System.Threading.Tasks": "4.3.0",
          "runtime.native.System": "4.3.0",
          "runtime.native.System.Net.Http": "4.3.0",
          "runtime.native.System.Security.Cryptography.OpenSsl": "4.3.0"
        },
        "runtimeTargets": {
          "runtime/unix/lib/_._": {
            "rid": "unix",
            "assetType": "runtime"
          },
          "runtime/win/lib/_._": {
            "rid": "win",
            "assetType": "runtime"
          }
        }
      },
      "System.Net.NameResolution/4.3.0": {
        "dependencies": {
          "System.Collections": "4.3.0",
          "System.Diagnostics.Tracing": "4.3.0",
          "System.Globalization": "4.3.0",
          "System.Net.Primitives": "4.3.0",
          "System.Resources.ResourceManager": "4.3.0",
          "System.Runtime": "4.3.0",
          "System.Runtime.Extensions": "4.3.0",
          "System.Runtime.Handles": "4.3.0",
          "System.Runtime.InteropServices": "4.3.0",
          "System.Security.Principal.Windows": "4.3.0",
          "System.Threading": "4.3.0",
          "System.Threading.Tasks": "4.3.0",
          "runtime.native.System": "4.3.0"
        },
        "runtimeTargets": {
          "runtime/unix/lib/_._": {
            "rid": "unix",
            "assetType": "runtime"
          },
          "runtime/win/lib/_._": {
            "rid": "win",
            "assetType": "runtime"
          }
        }
      },
      "System.Net.Primitives/4.3.0": {
        "dependencies": {
          "System.Runtime": "4.3.0",
          "System.Runtime.Handles": "4.3.0"
        }
      },
      "System.Net.Requests/4.3.0": {
        "dependencies": {
          "System.Collections": "4.3.0",
          "System.Diagnostics.Debug": "4.3.0",
          "System.Diagnostics.Tracing": "4.3.0",
          "System.Globalization": "4.3.0",
          "System.IO": "4.3.0",
          "System.Net.Http": "4.3.0",
          "System.Net.Primitives": "4.3.0",
          "System.Net.WebHeaderCollection": "4.3.0",
          "System.Resources.ResourceManager": "4.3.0",
          "System.Runtime": "4.3.0",
          "System.Threading": "4.3.0",
          "System.Threading.Tasks": "4.3.0"
        },
        "runtimeTargets": {
          "runtime/unix/lib/_._": {
            "rid": "unix",
            "assetType": "runtime"
          },
          "runtime/win/lib/_._": {
            "rid": "win",
            "assetType": "runtime"
          }
        }
      },
      "System.Net.Security/4.3.0": {
        "dependencies": {
          "Microsoft.Win32.Primitives": "4.3.0",
          "System.Collections": "4.3.0",
          "System.Collections.Concurrent": "4.3.0",
          "System.Diagnostics.Tracing": "4.3.0",
          "System.Globalization": "4.3.0",
          "System.Globalization.Extensions": "4.3.0",
          "System.IO": "4.3.0",
          "System.Net.Primitives": "4.3.0",
          "System.Resources.ResourceManager": "4.3.0",
          "System.Runtime": "4.3.0",
          "System.Runtime.Extensions": "4.3.0",
          "System.Runtime.Handles": "4.3.0",
          "System.Runtime.InteropServices": "4.3.0",
          "System.Security.Claims": "4.3.0",
          "System.Security.Cryptography.Algorithms": "4.3.0",
          "System.Security.Cryptography.Encoding": "4.3.0",
          "System.Security.Cryptography.OpenSsl": "4.3.0",
          "System.Security.Cryptography.Primitives": "4.3.0",
          "System.Security.Cryptography.X509Certificates": "4.3.0",
          "System.Security.Principal": "4.3.0",
          "System.Text.Encoding": "4.3.0",
          "System.Threading": "4.3.0",
          "System.Threading.Tasks": "4.3.0",
          "System.Threading.ThreadPool": "4.3.0",
          "runtime.native.System": "4.3.0",
          "runtime.native.System.Net.Security": "4.3.0",
          "runtime.native.System.Security.Cryptography.OpenSsl": "4.3.0"
        },
        "runtimeTargets": {
          "runtime/unix/lib/_._": {
            "rid": "unix",
            "assetType": "runtime"
          },
          "runtime/win/lib/_._": {
            "rid": "win",
            "assetType": "runtime"
          }
        }
      },
      "System.Net.Sockets/4.3.0": {
        "dependencies": {
          "System.IO": "4.3.0",
          "System.Net.Primitives": "4.3.0",
          "System.Runtime": "4.3.0",
          "System.Threading.Tasks": "4.3.0"
        }
      },
      "System.Net.WebHeaderCollection/4.3.0": {
        "dependencies": {
          "System.Collections": "4.3.0",
          "System.Resources.ResourceManager": "4.3.0",
          "System.Runtime": "4.3.0",
          "System.Runtime.Extensions": "4.3.0"
        }
      },
      "System.ObjectModel/4.3.0": {
        "dependencies": {
          "System.Collections": "4.3.0",
          "System.Diagnostics.Debug": "4.3.0",
          "System.Resources.ResourceManager": "4.3.0",
          "System.Runtime": "4.3.0",
          "System.Threading": "4.3.0"
        }
      },
      "System.Reflection/4.3.0": {
        "dependencies": {
          "System.IO": "4.3.0",
          "System.Reflection.Primitives": "4.3.0",
          "System.Runtime": "4.3.0"
        }
      },
      "System.Reflection.Emit/4.3.0": {
        "dependencies": {
          "System.IO": "4.3.0",
          "System.Reflection": "4.3.0",
          "System.Reflection.Emit.ILGeneration": "4.3.0",
          "System.Reflection.Primitives": "4.3.0",
          "System.Runtime": "4.3.0"
        }
      },
      "System.Reflection.Emit.ILGeneration/4.3.0": {
        "dependencies": {
          "System.Reflection": "4.3.0",
          "System.Reflection.Primitives": "4.3.0",
          "System.Runtime": "4.3.0"
        }
      },
      "System.Reflection.Emit.Lightweight/4.3.0": {
        "dependencies": {
          "System.Reflection": "4.3.0",
          "System.Reflection.Emit.ILGeneration": "4.3.0",
          "System.Reflection.Primitives": "4.3.0",
          "System.Runtime": "4.3.0"
        }
      },
      "System.Reflection.Extensions/4.3.0": {
        "dependencies": {
          "System.Reflection": "4.3.0",
          "System.Runtime": "4.3.0"
        }
      },
      "System.Reflection.Metadata/1.6.0": {},
      "System.Reflection.Primitives/4.3.0": {
        "dependencies": {
          "System.Runtime": "4.3.0"
        }
      },
      "System.Reflection.TypeExtensions/4.3.0": {
        "dependencies": {
          "System.Reflection": "4.3.0",
          "System.Runtime": "4.3.0"
        }
      },
      "System.Resources.ResourceManager/4.3.0": {
        "dependencies": {
          "System.Globalization": "4.3.0",
          "System.Reflection": "4.3.0",
          "System.Runtime": "4.3.0"
        }
      },
      "System.Runtime/4.3.0": {},
      "System.Runtime.Extensions/4.3.0": {
        "dependencies": {
          "System.Runtime": "4.3.0"
        }
      },
      "System.Runtime.Handles/4.3.0": {
        "dependencies": {
          "System.Runtime": "4.3.0"
        }
      },
      "System.Runtime.InteropServices/4.3.0": {
        "dependencies": {
          "System.Reflection": "4.3.0",
          "System.Reflection.Primitives": "4.3.0",
          "System.Runtime": "4.3.0",
          "System.Runtime.Handles": "4.3.0"
        }
      },
      "System.Runtime.InteropServices.RuntimeInformation/4.3.0": {
        "dependencies": {
          "System.Reflection": "4.3.0",
          "System.Reflection.Extensions": "4.3.0",
          "System.Resources.ResourceManager": "4.3.0",
          "System.Runtime": "4.3.0",
          "System.Runtime.InteropServices": "4.3.0",
          "System.Threading": "4.3.0",
          "runtime.native.System": "4.3.0"
        },
        "runtimeTargets": {
          "runtime/unix/lib/_._": {
            "rid": "unix",
            "assetType": "runtime"
          },
          "runtime/win/lib/_._": {
            "rid": "win",
            "assetType": "runtime"
          }
        }
      },
      "System.Runtime.Loader/4.3.0": {
        "dependencies": {
          "System.IO": "4.3.0",
          "System.Reflection": "4.3.0",
          "System.Runtime": "4.3.0"
        }
      },
      "System.Runtime.Numerics/4.3.0": {
        "dependencies": {
          "System.Globalization": "4.3.0",
          "System.Resources.ResourceManager": "4.3.0",
          "System.Runtime": "4.3.0",
          "System.Runtime.Extensions": "4.3.0"
        }
      },
      "System.Security.Claims/4.3.0": {
        "dependencies": {
          "System.Collections": "4.3.0",
          "System.Globalization": "4.3.0",
          "System.IO": "4.3.0",
          "System.Resources.ResourceManager": "4.3.0",
          "System.Runtime": "4.3.0",
          "System.Runtime.Extensions": "4.3.0",
          "System.Security.Principal": "4.3.0"
        }
      },
      "System.Security.Cryptography.Algorithms/4.3.0": {
        "dependencies": {
          "System.Collections": "4.3.0",
          "System.IO": "4.3.0",
          "System.Resources.ResourceManager": "4.3.0",
          "System.Runtime": "4.3.0",
          "System.Runtime.Extensions": "4.3.0",
          "System.Runtime.Handles": "4.3.0",
          "System.Runtime.InteropServices": "4.3.0",
          "System.Runtime.Numerics": "4.3.0",
          "System.Security.Cryptography.Encoding": "4.3.0",
          "System.Security.Cryptography.Primitives": "4.3.0",
          "System.Text.Encoding": "4.3.0",
          "runtime.native.System.Security.Cryptography.Apple": "4.3.0",
          "runtime.native.System.Security.Cryptography.OpenSsl": "4.3.0"
        },
        "runtimeTargets": {
          "runtime/osx/lib/_._": {
            "rid": "osx",
            "assetType": "runtime"
          },
          "runtime/unix/lib/_._": {
            "rid": "unix",
            "assetType": "runtime"
          },
          "runtime/win/lib/_._": {
            "rid": "win",
            "assetType": "runtime"
          }
        }
      },
      "System.Security.Cryptography.Cng/4.3.0": {
        "dependencies": {
          "System.IO": "4.3.0",
          "System.Resources.ResourceManager": "4.3.0",
          "System.Runtime": "4.3.0",
          "System.Runtime.Extensions": "4.3.0",
          "System.Runtime.Handles": "4.3.0",
          "System.Runtime.InteropServices": "4.3.0",
          "System.Security.Cryptography.Algorithms": "4.3.0",
          "System.Security.Cryptography.Encoding": "4.3.0",
          "System.Security.Cryptography.Primitives": "4.3.0",
          "System.Text.Encoding": "4.3.0"
        },
        "runtimeTargets": {
          "runtime/unix/lib/_._": {
            "rid": "unix",
            "assetType": "runtime"
          },
          "runtime/win/lib/_._": {
            "rid": "win",
            "assetType": "runtime"
          }
        }
      },
      "System.Security.Cryptography.Csp/4.3.0": {
        "dependencies": {
          "System.IO": "4.3.0",
          "System.Reflection": "4.3.0",
          "System.Resources.ResourceManager": "4.3.0",
          "System.Runtime": "4.3.0",
          "System.Runtime.Extensions": "4.3.0",
          "System.Runtime.Handles": "4.3.0",
          "System.Runtime.InteropServices": "4.3.0",
          "System.Security.Cryptography.Algorithms": "4.3.0",
          "System.Security.Cryptography.Encoding": "4.3.0",
          "System.Security.Cryptography.Primitives": "4.3.0",
          "System.Text.Encoding": "4.3.0",
          "System.Threading": "4.3.0"
        },
        "runtimeTargets": {
          "runtime/unix/lib/_._": {
            "rid": "unix",
            "assetType": "runtime"
          },
          "runtime/win/lib/_._": {
            "rid": "win",
            "assetType": "runtime"
          }
        }
      },
      "System.Security.Cryptography.Encoding/4.3.0": {
        "dependencies": {
          "System.Collections": "4.3.0",
          "System.Collections.Concurrent": "4.3.0",
          "System.Linq": "4.3.0",
          "System.Resources.ResourceManager": "4.3.0",
          "System.Runtime": "4.3.0",
          "System.Runtime.Extensions": "4.3.0",
          "System.Runtime.Handles": "4.3.0",
          "System.Runtime.InteropServices": "4.3.0",
          "System.Security.Cryptography.Primitives": "4.3.0",
          "System.Text.Encoding": "4.3.0",
          "runtime.native.System.Security.Cryptography.OpenSsl": "4.3.0"
        },
        "runtimeTargets": {
          "runtime/unix/lib/_._": {
            "rid": "unix",
            "assetType": "runtime"
          },
          "runtime/win/lib/_._": {
            "rid": "win",
            "assetType": "runtime"
          }
        }
      },
      "System.Security.Cryptography.OpenSsl/4.3.0": {
        "dependencies": {
          "System.Collections": "4.3.0",
          "System.IO": "4.3.0",
          "System.Resources.ResourceManager": "4.3.0",
          "System.Runtime": "4.3.0",
          "System.Runtime.Extensions": "4.3.0",
          "System.Runtime.Handles": "4.3.0",
          "System.Runtime.InteropServices": "4.3.0",
          "System.Runtime.Numerics": "4.3.0",
          "System.Security.Cryptography.Algorithms": "4.3.0",
          "System.Security.Cryptography.Encoding": "4.3.0",
          "System.Security.Cryptography.Primitives": "4.3.0",
          "System.Text.Encoding": "4.3.0",
          "runtime.native.System.Security.Cryptography.OpenSsl": "4.3.0"
        },
        "runtimeTargets": {
          "runtime/unix/lib/_._": {
            "rid": "unix",
            "assetType": "runtime"
          }
        }
      },
      "System.Security.Cryptography.Primitives/4.3.0": {
        "dependencies": {
          "System.Diagnostics.Debug": "4.3.0",
          "System.Globalization": "4.3.0",
          "System.IO": "4.3.0",
          "System.Resources.ResourceManager": "4.3.0",
          "System.Runtime": "4.3.0",
          "System.Threading": "4.3.0",
          "System.Threading.Tasks": "4.3.0"
        }
      },
      "System.Security.Cryptography.X509Certificates/4.3.0": {
        "dependencies": {
          "System.Collections": "4.3.0",
          "System.Diagnostics.Debug": "4.3.0",
          "System.Globalization": "4.3.0",
          "System.Globalization.Calendars": "4.3.0",
          "System.IO": "4.3.0",
          "System.IO.FileSystem": "4.3.0",
          "System.IO.FileSystem.Primitives": "4.3.0",
          "System.Resources.ResourceManager": "4.3.0",
          "System.Runtime": "4.3.0",
          "System.Runtime.Extensions": "4.3.0",
          "System.Runtime.Handles": "4.3.0",
          "System.Runtime.InteropServices": "4.3.0",
          "System.Runtime.Numerics": "4.3.0",
          "System.Security.Cryptography.Algorithms": "4.3.0",
          "System.Security.Cryptography.Cng": "4.3.0",
          "System.Security.Cryptography.Csp": "4.3.0",
          "System.Security.Cryptography.Encoding": "4.3.0",
          "System.Security.Cryptography.OpenSsl": "4.3.0",
          "System.Security.Cryptography.Primitives": "4.3.0",
          "System.Text.Encoding": "4.3.0",
          "System.Threading": "4.3.0",
          "runtime.native.System": "4.3.0",
          "runtime.native.System.Net.Http": "4.3.0",
          "runtime.native.System.Security.Cryptography.OpenSsl": "4.3.0"
        },
        "runtimeTargets": {
          "runtime/unix/lib/_._": {
            "rid": "unix",
            "assetType": "runtime"
          },
          "runtime/win/lib/_._": {
            "rid": "win",
            "assetType": "runtime"
          }
        }
      },
      "System.Security.Principal/4.3.0": {
        "dependencies": {
          "System.Runtime": "4.3.0"
        }
      },
      "System.Security.Principal.Windows/4.3.0": {
        "dependencies": {
          "Microsoft.Win32.Primitives": "4.3.0",
          "System.Collections": "4.3.0",
          "System.Diagnostics.Debug": "4.3.0",
          "System.Reflection": "4.3.0",
          "System.Resources.ResourceManager": "4.3.0",
          "System.Runtime": "4.3.0",
          "System.Runtime.Extensions": "4.3.0",
          "System.Runtime.Handles": "4.3.0",
          "System.Runtime.InteropServices": "4.3.0",
          "System.Security.Claims": "4.3.0",
          "System.Security.Principal": "4.3.0",
          "System.Text.Encoding": "4.3.0",
          "System.Threading": "4.3.0"
        },
        "runtimeTargets": {
          "runtime/unix/lib/_._": {
            "rid": "unix",
            "assetType": "runtime"
          },
          "runtime/win/lib/_._": {
            "rid": "win",
            "assetType": "runtime"
          }
        }
      },
      "System.Text.Encoding/4.3.0": {
        "dependencies": {
          "System.Runtime": "4.3.0"
        }
      },
      "System.Text.Encoding.CodePages/4.3.0": {
        "dependencies": {
          "System.Collections": "4.3.0",
          "System.Globalization": "4.3.0",
          "System.IO": "4.3.0",
          "System.Reflection": "4.3.0",
          "System.Resources.ResourceManager": "4.3.0",
          "System.Runtime": "4.3.0",
          "System.Runtime.Extensions": "4.3.0",
          "System.Runtime.Handles": "4.3.0",
          "System.Runtime.InteropServices": "4.3.0",
          "System.Text.Encoding": "4.3.0",
          "System.Threading": "4.3.0"
        },
        "runtimeTargets": {
          "runtimes/unix/lib/netstandard1.3/System.Text.Encoding.CodePages.dll": {
            "rid": "unix",
            "assetType": "runtime",
            "assemblyVersion": "4.0.2.0",
            "fileVersion": "4.6.24705.1"
          },
          "runtimes/win/lib/netstandard1.3/System.Text.Encoding.CodePages.dll": {
            "rid": "win",
            "assetType": "runtime",
            "assemblyVersion": "4.0.2.0",
            "fileVersion": "4.6.24705.1"
          }
        }
      },
      "System.Text.Encoding.Extensions/4.3.0": {
        "dependencies": {
          "System.Runtime": "4.3.0",
          "System.Text.Encoding": "4.3.0"
        }
      },
      "System.Text.RegularExpressions/4.3.0": {
        "dependencies": {
          "System.Runtime": "4.3.0"
        }
      },
      "System.Threading/4.3.0": {
        "dependencies": {
          "System.Runtime": "4.3.0",
          "System.Threading.Tasks": "4.3.0"
        }
      },
      "System.Threading.Overlapped/4.3.0": {
        "dependencies": {
          "System.Resources.ResourceManager": "4.3.0",
          "System.Runtime": "4.3.0",
          "System.Runtime.Handles": "4.3.0"
        },
        "runtimeTargets": {
          "runtime/unix/lib/_._": {
            "rid": "unix",
            "assetType": "runtime"
          },
          "runtime/win/lib/_._": {
            "rid": "win",
            "assetType": "runtime"
          }
        }
      },
      "System.Threading.Tasks/4.3.0": {
        "dependencies": {
          "System.Runtime": "4.3.0"
        }
      },
      "System.Threading.Tasks.Extensions/4.3.0": {
        "dependencies": {
          "System.Collections": "4.3.0",
          "System.Runtime": "4.3.0",
          "System.Threading.Tasks": "4.3.0"
        }
      },
      "System.Threading.Tasks.Parallel/4.3.0": {
        "dependencies": {
          "System.Collections.Concurrent": "4.3.0",
          "System.Diagnostics.Debug": "4.3.0",
          "System.Diagnostics.Tracing": "4.3.0",
          "System.Resources.ResourceManager": "4.3.0",
          "System.Runtime": "4.3.0",
          "System.Runtime.Extensions": "4.3.0",
          "System.Threading": "4.3.0",
          "System.Threading.Tasks": "4.3.0"
        }
      },
      "System.Threading.Thread/4.3.0": {
        "dependencies": {
          "System.Runtime": "4.3.0"
        }
      },
      "System.Threading.ThreadPool/4.3.0": {
        "dependencies": {
          "System.Runtime": "4.3.0",
          "System.Runtime.Handles": "4.3.0"
        }
      },
      "System.Threading.Timer/4.3.0": {
        "dependencies": {
          "System.Runtime": "4.3.0"
        }
      },
      "System.ValueTuple/4.4.0": {},
      "System.Xml.ReaderWriter/4.3.0": {
        "dependencies": {
          "System.Collections": "4.3.0",
          "System.Diagnostics.Debug": "4.3.0",
          "System.Globalization": "4.3.0",
          "System.IO": "4.3.0",
          "System.IO.FileSystem": "4.3.0",
          "System.IO.FileSystem.Primitives": "4.3.0",
          "System.Resources.ResourceManager": "4.3.0",
          "System.Runtime": "4.3.0",
          "System.Runtime.Extensions": "4.3.0",
          "System.Runtime.InteropServices": "4.3.0",
          "System.Text.Encoding": "4.3.0",
          "System.Text.Encoding.Extensions": "4.3.0",
          "System.Text.RegularExpressions": "4.3.0",
          "System.Threading.Tasks": "4.3.0",
          "System.Threading.Tasks.Extensions": "4.3.0"
        }
      }
    }
  },
  "libraries": {
    "tool_fsc/1.0.0": {
      "type": "project",
      "serviceable": false,
      "sha512": ""
    },
    "Microsoft.FSharp.Compiler/10.4.3-beta.19253.3": {
      "type": "package",
      "serviceable": true,
      "sha512": "sha512-gVFe1f4R0IzW2+a9dxkUsUNY3yA/P+3I1sXtC/vPY2qYi1hsNI75g4Zgjyxhq/bLD3eYKL2Yc9+8fE4KVxS92w==",
      "path": "microsoft.fsharp.compiler/10.4.3-beta.19253.3",
      "hashPath": "microsoft.fsharp.compiler.10.4.3-beta.19253.3.nupkg.sha512"
    },
    "Microsoft.Win32.Primitives/4.3.0": {
      "type": "package",
      "serviceable": true,
      "sha512": "sha512-9ZQKCWxH7Ijp9BfahvL2Zyf1cJIk8XYLF6Yjzr2yi0b2cOut/HQ31qf1ThHAgCc3WiZMdnWcfJCgN82/0UunxA==",
      "path": "microsoft.win32.primitives/4.3.0",
      "hashPath": "microsoft.win32.primitives.4.3.0.nupkg.sha512"
    },
    "Microsoft.Win32.Registry/4.3.0": {
      "type": "package",
      "serviceable": true,
      "sha512": "sha512-Lw1/VwLH1yxz6SfFEjVRCN0pnflLEsWgnV4qsdJ512/HhTwnKXUG+zDQ4yTO3K/EJQemGoNaBHX5InISNKTzUQ==",
      "path": "microsoft.win32.registry/4.3.0",
      "hashPath": "microsoft.win32.registry.4.3.0.nupkg.sha512"
    },
    "runtime.debian.8-x64.runtime.native.System.Security.Cryptography.OpenSsl/4.3.0": {
      "type": "package",
      "serviceable": true,
      "sha512": "sha512-ZJbyxj5gWzOfnJTXGn9LH8ZK9t/PGFUVlsgv/dZUFy/ruE+eScVrAkaBTwf58FJ3F84cBMBOIm4QscRTtfxgqg==",
      "path": "runtime.debian.8-x64.runtime.native.system.security.cryptography.openssl/4.3.0",
      "hashPath": "runtime.debian.8-x64.runtime.native.system.security.cryptography.openssl.4.3.0.nupkg.sha512"
    },
    "runtime.fedora.23-x64.runtime.native.System.Security.Cryptography.OpenSsl/4.3.0": {
      "type": "package",
      "serviceable": true,
      "sha512": "sha512-+yH1a49wJMy8Zt4yx5RhJrxO/DBDByAiCzNwiETI+1S4mPdCu0OY4djdciC7Vssk0l22wQaDLrXxXkp+3+7bVA==",
      "path": "runtime.fedora.23-x64.runtime.native.system.security.cryptography.openssl/4.3.0",
      "hashPath": "runtime.fedora.23-x64.runtime.native.system.security.cryptography.openssl.4.3.0.nupkg.sha512"
    },
    "runtime.fedora.24-x64.runtime.native.System.Security.Cryptography.OpenSsl/4.3.0": {
      "type": "package",
      "serviceable": true,
      "sha512": "sha512-c3YNH1GQJbfIPJeCnr4avseugSqPrxwIqzthYyZDN6EuOyNOzq+y2KSUfRcXauya1sF4foESTgwM5e1A8arAKw==",
      "path": "runtime.fedora.24-x64.runtime.native.system.security.cryptography.openssl/4.3.0",
      "hashPath": "runtime.fedora.24-x64.runtime.native.system.security.cryptography.openssl.4.3.0.nupkg.sha512"
    },
    "runtime.native.System/4.3.0": {
      "type": "package",
      "serviceable": true,
      "sha512": "sha512-c/qWt2LieNZIj1jGnVNsE2Kl23Ya2aSTBuXMD6V7k9KWr6l16Tqdwq+hJScEpWER9753NWC8h96PaVNY5Ld7Jw==",
      "path": "runtime.native.system/4.3.0",
      "hashPath": "runtime.native.system.4.3.0.nupkg.sha512"
    },
    "runtime.native.System.Data.SqlClient.sni/4.3.0": {
      "type": "package",
      "serviceable": true,
      "sha512": "sha512-D3rTzz9tOPDMljo6hfs286SnbnUElsHizds+OfJ2/3TTlJSeoj90tL8U984R3drNrM9K/+86mJ5nQ2CYRJel5w==",
      "path": "runtime.native.system.data.sqlclient.sni/4.3.0",
      "hashPath": "runtime.native.system.data.sqlclient.sni.4.3.0.nupkg.sha512"
    },
    "runtime.native.System.Net.Http/4.3.0": {
      "type": "package",
      "serviceable": true,
      "sha512": "sha512-ZVuZJqnnegJhd2k/PtAbbIcZ3aZeITq3sj06oKfMBSfphW3HDmk/t4ObvbOk/JA/swGR0LNqMksAh/f7gpTROg==",
      "path": "runtime.native.system.net.http/4.3.0",
      "hashPath": "runtime.native.system.net.http.4.3.0.nupkg.sha512"
    },
    "runtime.native.System.Net.Security/4.3.0": {
      "type": "package",
      "serviceable": true,
      "sha512": "sha512-ARfgeRYF2AnYIcqEvy9VE0agN/3zexMMPtcegq1THpOMS63rIGMi706vCo6pbv9Xzw4qhdX1Gu1zyLZHj2WtLA==",
      "path": "runtime.native.system.net.security/4.3.0",
      "hashPath": "runtime.native.system.net.security.4.3.0.nupkg.sha512"
    },
    "runtime.native.System.Security.Cryptography.Apple/4.3.0": {
      "type": "package",
      "serviceable": true,
      "sha512": "sha512-jwjwlEL0Elv6gwoyaokRn12nv/JE+UW/DXJEbzhjCPvGbef36StnHKc9XaZD/rGWqYicrphZ7eumR/jdmNcjRg==",
      "path": "runtime.native.system.security.cryptography.apple/4.3.0",
      "hashPath": "runtime.native.system.security.cryptography.apple.4.3.0.nupkg.sha512"
    },
    "runtime.native.System.Security.Cryptography.OpenSsl/4.3.0": {
      "type": "package",
      "serviceable": true,
      "sha512": "sha512-NS1U+700m4KFRHR5o4vo9DSlTmlCKu/u7dtE5sUHVIPB+xpXxYQvgBgA6wEIeCz6Yfn0Z52/72WYsToCEPJnrw==",
      "path": "runtime.native.system.security.cryptography.openssl/4.3.0",
      "hashPath": "runtime.native.system.security.cryptography.openssl.4.3.0.nupkg.sha512"
    },
    "runtime.opensuse.13.2-x64.runtime.native.System.Security.Cryptography.OpenSsl/4.3.0": {
      "type": "package",
      "serviceable": true,
      "sha512": "sha512-zWLOQ77Y4FV/6Vw2g+FYzprbQX5/xKvjoCLe4L9159Aw1bSboQoJ1KRZFNdexDooWRAIsLSdE0ZokkrVkwN8Yw==",
      "path": "runtime.opensuse.13.2-x64.runtime.native.system.security.cryptography.openssl/4.3.0",
      "hashPath": "runtime.opensuse.13.2-x64.runtime.native.system.security.cryptography.openssl.4.3.0.nupkg.sha512"
    },
    "runtime.opensuse.42.1-x64.runtime.native.System.Security.Cryptography.OpenSsl/4.3.0": {
      "type": "package",
      "serviceable": true,
      "sha512": "sha512-KeLz4HClKf+nFS7p/6Fi/CqyLXh81FpiGzcmuS8DGi9lUqSnZ6Es23/gv2O+1XVGfrbNmviF7CckBpavkBoIFQ==",
      "path": "runtime.opensuse.42.1-x64.runtime.native.system.security.cryptography.openssl/4.3.0",
      "hashPath": "runtime.opensuse.42.1-x64.runtime.native.system.security.cryptography.openssl.4.3.0.nupkg.sha512"
    },
    "runtime.osx.10.10-x64.runtime.native.System.Security.Cryptography.Apple/4.3.0": {
      "type": "package",
      "serviceable": true,
      "sha512": "sha512-Kh9W4agE0r/hK8AX1LvyQI2NrKHBL8pO0gRoDTdDb0LL6Ta1Z2OtFx3lOaAE0ZpCUc/dt9Wzs3rA7a3IsKdOVA==",
      "path": "runtime.osx.10.10-x64.runtime.native.system.security.cryptography.apple/4.3.0",
      "hashPath": "runtime.osx.10.10-x64.runtime.native.system.security.cryptography.apple.4.3.0.nupkg.sha512"
    },
    "runtime.osx.10.10-x64.runtime.native.System.Security.Cryptography.OpenSsl/4.3.0": {
      "type": "package",
      "serviceable": true,
      "sha512": "sha512-/p8IQT2brFMDa7BHMH71LV+w5Tb3OxoLHxhn6+MGqN5xeqhM2HRHmj+7xQGJnaRn73d7ZTvp6yRCFMvolws4wA==",
      "path": "runtime.osx.10.10-x64.runtime.native.system.security.cryptography.openssl/4.3.0",
      "hashPath": "runtime.osx.10.10-x64.runtime.native.system.security.cryptography.openssl.4.3.0.nupkg.sha512"
    },
    "runtime.rhel.7-x64.runtime.native.System.Security.Cryptography.OpenSsl/4.3.0": {
      "type": "package",
      "serviceable": true,
      "sha512": "sha512-T5NvFgmHX0WH4c7lP72krsnk+IJI10vJf2j2twGE+5QBRA4RyRAgD+ZjEgdmpLOjW4B+nZGaadewTCUcR899OQ==",
      "path": "runtime.rhel.7-x64.runtime.native.system.security.cryptography.openssl/4.3.0",
      "hashPath": "runtime.rhel.7-x64.runtime.native.system.security.cryptography.openssl.4.3.0.nupkg.sha512"
    },
    "runtime.ubuntu.14.04-x64.runtime.native.System.Security.Cryptography.OpenSsl/4.3.0": {
      "type": "package",
      "serviceable": true,
      "sha512": "sha512-JGc0pAWRE8lB4Ucygk2pYSKbUPLlAIq6Bczf5/WF2D/VKJEPtYlVUMxk8fbl1zRfTWzSHi+VcFZlaPlWiNxeKg==",
      "path": "runtime.ubuntu.14.04-x64.runtime.native.system.security.cryptography.openssl/4.3.0",
      "hashPath": "runtime.ubuntu.14.04-x64.runtime.native.system.security.cryptography.openssl.4.3.0.nupkg.sha512"
    },
    "runtime.ubuntu.16.04-x64.runtime.native.System.Security.Cryptography.OpenSsl/4.3.0": {
      "type": "package",
      "serviceable": true,
      "sha512": "sha512-YWzJvhiC+iLWI/IfpPQUIBhYnAHUFQFRDqR7VDNmPj0b3rjW7dArFqKysZ9v0iSBs9Ih4v9GasLpYCSUwADMQQ==",
      "path": "runtime.ubuntu.16.04-x64.runtime.native.system.security.cryptography.openssl/4.3.0",
      "hashPath": "runtime.ubuntu.16.04-x64.runtime.native.system.security.cryptography.openssl.4.3.0.nupkg.sha512"
    },
    "runtime.ubuntu.16.10-x64.runtime.native.System.Security.Cryptography.OpenSsl/4.3.0": {
      "type": "package",
      "serviceable": true,
      "sha512": "sha512-1uVTITQP8/cI6YoO6FqfW1pzP0k2TnDZ3TFD88Bu/9H7ZuTsMY9xmadbGpwPu8w8swcd1ifZJsjD9hF9O6C/tg==",
      "path": "runtime.ubuntu.16.10-x64.runtime.native.system.security.cryptography.openssl/4.3.0",
      "hashPath": "runtime.ubuntu.16.10-x64.runtime.native.system.security.cryptography.openssl.4.3.0.nupkg.sha512"
    },
    "runtime.win7-x64.runtime.native.System.Data.SqlClient.sni/4.3.0": {
      "type": "package",
      "serviceable": true,
      "sha512": "sha512-j42JRgYOMi6B86attv8F3eDBISh+kzoKxLsu0zaq1ioY+je64chWd8fybvk9yPzayO3Dh1czhmf5B7rbafLRQA==",
      "path": "runtime.win7-x64.runtime.native.system.data.sqlclient.sni/4.3.0",
      "hashPath": "runtime.win7-x64.runtime.native.system.data.sqlclient.sni.4.3.0.nupkg.sha512"
    },
    "runtime.win7-x86.runtime.native.System.Data.SqlClient.sni/4.3.0": {
      "type": "package",
      "serviceable": true,
      "sha512": "sha512-4cXRTIcttvIreAoqK/5hzTtzepeggac+m5A0rzH+9zLtnFh2J0rLuGeJR4KjNLyKqPzO0kjqrs5lkRJEKX8HAA==",
      "path": "runtime.win7-x86.runtime.native.system.data.sqlclient.sni/4.3.0",
      "hashPath": "runtime.win7-x86.runtime.native.system.data.sqlclient.sni.4.3.0.nupkg.sha512"
    },
    "System.Buffers/4.3.0": {
      "type": "package",
      "serviceable": true,
      "sha512": "sha512-ratu44uTIHgeBeI0dE8DWvmXVBSo4u7ozRZZHOMmK/JPpYyo0dAfgSiHlpiObMQ5lEtEyIXA40sKRYg5J6A8uQ==",
      "path": "system.buffers/4.3.0",
      "hashPath": "system.buffers.4.3.0.nupkg.sha512"
    },
    "System.Collections/4.3.0": {
      "type": "package",
      "serviceable": true,
      "sha512": "sha512-3Dcj85/TBdVpL5Zr+gEEBUuFe2icOnLalmEh9hfck1PTYbbyWuZgh4fmm2ysCLTrqLQw6t3TgTyJ+VLp+Qb+Lw==",
      "path": "system.collections/4.3.0",
      "hashPath": "system.collections.4.3.0.nupkg.sha512"
    },
    "System.Collections.Concurrent/4.3.0": {
      "type": "package",
      "serviceable": true,
      "sha512": "sha512-ztl69Xp0Y/UXCL+3v3tEU+lIy+bvjKNUmopn1wep/a291pVPK7dxBd6T7WnlQqRog+d1a/hSsgRsmFnIBKTPLQ==",
      "path": "system.collections.concurrent/4.3.0",
      "hashPath": "system.collections.concurrent.4.3.0.nupkg.sha512"
    },
    "System.Collections.Immutable/1.5.0": {
      "type": "package",
      "serviceable": true,
      "sha512": "sha512-RGxi2aQoXgZ5ge0zxrKqI4PU9LrYYoLC+cnEnWXKsSduCOUhE1GEAAoTexUVT8RZOILQyy1B27HC8Xw/XLGzdQ==",
      "path": "system.collections.immutable/1.5.0",
      "hashPath": "system.collections.immutable.1.5.0.nupkg.sha512"
    },
    "System.Data.Common/4.3.0": {
      "type": "package",
      "serviceable": true,
      "sha512": "sha512-lm6E3T5u7BOuEH0u18JpbJHxBfOJPuCyl4Kg1RH10ktYLp5uEEE1xKrHW56/We4SnZpGAuCc9N0MJpSDhTHZGQ==",
      "path": "system.data.common/4.3.0",
      "hashPath": "system.data.common.4.3.0.nupkg.sha512"
    },
    "System.Data.SqlClient/4.3.0": {
      "type": "package",
      "serviceable": true,
      "sha512": "sha512-I/Qnde9yJ3ZR3pY6hmVbUPtBuzeWnGnMCzCdFvIpwEd2aDXafBya43S6MV58vfaiTIPjbdzoopr1Z9tj+j45ZQ==",
      "path": "system.data.sqlclient/4.3.0",
      "hashPath": "system.data.sqlclient.4.3.0.nupkg.sha512"
    },
    "System.Diagnostics.Debug/4.3.0": {
      "type": "package",
      "serviceable": true,
      "sha512": "sha512-ZUhUOdqmaG5Jk3Xdb8xi5kIyQYAA4PnTNlHx1mu9ZY3qv4ELIdKbnL/akbGaKi2RnNUWaZsAs31rvzFdewTj2g==",
      "path": "system.diagnostics.debug/4.3.0",
      "hashPath": "system.diagnostics.debug.4.3.0.nupkg.sha512"
    },
    "System.Diagnostics.DiagnosticSource/4.3.0": {
      "type": "package",
      "serviceable": true,
      "sha512": "sha512-tD6kosZnTAGdrEa0tZSuFyunMbt/5KYDnHdndJYGqZoNy00XVXyACd5d6KnE1YgYv3ne2CjtAfNXo/fwEhnKUA==",
      "path": "system.diagnostics.diagnosticsource/4.3.0",
      "hashPath": "system.diagnostics.diagnosticsource.4.3.0.nupkg.sha512"
    },
    "System.Diagnostics.Process/4.3.0": {
      "type": "package",
      "serviceable": true,
      "sha512": "sha512-J0wOX07+QASQblsfxmIMFc9Iq7KTXYL3zs2G/Xc704Ylv3NpuVdo6gij6V3PGiptTxqsK0K7CdXenRvKUnkA2g==",
      "path": "system.diagnostics.process/4.3.0",
      "hashPath": "system.diagnostics.process.4.3.0.nupkg.sha512"
    },
    "System.Diagnostics.TraceSource/4.3.0": {
      "type": "package",
      "serviceable": true,
      "sha512": "sha512-VnYp1NxGx8Ww731y2LJ1vpfb/DKVNKEZ8Jsh5SgQTZREL/YpWRArgh9pI8CDLmgHspZmLL697CaLvH85qQpRiw==",
      "path": "system.diagnostics.tracesource/4.3.0",
      "hashPath": "system.diagnostics.tracesource.4.3.0.nupkg.sha512"
    },
    "System.Diagnostics.Tracing/4.3.0": {
      "type": "package",
      "serviceable": true,
      "sha512": "sha512-rswfv0f/Cqkh78rA5S8eN8Neocz234+emGCtTF3lxPY96F+mmmUen6tbn0glN6PMvlKQb9bPAY5e9u7fgPTkKw==",
      "path": "system.diagnostics.tracing/4.3.0",
      "hashPath": "system.diagnostics.tracing.4.3.0.nupkg.sha512"
    },
    "System.Globalization/4.3.0": {
      "type": "package",
      "serviceable": true,
      "sha512": "sha512-kYdVd2f2PAdFGblzFswE4hkNANJBKRmsfa2X5LG2AcWE1c7/4t0pYae1L8vfZ5xvE2nK/R9JprtToA61OSHWIg==",
      "path": "system.globalization/4.3.0",
      "hashPath": "system.globalization.4.3.0.nupkg.sha512"
    },
    "System.Globalization.Calendars/4.3.0": {
      "type": "package",
      "serviceable": true,
      "sha512": "sha512-GUlBtdOWT4LTV3I+9/PJW+56AnnChTaOqqTLFtdmype/L500M2LIyXgmtd9X2P2VOkmJd5c67H5SaC2QcL1bFA==",
      "path": "system.globalization.calendars/4.3.0",
      "hashPath": "system.globalization.calendars.4.3.0.nupkg.sha512"
    },
    "System.Globalization.Extensions/4.3.0": {
      "type": "package",
      "serviceable": true,
      "sha512": "sha512-FhKmdR6MPG+pxow6wGtNAWdZh7noIOpdD5TwQ3CprzgIE1bBBoim0vbR1+AWsWjQmU7zXHgQo4TWSP6lCeiWcQ==",
      "path": "system.globalization.extensions/4.3.0",
      "hashPath": "system.globalization.extensions.4.3.0.nupkg.sha512"
    },
    "System.IO/4.3.0": {
      "type": "package",
      "serviceable": true,
      "sha512": "sha512-3qjaHvxQPDpSOYICjUoTsmoq5u6QJAFRUITgeT/4gqkF1bajbSmb1kwSxEA8AHlofqgcKJcM8udgieRNhaJ5Cg==",
      "path": "system.io/4.3.0",
      "hashPath": "system.io.4.3.0.nupkg.sha512"
    },
    "System.IO.FileSystem/4.3.0": {
      "type": "package",
      "serviceable": true,
      "sha512": "sha512-3wEMARTnuio+ulnvi+hkRNROYwa1kylvYahhcLk4HSoVdl+xxTFVeVlYOfLwrDPImGls0mDqbMhrza8qnWPTdA==",
      "path": "system.io.filesystem/4.3.0",
      "hashPath": "system.io.filesystem.4.3.0.nupkg.sha512"
    },
    "System.IO.FileSystem.Primitives/4.3.0": {
      "type": "package",
      "serviceable": true,
      "sha512": "sha512-6QOb2XFLch7bEc4lIcJH49nJN2HV+OC3fHDgsLVsBVBk3Y4hFAnOBGzJ2lUu7CyDDFo9IBWkSsnbkT6IBwwiMw==",
      "path": "system.io.filesystem.primitives/4.3.0",
      "hashPath": "system.io.filesystem.primitives.4.3.0.nupkg.sha512"
    },
    "System.IO.Pipes/4.3.0": {
      "type": "package",
      "serviceable": true,
      "sha512": "sha512-wpGJuACA6r8+KRckXoI6ghGTwgPRiICI6T7kgHI/m7S5eMqV/8jH37fzAUhTwIe9RwlH/j1sWwm2Q2zyXwZGHw==",
      "path": "system.io.pipes/4.3.0",
      "hashPath": "system.io.pipes.4.3.0.nupkg.sha512"
    },
    "System.Linq/4.3.0": {
      "type": "package",
      "serviceable": true,
      "sha512": "sha512-5DbqIUpsDp0dFftytzuMmc0oeMdQwjcP/EWxsksIz/w1TcFRkZ3yKKz0PqiYFMmEwPSWw+qNVqD7PJ889JzHbw==",
      "path": "system.linq/4.3.0",
      "hashPath": "system.linq.4.3.0.nupkg.sha512"
    },
    "System.Linq.Expressions/4.3.0": {
      "type": "package",
      "serviceable": true,
      "sha512": "sha512-PGKkrd2khG4CnlyJwxwwaWWiSiWFNBGlgXvJpeO0xCXrZ89ODrQ6tjEWS/kOqZ8GwEOUATtKtzp1eRgmYNfclg==",
      "path": "system.linq.expressions/4.3.0",
      "hashPath": "system.linq.expressions.4.3.0.nupkg.sha512"
    },
    "System.Linq.Queryable/4.3.0": {
      "type": "package",
      "serviceable": true,
      "sha512": "sha512-In1Bmmvl/j52yPu3xgakQSI0YIckPUr870w4K5+Lak3JCCa8hl+my65lABOuKfYs4ugmZy25ScFerC4nz8+b6g==",
      "path": "system.linq.queryable/4.3.0",
      "hashPath": "system.linq.queryable.4.3.0.nupkg.sha512"
    },
    "System.Net.Http/4.3.0": {
      "type": "package",
      "serviceable": true,
      "sha512": "sha512-sYg+FtILtRQuYWSIAuNOELwVuVsxVyJGWQyOnlAzhV4xvhyFnON1bAzYYC+jjRW8JREM45R0R5Dgi8MTC5sEwA==",
      "path": "system.net.http/4.3.0",
      "hashPath": "system.net.http.4.3.0.nupkg.sha512"
    },
    "System.Net.NameResolution/4.3.0": {
      "type": "package",
      "serviceable": true,
      "sha512": "sha512-DPvMSdd32CbEOCTtOpO4nY9UvbP6LJe375F1yEQjy667WT5LEh1Ek2T4DSVw1STR0K3LSawWfBFwoeSG0TXFeA==",
      "path": "system.net.nameresolution/4.3.0",
      "hashPath": "system.net.nameresolution.4.3.0.nupkg.sha512"
    },
    "System.Net.Primitives/4.3.0": {
      "type": "package",
      "serviceable": true,
      "sha512": "sha512-qOu+hDwFwoZPbzPvwut2qATe3ygjeQBDQj91xlsaqGFQUI5i4ZnZb8yyQuLGpDGivEPIt8EJkd1BVzVoP31FXA==",
      "path": "system.net.primitives/4.3.0",
      "hashPath": "system.net.primitives.4.3.0.nupkg.sha512"
    },
    "System.Net.Requests/4.3.0": {
      "type": "package",
      "serviceable": true,
      "sha512": "sha512-OZNUuAs0kDXUzm7U5NZ1ojVta5YFZmgT2yxBqsQ7Eseq5Ahz88LInGRuNLJ/NP2F8W1q7tse1pKDthj3reF5QA==",
      "path": "system.net.requests/4.3.0",
      "hashPath": "system.net.requests.4.3.0.nupkg.sha512"
    },
    "System.Net.Security/4.3.0": {
      "type": "package",
      "serviceable": true,
      "sha512": "sha512-IgJKNfALqw7JRWp5LMQ5SWHNKvXVz094U6wNE3c1i8bOkMQvgBL+MMQuNt3xl9Qg9iWpj3lFxPZEY6XHmROjMQ==",
      "path": "system.net.security/4.3.0",
      "hashPath": "system.net.security.4.3.0.nupkg.sha512"
    },
    "System.Net.Sockets/4.3.0": {
      "type": "package",
      "serviceable": true,
      "sha512": "sha512-m6icV6TqQOAdgt5N/9I5KNpjom/5NFtkmGseEH+AK/hny8XrytLH3+b5M8zL/Ycg3fhIocFpUMyl/wpFnVRvdw==",
      "path": "system.net.sockets/4.3.0",
      "hashPath": "system.net.sockets.4.3.0.nupkg.sha512"
    },
    "System.Net.WebHeaderCollection/4.3.0": {
      "type": "package",
      "serviceable": true,
      "sha512": "sha512-XZrXYG3c7QV/GpWeoaRC02rM6LH2JJetfVYskf35wdC/w2fFDFMphec4gmVH2dkll6abtW14u9Rt96pxd9YH2A==",
      "path": "system.net.webheadercollection/4.3.0",
      "hashPath": "system.net.webheadercollection.4.3.0.nupkg.sha512"
    },
    "System.ObjectModel/4.3.0": {
      "type": "package",
      "serviceable": true,
      "sha512": "sha512-bdX+80eKv9bN6K4N+d77OankKHGn6CH711a6fcOpMQu2Fckp/Ft4L/kW9WznHpyR0NRAvJutzOMHNNlBGvxQzQ==",
      "path": "system.objectmodel/4.3.0",
      "hashPath": "system.objectmodel.4.3.0.nupkg.sha512"
    },
    "System.Reflection/4.3.0": {
      "type": "package",
      "serviceable": true,
      "sha512": "sha512-KMiAFoW7MfJGa9nDFNcfu+FpEdiHpWgTcS2HdMpDvt9saK3y/G4GwprPyzqjFH9NTaGPQeWNHU+iDlDILj96aQ==",
      "path": "system.reflection/4.3.0",
      "hashPath": "system.reflection.4.3.0.nupkg.sha512"
    },
    "System.Reflection.Emit/4.3.0": {
      "type": "package",
      "serviceable": true,
      "sha512": "sha512-228FG0jLcIwTVJyz8CLFKueVqQK36ANazUManGaJHkO0icjiIypKW7YLWLIWahyIkdh5M7mV2dJepllLyA1SKg==",
      "path": "system.reflection.emit/4.3.0",
      "hashPath": "system.reflection.emit.4.3.0.nupkg.sha512"
    },
    "System.Reflection.Emit.ILGeneration/4.3.0": {
      "type": "package",
      "serviceable": true,
      "sha512": "sha512-59tBslAk9733NXLrUJrwNZEzbMAcu8k344OYo+wfSVygcgZ9lgBdGIzH/nrg3LYhXceynyvTc8t5/GD4Ri0/ng==",
      "path": "system.reflection.emit.ilgeneration/4.3.0",
      "hashPath": "system.reflection.emit.ilgeneration.4.3.0.nupkg.sha512"
    },
    "System.Reflection.Emit.Lightweight/4.3.0": {
      "type": "package",
      "serviceable": true,
      "sha512": "sha512-oadVHGSMsTmZsAF864QYN1t1QzZjIcuKU3l2S9cZOwDdDueNTrqq1yRj7koFfIGEnKpt6NjpL3rOzRhs4ryOgA==",
      "path": "system.reflection.emit.lightweight/4.3.0",
      "hashPath": "system.reflection.emit.lightweight.4.3.0.nupkg.sha512"
    },
    "System.Reflection.Extensions/4.3.0": {
      "type": "package",
      "serviceable": true,
      "sha512": "sha512-rJkrJD3kBI5B712aRu4DpSIiHRtr6QlfZSQsb0hYHrDCZORXCFjQfoipo2LaMUHoT9i1B7j7MnfaEKWDFmFQNQ==",
      "path": "system.reflection.extensions/4.3.0",
      "hashPath": "system.reflection.extensions.4.3.0.nupkg.sha512"
    },
    "System.Reflection.Metadata/1.6.0": {
      "type": "package",
      "serviceable": true,
      "sha512": "sha512-I4aWCii7N1bmn43vviRfJQYW6UAco1G/CcjJouvgGdb/sr2BRTSnddhaPMg2oxu9VHFn8T1z3dTLq0pna8zmtA==",
      "path": "system.reflection.metadata/1.6.0",
      "hashPath": "system.reflection.metadata.1.6.0.nupkg.sha512"
    },
    "System.Reflection.Primitives/4.3.0": {
      "type": "package",
      "serviceable": true,
      "sha512": "sha512-5RXItQz5As4xN2/YUDxdpsEkMhvw3e6aNveFXUn4Hl/udNTCNhnKp8lT9fnc3MhvGKh1baak5CovpuQUXHAlIA==",
      "path": "system.reflection.primitives/4.3.0",
      "hashPath": "system.reflection.primitives.4.3.0.nupkg.sha512"
    },
    "System.Reflection.TypeExtensions/4.3.0": {
      "type": "package",
      "serviceable": true,
      "sha512": "sha512-7u6ulLcZbyxB5Gq0nMkQttcdBTx57ibzw+4IOXEfR+sXYQoHvjW5LTLyNr8O22UIMrqYbchJQJnos4eooYzYJA==",
      "path": "system.reflection.typeextensions/4.3.0",
      "hashPath": "system.reflection.typeextensions.4.3.0.nupkg.sha512"
    },
    "System.Resources.ResourceManager/4.3.0": {
      "type": "package",
      "serviceable": true,
      "sha512": "sha512-/zrcPkkWdZmI4F92gL/TPumP98AVDu/Wxr3CSJGQQ+XN6wbRZcyfSKVoPo17ilb3iOr0cCRqJInGwNMolqhS8A==",
      "path": "system.resources.resourcemanager/4.3.0",
      "hashPath": "system.resources.resourcemanager.4.3.0.nupkg.sha512"
    },
    "System.Runtime/4.3.0": {
      "type": "package",
      "serviceable": true,
      "sha512": "sha512-JufQi0vPQ0xGnAczR13AUFglDyVYt4Kqnz1AZaiKZ5+GICq0/1MH/mO/eAJHt/mHW1zjKBJd7kV26SrxddAhiw==",
      "path": "system.runtime/4.3.0",
      "hashPath": "system.runtime.4.3.0.nupkg.sha512"
    },
    "System.Runtime.Extensions/4.3.0": {
      "type": "package",
      "serviceable": true,
      "sha512": "sha512-guW0uK0fn5fcJJ1tJVXYd7/1h5F+pea1r7FLSOz/f8vPEqbR2ZAknuRDvTQ8PzAilDveOxNjSfr0CHfIQfFk8g==",
      "path": "system.runtime.extensions/4.3.0",
      "hashPath": "system.runtime.extensions.4.3.0.nupkg.sha512"
    },
    "System.Runtime.Handles/4.3.0": {
      "type": "package",
      "serviceable": true,
      "sha512": "sha512-OKiSUN7DmTWeYb3l51A7EYaeNMnvxwE249YtZz7yooT4gOZhmTjIn48KgSsw2k2lYdLgTKNJw/ZIfSElwDRVgg==",
      "path": "system.runtime.handles/4.3.0",
      "hashPath": "system.runtime.handles.4.3.0.nupkg.sha512"
    },
    "System.Runtime.InteropServices/4.3.0": {
      "type": "package",
      "serviceable": true,
      "sha512": "sha512-uv1ynXqiMK8mp1GM3jDqPCFN66eJ5w5XNomaK2XD+TuCroNTLFGeZ+WCmBMcBDyTFKou3P6cR6J/QsaqDp7fGQ==",
      "path": "system.runtime.interopservices/4.3.0",
      "hashPath": "system.runtime.interopservices.4.3.0.nupkg.sha512"
    },
    "System.Runtime.InteropServices.RuntimeInformation/4.3.0": {
      "type": "package",
      "serviceable": true,
      "sha512": "sha512-cbz4YJMqRDR7oLeMRbdYv7mYzc++17lNhScCX0goO2XpGWdvAt60CGN+FHdePUEHCe/Jy9jUlvNAiNdM+7jsOw==",
      "path": "system.runtime.interopservices.runtimeinformation/4.3.0",
      "hashPath": "system.runtime.interopservices.runtimeinformation.4.3.0.nupkg.sha512"
    },
    "System.Runtime.Loader/4.3.0": {
      "type": "package",
      "serviceable": true,
      "sha512": "sha512-DHMaRn8D8YCK2GG2pw+UzNxn/OHVfaWx7OTLBD/hPegHZZgcZh3H6seWegrC4BYwsfuGrywIuT+MQs+rPqRLTQ==",
      "path": "system.runtime.loader/4.3.0",
      "hashPath": "system.runtime.loader.4.3.0.nupkg.sha512"
    },
    "System.Runtime.Numerics/4.3.0": {
      "type": "package",
      "serviceable": true,
      "sha512": "sha512-yMH+MfdzHjy17l2KESnPiF2dwq7T+xLnSJar7slyimAkUh/gTrS9/UQOtv7xarskJ2/XDSNvfLGOBQPjL7PaHQ==",
      "path": "system.runtime.numerics/4.3.0",
      "hashPath": "system.runtime.numerics.4.3.0.nupkg.sha512"
    },
    "System.Security.Claims/4.3.0": {
      "type": "package",
      "serviceable": true,
      "sha512": "sha512-P/+BR/2lnc4PNDHt/TPBAWHVMLMRHsyYZbU1NphW4HIWzCggz8mJbTQQ3MKljFE7LS3WagmVFuBgoLcFzYXlkA==",
      "path": "system.security.claims/4.3.0",
      "hashPath": "system.security.claims.4.3.0.nupkg.sha512"
    },
    "System.Security.Cryptography.Algorithms/4.3.0": {
      "type": "package",
      "serviceable": true,
      "sha512": "sha512-W1kd2Y8mYSCgc3ULTAZ0hOP2dSdG5YauTb1089T0/kRcN2MpSAW1izOFROrJgxSlMn3ArsgHXagigyi+ibhevg==",
      "path": "system.security.cryptography.algorithms/4.3.0",
      "hashPath": "system.security.cryptography.algorithms.4.3.0.nupkg.sha512"
    },
    "System.Security.Cryptography.Cng/4.3.0": {
      "type": "package",
      "serviceable": true,
      "sha512": "sha512-03idZOqFlsKRL4W+LuCpJ6dBYDUWReug6lZjBa3uJWnk5sPCUXckocevTaUA8iT/MFSrY/2HXkOt753xQ/cf8g==",
      "path": "system.security.cryptography.cng/4.3.0",
      "hashPath": "system.security.cryptography.cng.4.3.0.nupkg.sha512"
    },
    "System.Security.Cryptography.Csp/4.3.0": {
      "type": "package",
      "serviceable": true,
      "sha512": "sha512-X4s/FCkEUnRGnwR3aSfVIkldBmtURMhmexALNTwpjklzxWU7yjMk7GHLKOZTNkgnWnE0q7+BCf9N2LVRWxewaA==",
      "path": "system.security.cryptography.csp/4.3.0",
      "hashPath": "system.security.cryptography.csp.4.3.0.nupkg.sha512"
    },
    "System.Security.Cryptography.Encoding/4.3.0": {
      "type": "package",
      "serviceable": true,
      "sha512": "sha512-1DEWjZZly9ae9C79vFwqaO5kaOlI5q+3/55ohmq/7dpDyDfc8lYe7YVxJUZ5MF/NtbkRjwFRo14yM4OEo9EmDw==",
      "path": "system.security.cryptography.encoding/4.3.0",
      "hashPath": "system.security.cryptography.encoding.4.3.0.nupkg.sha512"
    },
    "System.Security.Cryptography.OpenSsl/4.3.0": {
      "type": "package",
      "serviceable": true,
      "sha512": "sha512-h4CEgOgv5PKVF/HwaHzJRiVboL2THYCou97zpmhjghx5frc7fIvlkY1jL+lnIQyChrJDMNEXS6r7byGif8Cy4w==",
      "path": "system.security.cryptography.openssl/4.3.0",
      "hashPath": "system.security.cryptography.openssl.4.3.0.nupkg.sha512"
    },
    "System.Security.Cryptography.Primitives/4.3.0": {
      "type": "package",
      "serviceable": true,
      "sha512": "sha512-7bDIyVFNL/xKeFHjhobUAQqSpJq9YTOpbEs6mR233Et01STBMXNAc/V+BM6dwYGc95gVh/Zf+iVXWzj3mE8DWg==",
      "path": "system.security.cryptography.primitives/4.3.0",
      "hashPath": "system.security.cryptography.primitives.4.3.0.nupkg.sha512"
    },
    "System.Security.Cryptography.X509Certificates/4.3.0": {
      "type": "package",
      "serviceable": true,
      "sha512": "sha512-t2Tmu6Y2NtJ2um0RtcuhP7ZdNNxXEgUm2JeoA/0NvlMjAhKCnM1NX07TDl3244mVp3QU6LPEhT3HTtH1uF7IYw==",
      "path": "system.security.cryptography.x509certificates/4.3.0",
      "hashPath": "system.security.cryptography.x509certificates.4.3.0.nupkg.sha512"
    },
    "System.Security.Principal/4.3.0": {
      "type": "package",
      "serviceable": true,
      "sha512": "sha512-I1tkfQlAoMM2URscUtpcRo/hX0jinXx6a/KUtEQoz3owaYwl3qwsO8cbzYVVnjxrzxjHo3nJC+62uolgeGIS9A==",
      "path": "system.security.principal/4.3.0",
      "hashPath": "system.security.principal.4.3.0.nupkg.sha512"
    },
    "System.Security.Principal.Windows/4.3.0": {
      "type": "package",
      "serviceable": true,
      "sha512": "sha512-HVL1rvqYtnRCxFsYag/2le/ZfKLK4yMw79+s6FmKXbSCNN0JeAhrYxnRAHFoWRa0dEojsDcbBSpH3l22QxAVyw==",
      "path": "system.security.principal.windows/4.3.0",
      "hashPath": "system.security.principal.windows.4.3.0.nupkg.sha512"
    },
    "System.Text.Encoding/4.3.0": {
      "type": "package",
      "serviceable": true,
      "sha512": "sha512-BiIg+KWaSDOITze6jGQynxg64naAPtqGHBwDrLaCtixsa5bKiR8dpPOHA7ge3C0JJQizJE+sfkz1wV+BAKAYZw==",
      "path": "system.text.encoding/4.3.0",
      "hashPath": "system.text.encoding.4.3.0.nupkg.sha512"
    },
    "System.Text.Encoding.CodePages/4.3.0": {
      "type": "package",
      "serviceable": true,
      "sha512": "sha512-IRiEFUa5b/Gs5Egg8oqBVoywhtOeaO2KOx3j0RfcYY/raxqBuEK7NXRDgOwtYM8qbi+7S4RPXUbNt+ZxyY0/NQ==",
      "path": "system.text.encoding.codepages/4.3.0",
      "hashPath": "system.text.encoding.codepages.4.3.0.nupkg.sha512"
    },
    "System.Text.Encoding.Extensions/4.3.0": {
      "type": "package",
      "serviceable": true,
      "sha512": "sha512-YVMK0Bt/A43RmwizJoZ22ei2nmrhobgeiYwFzC4YAN+nue8RF6djXDMog0UCn+brerQoYVyaS+ghy9P/MUVcmw==",
      "path": "system.text.encoding.extensions/4.3.0",
      "hashPath": "system.text.encoding.extensions.4.3.0.nupkg.sha512"
    },
    "System.Text.RegularExpressions/4.3.0": {
      "type": "package",
      "serviceable": true,
      "sha512": "sha512-RpT2DA+L660cBt1FssIE9CAGpLFdFPuheB7pLpKpn6ZXNby7jDERe8Ua/Ne2xGiwLVG2JOqziiaVCGDon5sKFA==",
      "path": "system.text.regularexpressions/4.3.0",
      "hashPath": "system.text.regularexpressions.4.3.0.nupkg.sha512"
    },
    "System.Threading/4.3.0": {
      "type": "package",
      "serviceable": true,
      "sha512": "sha512-VkUS0kOBcUf3Wwm0TSbrevDDZ6BlM+b/HRiapRFWjM5O0NS0LviG0glKmFK+hhPDd1XFeSdU1GmlLhb2CoVpIw==",
      "path": "system.threading/4.3.0",
      "hashPath": "system.threading.4.3.0.nupkg.sha512"
    },
    "System.Threading.Overlapped/4.3.0": {
      "type": "package",
      "serviceable": true,
      "sha512": "sha512-m3HQ2dPiX/DSTpf+yJt8B0c+SRvzfqAJKx+QDWi+VLhz8svLT23MVjEOHPF/KiSLeArKU/iHescrbLd3yVgyNg==",
      "path": "system.threading.overlapped/4.3.0",
      "hashPath": "system.threading.overlapped.4.3.0.nupkg.sha512"
    },
    "System.Threading.Tasks/4.3.0": {
      "type": "package",
      "serviceable": true,
      "sha512": "sha512-LbSxKEdOUhVe8BezB/9uOGGppt+nZf6e1VFyw6v3DN6lqitm0OSn2uXMOdtP0M3W4iMcqcivm2J6UgqiwwnXiA==",
      "path": "system.threading.tasks/4.3.0",
      "hashPath": "system.threading.tasks.4.3.0.nupkg.sha512"
    },
    "System.Threading.Tasks.Extensions/4.3.0": {
      "type": "package",
      "serviceable": true,
      "sha512": "sha512-npvJkVKl5rKXrtl1Kkm6OhOUaYGEiF9wFbppFRWSMoApKzt2PiPHT2Bb8a5sAWxprvdOAtvaARS9QYMznEUtug==",
      "path": "system.threading.tasks.extensions/4.3.0",
      "hashPath": "system.threading.tasks.extensions.4.3.0.nupkg.sha512"
    },
    "System.Threading.Tasks.Parallel/4.3.0": {
      "type": "package",
      "serviceable": true,
      "sha512": "sha512-cbjBNZHf/vQCfcdhzx7knsiygoCKgxL8mZOeocXZn5gWhCdzHIq6bYNKWX0LAJCWYP7bds4yBK8p06YkP0oa0g==",
      "path": "system.threading.tasks.parallel/4.3.0",
      "hashPath": "system.threading.tasks.parallel.4.3.0.nupkg.sha512"
    },
    "System.Threading.Thread/4.3.0": {
      "type": "package",
      "serviceable": true,
      "sha512": "sha512-OHmbT+Zz065NKII/ZHcH9XO1dEuLGI1L2k7uYss+9C1jLxTC9kTZZuzUOyXHayRk+dft9CiDf3I/QZ0t8JKyBQ==",
      "path": "system.threading.thread/4.3.0",
      "hashPath": "system.threading.thread.4.3.0.nupkg.sha512"
    },
    "System.Threading.ThreadPool/4.3.0": {
      "type": "package",
      "serviceable": true,
      "sha512": "sha512-k/+g4b7vjdd4aix83sTgC9VG6oXYKAktSfNIJUNGxPEj7ryEOfzHHhfnmsZvjxawwcD9HyWXKCXmPjX8U4zeSw==",
      "path": "system.threading.threadpool/4.3.0",
      "hashPath": "system.threading.threadpool.4.3.0.nupkg.sha512"
    },
    "System.Threading.Timer/4.3.0": {
      "type": "package",
      "serviceable": true,
      "sha512": "sha512-Z6YfyYTCg7lOZjJzBjONJTFKGN9/NIYKSxhU5GRd+DTwHSZyvWp1xuI5aR+dLg+ayyC5Xv57KiY4oJ0tMO89fQ==",
      "path": "system.threading.timer/4.3.0",
      "hashPath": "system.threading.timer.4.3.0.nupkg.sha512"
    },
    "System.ValueTuple/4.4.0": {
      "type": "package",
      "serviceable": true,
      "sha512": "sha512-BahUww/+mdP4ARCAh2RQhQTg13wYLVrBb9SYVgW8ZlrwjraGCXHGjo0oIiUfZ34LUZkMMR+RAzR7dEY4S1HeQQ==",
      "path": "system.valuetuple/4.4.0",
      "hashPath": "system.valuetuple.4.4.0.nupkg.sha512"
    },
    "System.Xml.ReaderWriter/4.3.0": {
      "type": "package",
      "serviceable": true,
      "sha512": "sha512-GrprA+Z0RUXaR4N7/eW71j1rgMnEnEVlgii49GZyAjTH7uliMnrOU3HNFBr6fEDBCJCIdlVNq9hHbaDR621XBA==",
      "path": "system.xml.readerwriter/4.3.0",
      "hashPath": "system.xml.readerwriter.4.3.0.nupkg.sha512"
    }
  }
}