2019-08-28T12:21:52.324441Z 0 [Warning] TIMESTAMP with implicit DEFAULT value is deprecated. Please use --explicit_defaults_for_timestamp server option (see documentation for more details).
2019-08-28T12:21:52.324441Z 0 [Warning] 'NO_ZERO_DATE', 'NO_ZERO_IN_DATE' and 'ERROR_FOR_DIVISION_BY_ZERO' sql modes should be used with strict mode. They will be merged with strict mode in a future release.
2019-08-28T12:21:52.324441Z 0 [Warning] 'NO_AUTO_CREATE_USER' sql mode was not set.
2019-08-28T12:21:52.324441Z 0 [Warning] Insecure configuration for --secure-file-priv: Current value does not restrict location of generated files. Consider setting it to a valid, non-empty path.
2019-08-28T12:21:52.324441Z 0 [ERROR] Cannot open Windows EventLog; check privileges, or start server with --log_syslog=0
2019-08-28T12:21:52.324441Z 0 [Note] K:\Tmp\PRWB1920\UwAmp\bin\database\mysql-5.7.11\bin\mysqld.exe (mysqld 5.7.11) starting as process 6072 ...
2019-08-28T12:21:52.355383Z 0 [ERROR] Can't open shared library 'K:\Tmp\PRWB1920\UwAmp\bin\database\mysql-5.7.11\lib\plugin\keyring_file.dll' (errno: 126 The specified module could not be found.)
2019-08-28T12:21:52.359377Z 0 [ERROR] Couldn't load plugin named 'keyring_file' with soname 'keyring_file.dll'.
2019-08-28T12:21:52.363369Z 0 [Note] InnoDB: Mutexes and rw_locks use Windows interlocked functions
2019-08-28T12:21:52.365364Z 0 [Note] InnoDB: Uses event mutexes
2019-08-28T12:21:52.366864Z 0 [Note] InnoDB: Memory barrier is not used
2019-08-28T12:21:52.368362Z 0 [Note] InnoDB: Compressed tables use zlib 1.2.3
2019-08-28T12:21:52.370357Z 0 [Note] InnoDB: Number of pools: 1
2019-08-28T12:21:52.371854Z 0 [Note] InnoDB: Not using CPU crc32 instructions
2019-08-28T12:21:52.420258Z 0 [Note] InnoDB: Initializing buffer pool, total size = 128M, instances = 1, chunk size = 128M
2019-08-28T12:21:52.428742Z 0 [Note] InnoDB: Completed initialization of buffer pool
2019-08-28T12:21:52.522564Z 0 [Note] InnoDB: Highest supported file format is Barracuda.
2019-08-28T12:21:53.189294Z 0 [Note] InnoDB: Creating shared tablespace for temporary tables
2019-08-28T12:21:53.190791Z 0 [Note] InnoDB: Setting file '.\ibtmp1' size to 12 MB. Physically writing the file full; Please wait ...
2019-08-28T12:21:53.525157Z 0 [Note] InnoDB: File '.\ibtmp1' size is now 12 MB.
2019-08-28T12:21:53.529645Z 0 [Note] InnoDB: 96 redo rollback segment(s) found. 96 redo rollback segment(s) are active.
2019-08-28T12:21:53.531142Z 0 [Note] InnoDB: 32 non-redo rollback segment(s) are active.
2019-08-28T12:21:53.532639Z 0 [Note] InnoDB: Waiting for purge to start
2019-08-28T12:21:53.602506Z 0 [Note] InnoDB: 5.7.11 started; log sequence number 57844019
2019-08-28T12:21:53.604003Z 0 [Note] InnoDB: Loading buffer pool(s) from K:\Tmp\PRWB1920\UwAmp\bin\database\mysql-5.7.11\data\ib_buffer_pool
2019-08-28T12:21:53.604003Z 0 [Note] Plugin 'FEDERATED' is disabled.
2019-08-28T12:21:53.827839Z 0 [Warning] Failed to set up SSL because of the following SSL library error: SSL context is not usable without certificate and private key
2019-08-28T12:21:53.833828Z 0 [Note] Server hostname (bind-address): '*'; port: 3306
2019-08-28T12:21:53.835823Z 0 [Note] IPv6 is available.
2019-08-28T12:21:53.836322Z 0 [Note]   - '::' resolves to '::';
2019-08-28T12:21:53.837320Z 0 [Note] Server socket created on IP: '::'.
2019-08-28T12:21:53.971449Z 0 [Note] InnoDB: Buffer pool(s) load completed at 190828 14:21:53
2019-08-28T12:21:53.991910Z 0 [Note] Event Scheduler: Loaded 0 events
2019-08-28T12:21:53.992909Z 0 [Note] K:\Tmp\PRWB1920\UwAmp\bin\database\mysql-5.7.11\bin\mysqld.exe: ready for connections.
Version: '5.7.11'  socket: ''  port: 3306  MySQL Community Server (GPL)
2019-08-28T12:22:18.589513Z 0 [Note] K:\Tmp\PRWB1920\UwAmp\bin\database\mysql-5.7.11\bin\mysqld.exe: Normal shutdown

2019-08-28T12:22:18.591511Z 0 [Note] Giving 0 client threads a chance to die gracefully
2019-08-28T12:22:18.593506Z 0 [Note] Shutting down slave threads
2019-08-28T12:22:18.594504Z 0 [Note] Forcefully disconnecting 0 remaining clients
2019-08-28T12:22:18.595503Z 0 [Note] Event Scheduler: Purging the queue. 0 events
2019-08-28T12:22:18.596998Z 0 [Note] Binlog end
2019-08-28T12:22:18.598995Z 0 [Note] Shutting down plugin 'ngram'
2019-08-28T12:22:18.599995Z 0 [Note] Shutting down plugin 'partition'
2019-08-28T12:22:18.600993Z 0 [Note] Shutting down plugin 'BLACKHOLE'
2019-08-28T12:22:18.601991Z 0 [Note] Shutting down plugin 'ARCHIVE'
2019-08-28T12:22:18.602989Z 0 [Note] Shutting down plugin 'PERFORMANCE_SCHEMA'
2019-08-28T12:22:18.603987Z 0 [Note] Shutting down plugin 'MRG_MYISAM'
2019-08-28T12:22:18.604985Z 0 [Note] Shutting down plugin 'MyISAM'
2019-08-28T12:22:18.605983Z 0 [Note] Shutting down plugin 'INNODB_SYS_VIRTUAL'
2019-08-28T12:22:18.606982Z 0 [Note] Shutting down plugin 'INNODB_SYS_DATAFILES'
2019-08-28T12:22:18.607980Z 0 [Note] Shutting down plugin 'INNODB_SYS_TABLESPACES'
2019-08-28T12:22:18.608976Z 0 [Note] Shutting down plugin 'INNODB_SYS_FOREIGN_COLS'
2019-08-28T12:22:18.609975Z 0 [Note] Shutting down plugin 'INNODB_SYS_FOREIGN'
2019-08-28T12:22:18.611472Z 0 [Note] Shutting down plugin 'INNODB_SYS_FIELDS'
2019-08-28T12:22:18.612470Z 0 [Note] Shutting down plugin 'INNODB_SYS_COLUMNS'
2019-08-28T12:22:18.613468Z 0 [Note] Shutting down plugin 'INNODB_SYS_INDEXES'
2019-08-28T12:22:18.614466Z 0 [Note] Shutting down plugin 'INNODB_SYS_TABLESTATS'
2019-08-28T12:22:18.615464Z 0 [Note] Shutting down plugin 'INNODB_SYS_TABLES'
2019-08-28T12:22:18.616465Z 0 [Note] Shutting down plugin 'INNODB_FT_INDEX_TABLE'
2019-08-28T12:22:18.617462Z 0 [Note] Shutting down plugin 'INNODB_FT_INDEX_CACHE'
2019-08-28T12:22:18.618959Z 0 [Note] Shutting down plugin 'INNODB_FT_CONFIG'
2019-08-28T12:22:18.619957Z 0 [Note] Shutting down plugin 'INNODB_FT_BEING_DELETED'
2019-08-28T12:22:18.620955Z 0 [Note] Shutting down plugin 'INNODB_FT_DELETED'
2019-08-28T12:22:18.621953Z 0 [Note] Shutting down plugin 'INNODB_FT_DEFAULT_STOPWORD'
2019-08-28T12:22:18.622953Z 0 [Note] Shutting down plugin 'INNODB_METRICS'
2019-08-28T12:22:18.623950Z 0 [Note] Shutting down plugin 'INNODB_TEMP_TABLE_INFO'
2019-08-28T12:22:18.625446Z 0 [Note] Shutting down plugin 'INNODB_BUFFER_POOL_STATS'
2019-08-28T12:22:18.626444Z 0 [Note] Shutting down plugin 'INNODB_BUFFER_PAGE_LRU'
2019-08-28T12:22:18.627442Z 0 [Note] Shutting down plugin 'INNODB_BUFFER_PAGE'
2019-08-28T12:22:18.628442Z 0 [Note] Shutting down plugin 'INNODB_CMP_PER_INDEX_RESET'
2019-08-28T12:22:18.630436Z 0 [Note] Shutting down plugin 'INNODB_CMP_PER_INDEX'
2019-08-28T12:22:18.631434Z 0 [Note] Shutting down plugin 'INNODB_CMPMEM_RESET'
2019-08-28T12:22:18.632433Z 0 [Note] Shutting down plugin 'INNODB_CMPMEM'
2019-08-28T12:22:18.633431Z 0 [Note] Shutting down plugin 'INNODB_CMP_RESET'
2019-08-28T12:22:18.634429Z 0 [Note] Shutting down plugin 'INNODB_CMP'
2019-08-28T12:22:18.635427Z 0 [Note] Shutting down plugin 'INNODB_LOCK_WAITS'
2019-08-28T12:22:18.636425Z 0 [Note] Shutting down plugin 'INNODB_LOCKS'
2019-08-28T12:22:18.637423Z 0 [Note] Shutting down plugin 'INNODB_TRX'
2019-08-28T12:22:18.638421Z 0 [Note] Shutting down plugin 'InnoDB'
2019-08-28T12:22:18.639419Z 0 [Note] InnoDB: FTS optimize thread exiting.
2019-08-28T12:22:18.640417Z 0 [Note] InnoDB: Starting shutdown...
2019-08-28T12:22:18.750167Z 0 [Note] InnoDB: Dumping buffer pool(s) to K:\Tmp\PRWB1920\UwAmp\bin\database\mysql-5.7.11\data\ib_buffer_pool
2019-08-28T12:22:18.758153Z 0 [Note] InnoDB: Buffer pool(s) dump completed at 190828 14:22:18
2019-08-28T12:22:19.311627Z 0 [Note] InnoDB: Shutdown completed; log sequence number 57844047
2019-08-28T12:22:19.316119Z 0 [Note] InnoDB: Removed temporary tablespace data file: "ibtmp1"
2019-08-28T12:22:19.319111Z 0 [Note] Shutting down plugin 'MEMORY'
2019-08-28T12:22:19.320109Z 0 [Note] Shutting down plugin 'CSV'
2019-08-28T12:22:19.320608Z 0 [Note] Shutting down plugin 'sha256_password'
2019-08-28T12:22:19.322108Z 0 [Note] Shutting down plugin 'mysql_native_password'
2019-08-28T12:22:19.323604Z 0 [Note] Shutting down plugin 'binlog'
2019-08-28T12:22:19.326101Z 0 [Note] K:\Tmp\PRWB1920\UwAmp\bin\database\mysql-5.7.11\bin\mysqld.exe: Shutdown complete

2019-08-28T12:23:01.402007Z 0 [Warning] TIMESTAMP with implicit DEFAULT value is deprecated. Please use --explicit_defaults_for_timestamp server option (see documentation for more details).
2019-08-28T12:23:01.402506Z 0 [Warning] 'NO_ZERO_DATE', 'NO_ZERO_IN_DATE' and 'ERROR_FOR_DIVISION_BY_ZERO' sql modes should be used with strict mode. They will be merged with strict mode in a future release.
2019-08-28T12:23:01.402506Z 0 [Warning] 'NO_AUTO_CREATE_USER' sql mode was not set.
2019-08-28T12:23:01.402506Z 0 [Warning] Insecure configuration for --secure-file-priv: Current value does not restrict location of generated files. Consider setting it to a valid, non-empty path.
2019-08-28T12:23:01.402506Z 0 [ERROR] Cannot open Windows EventLog; check privileges, or start server with --log_syslog=0
2019-08-28T12:23:01.402506Z 0 [Note] K:\Tmp\PRWB1920\UwAmp2\bin\database\mysql-5.7.11\bin\mysqld.exe (mysqld 5.7.11) starting as process 26096 ...
2019-08-28T12:23:01.420971Z 0 [ERROR] Can't open shared library 'K:\Tmp\PRWB1920\UwAmp2\bin\database\mysql-5.7.11\lib\plugin\keyring_file.dll' (errno: 126 The specified module could not be found.)
2019-08-28T12:23:01.425462Z 0 [ERROR] Couldn't load plugin named 'keyring_file' with soname 'keyring_file.dll'.
2019-08-28T12:23:01.428956Z 0 [Note] InnoDB: Mutexes and rw_locks use Windows interlocked functions
2019-08-28T12:23:01.430952Z 0 [Note] InnoDB: Uses event mutexes
2019-08-28T12:23:01.432449Z 0 [Note] InnoDB: Memory barrier is not used
2019-08-28T12:23:01.433947Z 0 [Note] InnoDB: Compressed tables use zlib 1.2.3
2019-08-28T12:23:01.434945Z 0 [Note] InnoDB: Number of pools: 1
2019-08-28T12:23:01.435943Z 0 [Note] InnoDB: Not using CPU crc32 instructions
2019-08-28T12:23:01.479860Z 0 [Note] InnoDB: Initializing buffer pool, total size = 128M, instances = 1, chunk size = 128M
2019-08-28T12:23:01.488343Z 0 [Note] InnoDB: Completed initialization of buffer pool
2019-08-28T12:23:01.677483Z 0 [Note] InnoDB: Highest supported file format is Barracuda.
2019-08-28T12:23:03.753661Z 0 [Note] InnoDB: Creating shared tablespace for temporary tables
2019-08-28T12:23:03.755159Z 0 [Note] InnoDB: Setting file '.\ibtmp1' size to 12 MB. Physically writing the file full; Please wait ...
2019-08-28T12:23:04.180852Z 0 [Note] InnoDB: File '.\ibtmp1' size is now 12 MB.
2019-08-28T12:23:04.184841Z 0 [Note] InnoDB: 96 redo rollback segment(s) found. 96 redo rollback segment(s) are active.
2019-08-28T12:23:04.186837Z 0 [Note] InnoDB: 32 non-redo rollback segment(s) are active.
2019-08-28T12:23:04.188335Z 0 [Note] InnoDB: Waiting for purge to start
2019-08-28T12:23:04.269182Z 0 [Note] InnoDB: 5.7.11 started; log sequence number 57844047
2019-08-28T12:23:04.271175Z 0 [Note] InnoDB: Loading buffer pool(s) from K:\Tmp\PRWB1920\UwAmp2\bin\database\mysql-5.7.11\data\ib_buffer_pool
2019-08-28T12:23:04.271175Z 0 [Note] Plugin 'FEDERATED' is disabled.
2019-08-28T12:23:04.511162Z 0 [Warning] Failed to set up SSL because of the following SSL library error: SSL context is not usable without certificate and private key
2019-08-28T12:23:04.516651Z 0 [Note] Server hostname (bind-address): '*'; port: 3306
2019-08-28T12:23:04.518647Z 0 [Note] IPv6 is available.
2019-08-28T12:23:04.519645Z 0 [Note]   - '::' resolves to '::';
2019-08-28T12:23:04.520645Z 0 [Note] Server socket created on IP: '::'.
2019-08-28T12:23:04.642912Z 0 [Note] Event Scheduler: Loaded 0 events
2019-08-28T12:23:04.643910Z 0 [Note] K:\Tmp\PRWB1920\UwAmp2\bin\database\mysql-5.7.11\bin\mysqld.exe: ready for connections.
Version: '5.7.11'  socket: ''  port: 3306  MySQL Community Server (GPL)
2019-08-28T12:23:04.739578Z 0 [Note] InnoDB: Buffer pool(s) load completed at 190828 14:23:04
2019-08-28T12:23:12.144128Z 0 [Note] K:\Tmp\PRWB1920\UwAmp2\bin\database\mysql-5.7.11\bin\mysqld.exe: Normal shutdown

2019-08-28T12:23:12.146125Z 0 [Note] Giving 0 client threads a chance to die gracefully
2019-08-28T12:23:12.147122Z 0 [Note] Shutting down slave threads
2019-08-28T12:23:12.148121Z 0 [Note] Forcefully disconnecting 0 remaining clients
2019-08-28T12:23:12.149618Z 0 [Note] Event Scheduler: Purging the queue. 0 events
2019-08-28T12:23:12.151115Z 0 [Note] Binlog end
2019-08-28T12:23:12.152113Z 0 [Note] Shutting down plugin 'ngram'
2019-08-28T12:23:12.153111Z 0 [Note] Shutting down plugin 'partition'
2019-08-28T12:23:12.154109Z 0 [Note] Shutting down plugin 'BLACKHOLE'
2019-08-28T12:23:12.155107Z 0 [Note] Shutting down plugin 'ARCHIVE'
2019-08-28T12:23:12.156105Z 0 [Note] Shutting down plugin 'PERFORMANCE_SCHEMA'
2019-08-28T12:23:12.157103Z 0 [Note] Shutting down plugin 'MRG_MYISAM'
2019-08-28T12:23:12.158102Z 0 [Note] Shutting down plugin 'MyISAM'
2019-08-28T12:23:12.159100Z 0 [Note] Shutting down plugin 'INNODB_SYS_VIRTUAL'
2019-08-28T12:23:12.160097Z 0 [Note] Shutting down plugin 'INNODB_SYS_DATAFILES'
2019-08-28T12:23:12.161096Z 0 [Note] Shutting down plugin 'INNODB_SYS_TABLESPACES'
2019-08-28T12:23:12.162094Z 0 [Note] Shutting down plugin 'INNODB_SYS_FOREIGN_COLS'
2019-08-28T12:23:12.163092Z 0 [Note] Shutting down plugin 'INNODB_SYS_FOREIGN'
2019-08-28T12:23:12.164589Z 0 [Note] Shutting down plugin 'INNODB_SYS_FIELDS'
2019-08-28T12:23:12.165587Z 0 [Note] Shutting down plugin 'INNODB_SYS_COLUMNS'
2019-08-28T12:23:12.166585Z 0 [Note] Shutting down plugin 'INNODB_SYS_INDEXES'
2019-08-28T12:23:12.167584Z 0 [Note] Shutting down plugin 'INNODB_SYS_TABLESTATS'
2019-08-28T12:23:12.168582Z 0 [Note] Shutting down plugin 'INNODB_SYS_TABLES'
2019-08-28T12:23:12.169580Z 0 [Note] Shutting down plugin 'INNODB_FT_INDEX_TABLE'
2019-08-28T12:23:12.170578Z 0 [Note] Shutting down plugin 'INNODB_FT_INDEX_CACHE'
2019-08-28T12:23:12.172075Z 0 [Note] Shutting down plugin 'INNODB_FT_CONFIG'
2019-08-28T12:23:12.173073Z 0 [Note] Shutting down plugin 'INNODB_FT_BEING_DELETED'
2019-08-28T12:23:12.174071Z 0 [Note] Shutting down plugin 'INNODB_FT_DELETED'
2019-08-28T12:23:12.175069Z 0 [Note] Shutting down plugin 'INNODB_FT_DEFAULT_STOPWORD'
2019-08-28T12:23:12.176566Z 0 [Note] Shutting down plugin 'INNODB_METRICS'
2019-08-28T12:23:12.177564Z 0 [Note] Shutting down plugin 'INNODB_TEMP_TABLE_INFO'
2019-08-28T12:23:12.178562Z 0 [Note] Shutting down plugin 'INNODB_BUFFER_POOL_STATS'
2019-08-28T12:23:12.179561Z 0 [Note] Shutting down plugin 'INNODB_BUFFER_PAGE_LRU'
2019-08-28T12:23:12.180559Z 0 [Note] Shutting down plugin 'INNODB_BUFFER_PAGE'
2019-08-28T12:23:12.182056Z 0 [Note] Shutting down plugin 'INNODB_CMP_PER_INDEX_RESET'
2019-08-28T12:23:12.183054Z 0 [Note] Shutting down plugin 'INNODB_CMP_PER_INDEX'
2019-08-28T12:23:12.184052Z 0 [Note] Shutting down plugin 'INNODB_CMPMEM_RESET'
2019-08-28T12:23:12.185050Z 0 [Note] Shutting down plugin 'INNODB_CMPMEM'
2019-08-28T12:23:12.186048Z 0 [Note] Shutting down plugin 'INNODB_CMP_RESET'
2019-08-28T12:23:12.187046Z 0 [Note] Shutting down plugin 'INNODB_CMP'
2019-08-28T12:23:12.188044Z 0 [Note] Shutting down plugin 'INNODB_LOCK_WAITS'
2019-08-28T12:23:12.189042Z 0 [Note] Shutting down plugin 'INNODB_LOCKS'
2019-08-28T12:23:12.190042Z 0 [Note] Shutting down plugin 'INNODB_TRX'
2019-08-28T12:23:12.191037Z 0 [Note] Shutting down plugin 'InnoDB'
2019-08-28T12:23:12.192037Z 0 [Note] InnoDB: FTS optimize thread exiting.
2019-08-28T12:23:12.193035Z 0 [Note] InnoDB: Starting shutdown...
2019-08-28T12:23:12.299227Z 0 [Note] InnoDB: Dumping buffer pool(s) to K:\Tmp\PRWB1920\UwAmp2\bin\database\mysql-5.7.11\data\ib_buffer_pool
2019-08-28T12:23:12.306713Z 0 [Note] InnoDB: Buffer pool(s) dump completed at 190828 14:23:12
2019-08-28T12:23:12.861438Z 0 [Note] InnoDB: Shutdown completed; log sequence number 57844075
2019-08-28T12:23:12.865430Z 0 [Note] InnoDB: Removed temporary tablespace data file: "ibtmp1"
2019-08-28T12:23:12.868923Z 0 [Note] Shutting down plugin 'MEMORY'
2019-08-28T12:23:12.869920Z 0 [Note] Shutting down plugin 'CSV'
2019-08-28T12:23:12.870419Z 0 [Note] Shutting down plugin 'sha256_password'
2019-08-28T12:23:12.871417Z 0 [Note] Shutting down plugin 'mysql_native_password'
2019-08-28T12:23:12.872914Z 0 [Note] Shutting down plugin 'binlog'
2019-08-28T12:23:12.874411Z 0 [Note] K:\Tmp\PRWB1920\UwAmp2\bin\database\mysql-5.7.11\bin\mysqld.exe: Shutdown complete

2019-08-28T12:23:29.825038Z 0 [Warning] TIMESTAMP with implicit DEFAULT value is deprecated. Please use --explicit_defaults_for_timestamp server option (see documentation for more details).
2019-08-28T12:23:29.825537Z 0 [Warning] 'NO_ZERO_DATE', 'NO_ZERO_IN_DATE' and 'ERROR_FOR_DIVISION_BY_ZERO' sql modes should be used with strict mode. They will be merged with strict mode in a future release.
2019-08-28T12:23:29.825537Z 0 [Warning] 'NO_AUTO_CREATE_USER' sql mode was not set.
2019-08-28T12:23:29.825537Z 0 [Warning] Insecure configuration for --secure-file-priv: Current value does not restrict location of generated files. Consider setting it to a valid, non-empty path.
2019-08-28T12:23:29.825537Z 0 [ERROR] Cannot open Windows EventLog; check privileges, or start server with --log_syslog=0
2019-08-28T12:23:29.825537Z 0 [Note] K:\Tmp\PRWB1920\UwAmp\bin\database\mysql-5.7.11\bin\mysqld.exe (mysqld 5.7.11) starting as process 29228 ...
2019-08-28T12:23:29.844001Z 0 [ERROR] Can't open shared library 'K:\Tmp\PRWB1920\UwAmp\bin\database\mysql-5.7.11\lib\plugin\keyring_file.dll' (errno: 126 The specified module could not be found.)
2019-08-28T12:23:29.846498Z 0 [ERROR] Couldn't load plugin named 'keyring_file' with soname 'keyring_file.dll'.
2019-08-28T12:23:29.848992Z 0 [Note] InnoDB: Mutexes and rw_locks use Windows interlocked functions
2019-08-28T12:23:29.850489Z 0 [Note] InnoDB: Uses event mutexes
2019-08-28T12:23:29.851487Z 0 [Note] InnoDB: Memory barrier is not used
2019-08-28T12:23:29.852485Z 0 [Note] InnoDB: Compressed tables use zlib 1.2.3
2019-08-28T12:23:29.853483Z 0 [Note] InnoDB: Number of pools: 1
2019-08-28T12:23:29.854484Z 0 [Note] InnoDB: Not using CPU crc32 instructions
2019-08-28T12:23:29.898897Z 0 [Note] InnoDB: Initializing buffer pool, total size = 128M, instances = 1, chunk size = 128M
2019-08-28T12:23:29.906882Z 0 [Note] InnoDB: Completed initialization of buffer pool
2019-08-28T12:23:30.028151Z 0 [Note] InnoDB: Highest supported file format is Barracuda.
2019-08-28T12:23:31.230649Z 0 [Note] InnoDB: Creating shared tablespace for temporary tables
2019-08-28T12:23:31.232646Z 0 [Note] InnoDB: Setting file '.\ibtmp1' size to 12 MB. Physically writing the file full; Please wait ...
2019-08-28T12:23:31.642664Z 0 [Note] InnoDB: File '.\ibtmp1' size is now 12 MB.
2019-08-28T12:23:31.646656Z 0 [Note] InnoDB: 96 redo rollback segment(s) found. 96 redo rollback segment(s) are active.
2019-08-28T12:23:31.648153Z 0 [Note] InnoDB: 32 non-redo rollback segment(s) are active.
2019-08-28T12:23:31.650149Z 0 [Note] InnoDB: Waiting for purge to start
2019-08-28T12:23:31.788933Z 0 [Note] InnoDB: 5.7.11 started; log sequence number 57844075
2019-08-28T12:23:31.790432Z 0 [Note] InnoDB: Loading buffer pool(s) from K:\Tmp\PRWB1920\UwAmp\bin\database\mysql-5.7.11\data\ib_buffer_pool
2019-08-28T12:23:31.790432Z 0 [Note] Plugin 'FEDERATED' is disabled.
2019-08-28T12:23:32.017000Z 0 [Warning] Failed to set up SSL because of the following SSL library error: SSL context is not usable without certificate and private key
2019-08-28T12:23:32.022988Z 0 [Note] Server hostname (bind-address): '*'; port: 3306
2019-08-28T12:23:32.024985Z 0 [Note] IPv6 is available.
2019-08-28T12:23:32.025484Z 0 [Note]   - '::' resolves to '::';
2019-08-28T12:23:32.026482Z 0 [Note] Server socket created on IP: '::'.
2019-08-28T12:23:32.220112Z 0 [Note] Event Scheduler: Loaded 0 events
2019-08-28T12:23:32.221110Z 0 [Note] K:\Tmp\PRWB1920\UwAmp\bin\database\mysql-5.7.11\bin\mysqld.exe: ready for connections.
Version: '5.7.11'  socket: ''  port: 3306  MySQL Community Server (GPL)
2019-08-28T12:23:32.350365Z 0 [Note] InnoDB: Buffer pool(s) load completed at 190828 14:23:32
2019-08-28T12:27:06.746415Z 0 [Note] K:\Tmp\PRWB1920\UwAmp\bin\database\mysql-5.7.11\bin\mysqld.exe: Normal shutdown

2019-08-28T12:27:06.748411Z 0 [Note] Giving 0 client threads a chance to die gracefully
2019-08-28T12:27:06.750407Z 0 [Note] Shutting down slave threads
2019-08-28T12:27:06.751406Z 0 [Note] Forcefully disconnecting 0 remaining clients
2019-08-28T12:27:06.752903Z 0 [Note] Event Scheduler: Purging the queue. 0 events
2019-08-28T12:27:06.754402Z 0 [Note] Binlog end
2019-08-28T12:27:06.755897Z 0 [Note] Shutting down plugin 'ngram'
2019-08-28T12:27:06.756895Z 0 [Note] Shutting down plugin 'partition'
2019-08-28T12:27:06.757893Z 0 [Note] Shutting down plugin 'BLACKHOLE'
2019-08-28T12:27:06.758891Z 0 [Note] Shutting down plugin 'ARCHIVE'
2019-08-28T12:27:06.759889Z 0 [Note] Shutting down plugin 'PERFORMANCE_SCHEMA'
2019-08-28T12:27:06.760887Z 0 [Note] Shutting down plugin 'MRG_MYISAM'
2019-08-28T12:27:06.761885Z 0 [Note] Shutting down plugin 'MyISAM'
2019-08-28T12:27:06.762883Z 0 [Note] Shutting down plugin 'INNODB_SYS_VIRTUAL'
2019-08-28T12:27:06.763881Z 0 [Note] Shutting down plugin 'INNODB_SYS_DATAFILES'
2019-08-28T12:27:06.764879Z 0 [Note] Shutting down plugin 'INNODB_SYS_TABLESPACES'
2019-08-28T12:27:06.765878Z 0 [Note] Shutting down plugin 'INNODB_SYS_FOREIGN_COLS'
2019-08-28T12:27:06.767375Z 0 [Note] Shutting down plugin 'INNODB_SYS_FOREIGN'
2019-08-28T12:27:06.768373Z 0 [Note] Shutting down plugin 'INNODB_SYS_FIELDS'
2019-08-28T12:27:06.769371Z 0 [Note] Shutting down plugin 'INNODB_SYS_COLUMNS'
2019-08-28T12:27:06.770369Z 0 [Note] Shutting down plugin 'INNODB_SYS_INDEXES'
2019-08-28T12:27:06.771367Z 0 [Note] Shutting down plugin 'INNODB_SYS_TABLESTATS'
2019-08-28T12:27:06.772365Z 0 [Note] Shutting down plugin 'INNODB_SYS_TABLES'
2019-08-28T12:27:06.773363Z 0 [Note] Shutting down plugin 'INNODB_FT_INDEX_TABLE'
2019-08-28T12:27:06.774361Z 0 [Note] Shutting down plugin 'INNODB_FT_INDEX_CACHE'
2019-08-28T12:27:06.775858Z 0 [Note] Shutting down plugin 'INNODB_FT_CONFIG'
2019-08-28T12:27:06.776856Z 0 [Note] Shutting down plugin 'INNODB_FT_BEING_DELETED'
2019-08-28T12:27:06.777855Z 0 [Note] Shutting down plugin 'INNODB_FT_DELETED'
2019-08-28T12:27:06.778853Z 0 [Note] Shutting down plugin 'INNODB_FT_DEFAULT_STOPWORD'
2019-08-28T12:27:06.779851Z 0 [Note] Shutting down plugin 'INNODB_METRICS'
2019-08-28T12:27:06.780849Z 0 [Note] Shutting down plugin 'INNODB_TEMP_TABLE_INFO'
2019-08-28T12:27:06.782346Z 0 [Note] Shutting down plugin 'INNODB_BUFFER_POOL_STATS'
2019-08-28T12:27:06.783344Z 0 [Note] Shutting down plugin 'INNODB_BUFFER_PAGE_LRU'
2019-08-28T12:27:06.784342Z 0 [Note] Shutting down plugin 'INNODB_BUFFER_PAGE'
2019-08-28T12:27:06.785340Z 0 [Note] Shutting down plugin 'INNODB_CMP_PER_INDEX_RESET'
2019-08-28T12:27:06.786838Z 0 [Note] Shutting down plugin 'INNODB_CMP_PER_INDEX'
2019-08-28T12:27:06.787836Z 0 [Note] Shutting down plugin 'INNODB_CMPMEM_RESET'
2019-08-28T12:27:06.788834Z 0 [Note] Shutting down plugin 'INNODB_CMPMEM'
2019-08-28T12:27:06.789832Z 0 [Note] Shutting down plugin 'INNODB_CMP_RESET'
2019-08-28T12:27:06.790830Z 0 [Note] Shutting down plugin 'INNODB_CMP'
2019-08-28T12:27:06.791828Z 0 [Note] Shutting down plugin 'INNODB_LOCK_WAITS'
2019-08-28T12:27:06.792826Z 0 [Note] Shutting down plugin 'INNODB_LOCKS'
2019-08-28T12:27:06.793824Z 0 [Note] Shutting down plugin 'INNODB_TRX'
2019-08-28T12:27:06.794822Z 0 [Note] Shutting down plugin 'InnoDB'
2019-08-28T12:27:06.795821Z 0 [Note] InnoDB: FTS optimize thread exiting.
2019-08-28T12:27:06.796819Z 0 [Note] InnoDB: Starting shutdown...
2019-08-28T12:27:06.898537Z 0 [Note] InnoDB: Dumping buffer pool(s) to K:\Tmp\PRWB1920\UwAmp\bin\database\mysql-5.7.11\data\ib_buffer_pool
2019-08-28T12:27:06.906521Z 0 [Note] InnoDB: Buffer pool(s) dump completed at 190828 14:27:06
2019-08-28T12:27:08.365017Z 0 [Note] InnoDB: Shutdown completed; log sequence number 57844103
2019-08-28T12:27:08.369010Z 0 [Note] InnoDB: Removed temporary tablespace data file: "ibtmp1"
2019-08-28T12:27:08.370505Z 0 [Note] Shutting down plugin 'MEMORY'
2019-08-28T12:27:08.371503Z 0 [Note] Shutting down plugin 'CSV'
2019-08-28T12:27:08.372002Z 0 [Note] Shutting down plugin 'sha256_password'
2019-08-28T12:27:08.373001Z 0 [Note] Shutting down plugin 'mysql_native_password'
2019-08-28T12:27:08.374498Z 0 [Note] Shutting down plugin 'binlog'
2019-08-28T12:27:08.375995Z 0 [Note] K:\Tmp\PRWB1920\UwAmp\bin\database\mysql-5.7.11\bin\mysqld.exe: Shutdown complete

2019-08-28T12:27:12.168082Z 0 [Warning] TIMESTAMP with implicit DEFAULT value is deprecated. Please use --explicit_defaults_for_timestamp server option (see documentation for more details).
2019-08-28T12:27:12.168082Z 0 [Warning] 'NO_ZERO_DATE', 'NO_ZERO_IN_DATE' and 'ERROR_FOR_DIVISION_BY_ZERO' sql modes should be used with strict mode. They will be merged with strict mode in a future release.
2019-08-28T12:27:12.168082Z 0 [Warning] 'NO_AUTO_CREATE_USER' sql mode was not set.
2019-08-28T12:27:12.168082Z 0 [Warning] Insecure configuration for --secure-file-priv: Current value does not restrict location of generated files. Consider setting it to a valid, non-empty path.
2019-08-28T12:27:12.168581Z 0 [ERROR] Cannot open Windows EventLog; check privileges, or start server with --log_syslog=0
2019-08-28T12:27:12.168581Z 0 [Note] K:\Tmp\PRWB1920\UwAmp\bin\database\mysql-5.7.11\bin\mysqld.exe (mysqld 5.7.11) starting as process 18808 ...
2019-08-28T12:27:12.186547Z 0 [ERROR] Can't open shared library 'K:\Tmp\PRWB1920\UwAmp\bin\database\mysql-5.7.11\lib\plugin\keyring_file.dll' (errno: 126 The specified module could not be found.)
2019-08-28T12:27:12.189541Z 0 [ERROR] Couldn't load plugin named 'keyring_file' with soname 'keyring_file.dll'.
2019-08-28T12:27:12.191536Z 0 [Note] InnoDB: Mutexes and rw_locks use Windows interlocked functions
2019-08-28T12:27:12.193033Z 0 [Note] InnoDB: Uses event mutexes
2019-08-28T12:27:12.193532Z 0 [Note] InnoDB: Memory barrier is not used
2019-08-28T12:27:12.194530Z 0 [Note] InnoDB: Compressed tables use zlib 1.2.3
2019-08-28T12:27:12.196027Z 0 [Note] InnoDB: Number of pools: 1
2019-08-28T12:27:12.197025Z 0 [Note] InnoDB: Not using CPU crc32 instructions
2019-08-28T12:27:12.240942Z 0 [Note] InnoDB: Initializing buffer pool, total size = 128M, instances = 1, chunk size = 128M
2019-08-28T12:27:12.248926Z 0 [Note] InnoDB: Completed initialization of buffer pool
2019-08-28T12:27:12.450544Z 0 [Note] InnoDB: Highest supported file format is Barracuda.
2019-08-28T12:27:13.128251Z 0 [Note] InnoDB: Creating shared tablespace for temporary tables
2019-08-28T12:27:13.130247Z 0 [Note] InnoDB: Setting file '.\ibtmp1' size to 12 MB. Physically writing the file full; Please wait ...
2019-08-28T12:27:13.401731Z 0 [Note] InnoDB: File '.\ibtmp1' size is now 12 MB.
2019-08-28T12:27:13.405722Z 0 [Note] InnoDB: 96 redo rollback segment(s) found. 96 redo rollback segment(s) are active.
2019-08-28T12:27:13.407219Z 0 [Note] InnoDB: 32 non-redo rollback segment(s) are active.
2019-08-28T12:27:13.409216Z 0 [Note] InnoDB: Waiting for purge to start
2019-08-28T12:27:13.479582Z 0 [Note] InnoDB: 5.7.11 started; log sequence number 57844103
2019-08-28T12:27:13.481078Z 0 [Note] Plugin 'FEDERATED' is disabled.
2019-08-28T12:27:13.481578Z 0 [Note] InnoDB: Loading buffer pool(s) from K:\Tmp\PRWB1920\UwAmp\bin\database\mysql-5.7.11\data\ib_buffer_pool
2019-08-28T12:27:13.572405Z 0 [Warning] Failed to set up SSL because of the following SSL library error: SSL context is not usable without certificate and private key
2019-08-28T12:27:13.578393Z 0 [Note] Server hostname (bind-address): '*'; port: 3306
2019-08-28T12:27:13.580391Z 0 [Note] IPv6 is available.
2019-08-28T12:27:13.581388Z 0 [Note]   - '::' resolves to '::';
2019-08-28T12:27:13.581887Z 0 [Note] Server socket created on IP: '::'.
2019-08-28T12:27:13.802617Z 0 [Note] Event Scheduler: Loaded 0 events
2019-08-28T12:27:13.803615Z 0 [Note] K:\Tmp\PRWB1920\UwAmp\bin\database\mysql-5.7.11\bin\mysqld.exe: ready for connections.
Version: '5.7.11'  socket: ''  port: 3306  MySQL Community Server (GPL)
2019-08-28T12:27:13.860769Z 0 [Note] InnoDB: Buffer pool(s) load completed at 190828 14:27:13
2019-08-28T12:34:49.034097Z 0 [Note] K:\Tmp\PRWB1920\UwAmp\bin\database\mysql-5.7.11\bin\mysqld.exe: Normal shutdown

2019-08-28T12:34:49.036094Z 0 [Note] Giving 0 client threads a chance to die gracefully
2019-08-28T12:34:49.038089Z 0 [Note] Shutting down slave threads
2019-08-28T12:34:49.039087Z 0 [Note] Forcefully disconnecting 0 remaining clients
2019-08-28T12:34:49.040584Z 0 [Note] Event Scheduler: Purging the queue. 0 events
2019-08-28T12:34:49.042081Z 0 [Note] Binlog end
2019-08-28T12:34:49.044077Z 0 [Note] Shutting down plugin 'ngram'
2019-08-28T12:34:49.045075Z 0 [Note] Shutting down plugin 'partition'
2019-08-28T12:34:49.045575Z 0 [Note] Shutting down plugin 'BLACKHOLE'
2019-08-28T12:34:49.046573Z 0 [Note] Shutting down plugin 'ARCHIVE'
2019-08-28T12:34:49.047571Z 0 [Note] Shutting down plugin 'PERFORMANCE_SCHEMA'
2019-08-28T12:34:49.048569Z 0 [Note] Shutting down plugin 'MRG_MYISAM'
2019-08-28T12:34:49.049567Z 0 [Note] Shutting down plugin 'MyISAM'
2019-08-28T12:34:49.050565Z 0 [Note] Shutting down plugin 'INNODB_SYS_VIRTUAL'
2019-08-28T12:34:49.051563Z 0 [Note] Shutting down plugin 'INNODB_SYS_DATAFILES'
2019-08-28T12:34:49.052561Z 0 [Note] Shutting down plugin 'INNODB_SYS_TABLESPACES'
2019-08-28T12:34:49.054059Z 0 [Note] Shutting down plugin 'INNODB_SYS_FOREIGN_COLS'
2019-08-28T12:34:49.055057Z 0 [Note] Shutting down plugin 'INNODB_SYS_FOREIGN'
2019-08-28T12:34:49.056056Z 0 [Note] Shutting down plugin 'INNODB_SYS_FIELDS'
2019-08-28T12:34:49.057053Z 0 [Note] Shutting down plugin 'INNODB_SYS_COLUMNS'
2019-08-28T12:34:49.058052Z 0 [Note] Shutting down plugin 'INNODB_SYS_INDEXES'
2019-08-28T12:34:49.059549Z 0 [Note] Shutting down plugin 'INNODB_SYS_TABLESTATS'
2019-08-28T12:34:49.060546Z 0 [Note] Shutting down plugin 'INNODB_SYS_TABLES'
2019-08-28T12:34:49.061544Z 0 [Note] Shutting down plugin 'INNODB_FT_INDEX_TABLE'
2019-08-28T12:34:49.062542Z 0 [Note] Shutting down plugin 'INNODB_FT_INDEX_CACHE'
2019-08-28T12:34:49.063540Z 0 [Note] Shutting down plugin 'INNODB_FT_CONFIG'
2019-08-28T12:34:49.064538Z 0 [Note] Shutting down plugin 'INNODB_FT_BEING_DELETED'
2019-08-28T12:34:49.066036Z 0 [Note] Shutting down plugin 'INNODB_FT_DELETED'
2019-08-28T12:34:49.067034Z 0 [Note] Shutting down plugin 'INNODB_FT_DEFAULT_STOPWORD'
2019-08-28T12:34:49.068032Z 0 [Note] Shutting down plugin 'INNODB_METRICS'
2019-08-28T12:34:49.069030Z 0 [Note] Shutting down plugin 'INNODB_TEMP_TABLE_INFO'
2019-08-28T12:34:49.070028Z 0 [Note] Shutting down plugin 'INNODB_BUFFER_POOL_STATS'
2019-08-28T12:34:49.071525Z 0 [Note] Shutting down plugin 'INNODB_BUFFER_PAGE_LRU'
2019-08-28T12:34:49.072523Z 0 [Note] Shutting down plugin 'INNODB_BUFFER_PAGE'
2019-08-28T12:34:49.073521Z 0 [Note] Shutting down plugin 'INNODB_CMP_PER_INDEX_RESET'
2019-08-28T12:34:49.074519Z 0 [Note] Shutting down plugin 'INNODB_CMP_PER_INDEX'
2019-08-28T12:34:49.075518Z 0 [Note] Shutting down plugin 'INNODB_CMPMEM_RESET'
2019-08-28T12:34:49.077015Z 0 [Note] Shutting down plugin 'INNODB_CMPMEM'
2019-08-28T12:34:49.078013Z 0 [Note] Shutting down plugin 'INNODB_CMP_RESET'
2019-08-28T12:34:49.079011Z 0 [Note] Shutting down plugin 'INNODB_CMP'
2019-08-28T12:34:49.080009Z 0 [Note] Shutting down plugin 'INNODB_LOCK_WAITS'
2019-08-28T12:34:49.081009Z 0 [Note] Shutting down plugin 'INNODB_LOCKS'
2019-08-28T12:34:49.082006Z 0 [Note] Shutting down plugin 'INNODB_TRX'
2019-08-28T12:34:49.083503Z 0 [Note] Shutting down plugin 'InnoDB'
2019-08-28T12:34:49.084002Z 0 [Note] InnoDB: FTS optimize thread exiting.
2019-08-28T12:34:49.085499Z 0 [Note] InnoDB: Starting shutdown...
2019-08-28T12:34:49.193087Z 0 [Note] InnoDB: Dumping buffer pool(s) to K:\Tmp\PRWB1920\UwAmp\bin\database\mysql-5.7.11\data\ib_buffer_pool
2019-08-28T12:34:49.201074Z 0 [Note] InnoDB: Buffer pool(s) dump completed at 190828 14:34:49
2019-08-28T12:34:50.822677Z 0 [Note] InnoDB: Shutdown completed; log sequence number 58379002
2019-08-28T12:34:50.824174Z 0 [Note] InnoDB: Removed temporary tablespace data file: "ibtmp1"
2019-08-28T12:34:50.825671Z 0 [Note] Shutting down plugin 'MEMORY'
2019-08-28T12:34:50.826170Z 0 [Note] Shutting down plugin 'CSV'
2019-08-28T12:34:50.827168Z 0 [Note] Shutting down plugin 'sha256_password'
2019-08-28T12:34:50.828166Z 0 [Note] Shutting down plugin 'mysql_native_password'
2019-08-28T12:34:50.829663Z 0 [Note] Shutting down plugin 'binlog'
2019-08-28T12:34:50.831161Z 0 [Note] K:\Tmp\PRWB1920\UwAmp\bin\database\mysql-5.7.11\bin\mysqld.exe: Shutdown complete

2019-08-28T12:34:51.886875Z 0 [Warning] TIMESTAMP with implicit DEFAULT value is deprecated. Please use --explicit_defaults_for_timestamp server option (see documentation for more details).
2019-08-28T12:34:51.886875Z 0 [Warning] 'NO_ZERO_DATE', 'NO_ZERO_IN_DATE' and 'ERROR_FOR_DIVISION_BY_ZERO' sql modes should be used with strict mode. They will be merged with strict mode in a future release.
2019-08-28T12:34:51.886875Z 0 [Warning] 'NO_AUTO_CREATE_USER' sql mode was not set.
2019-08-28T12:34:51.886875Z 0 [Warning] Insecure configuration for --secure-file-priv: Current value does not restrict location of generated files. Consider setting it to a valid, non-empty path.
2019-08-28T12:34:51.887374Z 0 [ERROR] Cannot open Windows EventLog; check privileges, or start server with --log_syslog=0
2019-08-28T12:34:51.887374Z 0 [Note] K:\Tmp\PRWB1920\UwAmp\bin\database\mysql-5.7.11\bin\mysqld.exe (mysqld 5.7.11) starting as process 30936 ...
2019-08-28T12:34:51.905839Z 0 [ERROR] Can't open shared library 'K:\Tmp\PRWB1920\UwAmp\bin\database\mysql-5.7.11\lib\plugin\keyring_file.dll' (errno: 126 The specified module could not be found.)
2019-08-28T12:34:51.909831Z 0 [ERROR] Couldn't load plugin named 'keyring_file' with soname 'keyring_file.dll'.
2019-08-28T12:34:51.912326Z 0 [Note] InnoDB: Mutexes and rw_locks use Windows interlocked functions
2019-08-28T12:34:51.913324Z 0 [Note] InnoDB: Uses event mutexes
2019-08-28T12:34:51.914323Z 0 [Note] InnoDB: Memory barrier is not used
2019-08-28T12:34:51.915321Z 0 [Note] InnoDB: Compressed tables use zlib 1.2.3
2019-08-28T12:34:51.916818Z 0 [Note] InnoDB: Number of pools: 1
2019-08-28T12:34:51.917816Z 0 [Note] InnoDB: Not using CPU crc32 instructions
2019-08-28T12:34:51.962730Z 0 [Note] InnoDB: Initializing buffer pool, total size = 128M, instances = 1, chunk size = 128M
2019-08-28T12:34:51.971214Z 0 [Note] InnoDB: Completed initialization of buffer pool
2019-08-28T12:34:52.152371Z 0 [Note] InnoDB: Highest supported file format is Barracuda.
2019-08-28T12:34:52.851536Z 0 [Note] InnoDB: Creating shared tablespace for temporary tables
2019-08-28T12:34:52.853033Z 0 [Note] InnoDB: Setting file '.\ibtmp1' size to 12 MB. Physically writing the file full; Please wait ...
2019-08-28T12:34:53.162320Z 0 [Note] InnoDB: File '.\ibtmp1' size is now 12 MB.
2019-08-28T12:34:53.166317Z 0 [Note] InnoDB: 96 redo rollback segment(s) found. 96 redo rollback segment(s) are active.
2019-08-28T12:34:53.167813Z 0 [Note] InnoDB: 32 non-redo rollback segment(s) are active.
2019-08-28T12:34:53.169309Z 0 [Note] InnoDB: Waiting for purge to start
2019-08-28T12:34:53.250159Z 0 [Note] InnoDB: 5.7.11 started; log sequence number 58379002
2019-08-28T12:34:53.251653Z 0 [Note] InnoDB: Loading buffer pool(s) from K:\Tmp\PRWB1920\UwAmp\bin\database\mysql-5.7.11\data\ib_buffer_pool
2019-08-28T12:34:53.252154Z 0 [Note] Plugin 'FEDERATED' is disabled.
2019-08-28T12:34:53.465996Z 0 [Warning] Failed to set up SSL because of the following SSL library error: SSL context is not usable without certificate and private key
2019-08-28T12:34:53.471485Z 0 [Note] Server hostname (bind-address): '*'; port: 3306
2019-08-28T12:34:53.473481Z 0 [Note] IPv6 is available.
2019-08-28T12:34:53.474479Z 0 [Note]   - '::' resolves to '::';
2019-08-28T12:34:53.475478Z 0 [Note] Server socket created on IP: '::'.
2019-08-28T12:34:53.694595Z 0 [Note] Event Scheduler: Loaded 0 events
2019-08-28T12:34:53.695593Z 0 [Note] K:\Tmp\PRWB1920\UwAmp\bin\database\mysql-5.7.11\bin\mysqld.exe: ready for connections.
Version: '5.7.11'  socket: ''  port: 3306  MySQL Community Server (GPL)
2019-08-28T12:34:53.695593Z 0 [Note] InnoDB: Buffer pool(s) load completed at 190828 14:34:53
2019-08-28T12:37:12.922978Z 0 [Note] K:\Tmp\PRWB1920\UwAmp\bin\database\mysql-5.7.11\bin\mysqld.exe: Normal shutdown

2019-08-28T12:37:12.925971Z 0 [Note] Giving 0 client threads a chance to die gracefully
2019-08-28T12:37:12.927967Z 0 [Note] Shutting down slave threads
2019-08-28T12:37:12.928965Z 0 [Note] Forcefully disconnecting 0 remaining clients
2019-08-28T12:37:12.930463Z 0 [Note] Event Scheduler: Purging the queue. 0 events
2019-08-28T12:37:12.931959Z 0 [Note] Binlog end
2019-08-28T12:37:12.934957Z 0 [Note] Shutting down plugin 'ngram'
2019-08-28T12:37:12.935952Z 0 [Note] Shutting down plugin 'partition'
2019-08-28T12:37:12.936953Z 0 [Note] Shutting down plugin 'BLACKHOLE'
2019-08-28T12:37:12.937948Z 0 [Note] Shutting down plugin 'ARCHIVE'
2019-08-28T12:37:12.938946Z 0 [Note] Shutting down plugin 'PERFORMANCE_SCHEMA'
2019-08-28T12:37:12.940444Z 0 [Note] Shutting down plugin 'MRG_MYISAM'
2019-08-28T12:37:12.941444Z 0 [Note] Shutting down plugin 'MyISAM'
2019-08-28T12:37:12.941942Z 0 [Note] Shutting down plugin 'INNODB_SYS_VIRTUAL'
2019-08-28T12:37:12.943439Z 0 [Note] Shutting down plugin 'INNODB_SYS_DATAFILES'
2019-08-28T12:37:12.944438Z 0 [Note] Shutting down plugin 'INNODB_SYS_TABLESPACES'
2019-08-28T12:37:12.945435Z 0 [Note] Shutting down plugin 'INNODB_SYS_FOREIGN_COLS'
2019-08-28T12:37:12.946933Z 0 [Note] Shutting down plugin 'INNODB_SYS_FOREIGN'
2019-08-28T12:37:12.947930Z 0 [Note] Shutting down plugin 'INNODB_SYS_FIELDS'
2019-08-28T12:37:12.948928Z 0 [Note] Shutting down plugin 'INNODB_SYS_COLUMNS'
2019-08-28T12:37:12.949928Z 0 [Note] Shutting down plugin 'INNODB_SYS_INDEXES'
2019-08-28T12:37:12.950926Z 0 [Note] Shutting down plugin 'INNODB_SYS_TABLESTATS'
2019-08-28T12:37:12.951924Z 0 [Note] Shutting down plugin 'INNODB_SYS_TABLES'
2019-08-28T12:37:12.952922Z 0 [Note] Shutting down plugin 'INNODB_FT_INDEX_TABLE'
2019-08-28T12:37:12.954419Z 0 [Note] Shutting down plugin 'INNODB_FT_INDEX_CACHE'
2019-08-28T12:37:12.955416Z 0 [Note] Shutting down plugin 'INNODB_FT_CONFIG'
2019-08-28T12:37:12.956414Z 0 [Note] Shutting down plugin 'INNODB_FT_BEING_DELETED'
2019-08-28T12:37:12.957412Z 0 [Note] Shutting down plugin 'INNODB_FT_DELETED'
2019-08-28T12:37:12.958412Z 0 [Note] Shutting down plugin 'INNODB_FT_DEFAULT_STOPWORD'
2019-08-28T12:37:12.959909Z 0 [Note] Shutting down plugin 'INNODB_METRICS'
2019-08-28T12:37:12.960905Z 0 [Note] Shutting down plugin 'INNODB_TEMP_TABLE_INFO'
2019-08-28T12:37:12.961903Z 0 [Note] Shutting down plugin 'INNODB_BUFFER_POOL_STATS'
2019-08-28T12:37:12.962901Z 0 [Note] Shutting down plugin 'INNODB_BUFFER_PAGE_LRU'
2019-08-28T12:37:12.964399Z 0 [Note] Shutting down plugin 'INNODB_BUFFER_PAGE'
2019-08-28T12:37:12.965397Z 0 [Note] Shutting down plugin 'INNODB_CMP_PER_INDEX_RESET'
2019-08-28T12:37:12.966395Z 0 [Note] Shutting down plugin 'INNODB_CMP_PER_INDEX'
2019-08-28T12:37:12.967393Z 0 [Note] Shutting down plugin 'INNODB_CMPMEM_RESET'
2019-08-28T12:37:12.968391Z 0 [Note] Shutting down plugin 'INNODB_CMPMEM'
2019-08-28T12:37:12.969890Z 0 [Note] Shutting down plugin 'INNODB_CMP_RESET'
2019-08-28T12:37:12.970886Z 0 [Note] Shutting down plugin 'INNODB_CMP'
2019-08-28T12:37:12.971385Z 0 [Note] Shutting down plugin 'INNODB_LOCK_WAITS'
2019-08-28T12:37:12.972882Z 0 [Note] Shutting down plugin 'INNODB_LOCKS'
2019-08-28T12:37:12.973381Z 0 [Note] Shutting down plugin 'INNODB_TRX'
2019-08-28T12:37:12.974380Z 0 [Note] Shutting down plugin 'InnoDB'
2019-08-28T12:37:12.975378Z 0 [Note] InnoDB: FTS optimize thread exiting.
2019-08-28T12:37:12.976877Z 0 [Note] InnoDB: Starting shutdown...
2019-08-28T12:37:13.082752Z 0 [Note] InnoDB: Dumping buffer pool(s) to K:\Tmp\PRWB1920\UwAmp\bin\database\mysql-5.7.11\data\ib_buffer_pool
2019-08-28T12:37:13.090740Z 0 [Note] InnoDB: Buffer pool(s) dump completed at 190828 14:37:13
2019-08-28T12:37:14.390220Z 0 [Note] InnoDB: Shutdown completed; log sequence number 58379030
2019-08-28T12:37:14.394711Z 0 [Note] InnoDB: Removed temporary tablespace data file: "ibtmp1"
2019-08-28T12:37:14.398204Z 0 [Note] Shutting down plugin 'MEMORY'
2019-08-28T12:37:14.399197Z 0 [Note] Shutting down plugin 'CSV'
2019-08-28T12:37:14.400196Z 0 [Note] Shutting down plugin 'sha256_password'
2019-08-28T12:37:14.401193Z 0 [Note] Shutting down plugin 'mysql_native_password'
2019-08-28T12:37:14.402690Z 0 [Note] Shutting down plugin 'binlog'
2019-08-28T12:37:14.404188Z 0 [Note] K:\Tmp\PRWB1920\UwAmp\bin\database\mysql-5.7.11\bin\mysqld.exe: Shutdown complete

2019-08-28T12:37:54.903381Z 0 [Warning] TIMESTAMP with implicit DEFAULT value is deprecated. Please use --explicit_defaults_for_timestamp server option (see documentation for more details).
2019-08-28T12:37:54.903880Z 0 [Warning] 'NO_ZERO_DATE', 'NO_ZERO_IN_DATE' and 'ERROR_FOR_DIVISION_BY_ZERO' sql modes should be used with strict mode. They will be merged with strict mode in a future release.
2019-08-28T12:37:54.903880Z 0 [Warning] 'NO_AUTO_CREATE_USER' sql mode was not set.
2019-08-28T12:37:54.903880Z 0 [Warning] Insecure configuration for --secure-file-priv: Current value does not restrict location of generated files. Consider setting it to a valid, non-empty path.
2019-08-28T12:37:54.903880Z 0 [ERROR] Cannot open Windows EventLog; check privileges, or start server with --log_syslog=0
2019-08-28T12:37:54.903880Z 0 [Note] K:\Tmp\PRWB1920\UwAmp\bin\database\mysql-5.7.11\bin\mysqld.exe (mysqld 5.7.11) starting as process 25892 ...
2019-08-28T12:37:54.922345Z 0 [ERROR] Can't open shared library 'K:\Tmp\PRWB1920\UwAmp\bin\database\mysql-5.7.11\lib\plugin\keyring_file.dll' (errno: 126 The specified module could not be found.)
2019-08-28T12:37:54.924840Z 0 [ERROR] Couldn't load plugin named 'keyring_file' with soname 'keyring_file.dll'.
2019-08-28T12:37:54.927336Z 0 [Note] InnoDB: Mutexes and rw_locks use Windows interlocked functions
2019-08-28T12:37:54.928832Z 0 [Note] InnoDB: Uses event mutexes
2019-08-28T12:37:54.929830Z 0 [Note] InnoDB: Memory barrier is not used
2019-08-28T12:37:54.930829Z 0 [Note] InnoDB: Compressed tables use zlib 1.2.3
2019-08-28T12:37:54.932326Z 0 [Note] InnoDB: Number of pools: 1
2019-08-28T12:37:54.933324Z 0 [Note] InnoDB: Not using CPU crc32 instructions
2019-08-28T12:37:54.977240Z 0 [Note] InnoDB: Initializing buffer pool, total size = 128M, instances = 1, chunk size = 128M
2019-08-28T12:37:54.986223Z 0 [Note] InnoDB: Completed initialization of buffer pool
2019-08-28T12:37:55.085077Z 0 [Note] InnoDB: Highest supported file format is Barracuda.
2019-08-28T12:37:55.712381Z 0 [Note] InnoDB: Creating shared tablespace for temporary tables
2019-08-28T12:37:55.713878Z 0 [Note] InnoDB: Setting file '.\ibtmp1' size to 12 MB. Physically writing the file full; Please wait ...
2019-08-28T12:37:56.233528Z 0 [Note] InnoDB: File '.\ibtmp1' size is now 12 MB.
2019-08-28T12:37:56.237521Z 0 [Note] InnoDB: 96 redo rollback segment(s) found. 96 redo rollback segment(s) are active.
2019-08-28T12:37:56.239517Z 0 [Note] InnoDB: 32 non-redo rollback segment(s) are active.
2019-08-28T12:37:56.241014Z 0 [Note] InnoDB: Waiting for purge to start
2019-08-28T12:37:56.321998Z 0 [Note] InnoDB: 5.7.11 started; log sequence number 58379030
2019-08-28T12:37:56.323500Z 0 [Note] Plugin 'FEDERATED' is disabled.
2019-08-28T12:37:56.378147Z 0 [Note] InnoDB: Loading buffer pool(s) from K:\Tmp\PRWB1920\UwAmp\bin\database\mysql-5.7.11\data\ib_buffer_pool
2019-08-28T12:37:56.519376Z 0 [Warning] Failed to set up SSL because of the following SSL library error: SSL context is not usable without certificate and private key
2019-08-28T12:37:56.525363Z 0 [Note] Server hostname (bind-address): '*'; port: 3306
2019-08-28T12:37:56.527360Z 0 [Note] IPv6 is available.
2019-08-28T12:37:56.528358Z 0 [Note]   - '::' resolves to '::';
2019-08-28T12:37:56.528857Z 0 [Note] Server socket created on IP: '::'.
2019-08-28T12:37:56.618685Z 0 [Note] Event Scheduler: Loaded 0 events
2019-08-28T12:37:56.619683Z 0 [Note] K:\Tmp\PRWB1920\UwAmp\bin\database\mysql-5.7.11\bin\mysqld.exe: ready for connections.
Version: '5.7.11'  socket: ''  port: 3306  MySQL Community Server (GPL)
2019-08-28T12:37:56.701030Z 0 [Note] InnoDB: Buffer pool(s) load completed at 190828 14:37:56
2019-08-28T12:38:33.014056Z 0 [Note] K:\Tmp\PRWB1920\UwAmp\bin\database\mysql-5.7.11\bin\mysqld.exe: Normal shutdown

2019-08-28T12:38:33.015554Z 0 [Note] Giving 0 client threads a chance to die gracefully
2019-08-28T12:38:33.017050Z 0 [Note] Shutting down slave threads
2019-08-28T12:38:33.018051Z 0 [Note] Forcefully disconnecting 0 remaining clients
2019-08-28T12:38:33.019545Z 0 [Note] Event Scheduler: Purging the queue. 0 events
2019-08-28T12:38:33.021044Z 0 [Note] Binlog end
2019-08-28T12:38:33.022540Z 0 [Note] Shutting down plugin 'ngram'
2019-08-28T12:38:33.023538Z 0 [Note] Shutting down plugin 'partition'
2019-08-28T12:38:33.024536Z 0 [Note] Shutting down plugin 'BLACKHOLE'
2019-08-28T12:38:33.025035Z 0 [Note] Shutting down plugin 'ARCHIVE'
2019-08-28T12:38:33.026033Z 0 [Note] Shutting down plugin 'PERFORMANCE_SCHEMA'
2019-08-28T12:38:33.027031Z 0 [Note] Shutting down plugin 'MRG_MYISAM'
2019-08-28T12:38:33.028029Z 0 [Note] Shutting down plugin 'MyISAM'
2019-08-28T12:38:33.029527Z 0 [Note] Shutting down plugin 'INNODB_SYS_VIRTUAL'
2019-08-28T12:38:33.032022Z 0 [Note] Shutting down plugin 'INNODB_SYS_DATAFILES'
2019-08-28T12:38:33.034018Z 0 [Note] Shutting down plugin 'INNODB_SYS_TABLESPACES'
2019-08-28T12:38:33.036514Z 0 [Note] Shutting down plugin 'INNODB_SYS_FOREIGN_COLS'
2019-08-28T12:38:33.039009Z 0 [Note] Shutting down plugin 'INNODB_SYS_FOREIGN'
2019-08-28T12:38:33.041005Z 0 [Note] Shutting down plugin 'INNODB_SYS_FIELDS'
2019-08-28T12:38:33.043500Z 0 [Note] Shutting down plugin 'INNODB_SYS_COLUMNS'
2019-08-28T12:38:33.045497Z 0 [Note] Shutting down plugin 'INNODB_SYS_INDEXES'
2019-08-28T12:38:33.047992Z 0 [Note] Shutting down plugin 'INNODB_SYS_TABLESTATS'
2019-08-28T12:38:33.050487Z 0 [Note] Shutting down plugin 'INNODB_SYS_TABLES'
2019-08-28T12:38:33.052483Z 0 [Note] Shutting down plugin 'INNODB_FT_INDEX_TABLE'
2019-08-28T12:38:33.054978Z 0 [Note] Shutting down plugin 'INNODB_FT_INDEX_CACHE'
2019-08-28T12:38:33.057474Z 0 [Note] Shutting down plugin 'INNODB_FT_CONFIG'
2019-08-28T12:38:33.058971Z 0 [Note] Shutting down plugin 'INNODB_FT_BEING_DELETED'
2019-08-28T12:38:33.060467Z 0 [Note] Shutting down plugin 'INNODB_FT_DELETED'
2019-08-28T12:38:33.061465Z 0 [Note] Shutting down plugin 'INNODB_FT_DEFAULT_STOPWORD'
2019-08-28T12:38:33.062463Z 0 [Note] Shutting down plugin 'INNODB_METRICS'
2019-08-28T12:38:33.063461Z 0 [Note] Shutting down plugin 'INNODB_TEMP_TABLE_INFO'
2019-08-28T12:38:33.064459Z 0 [Note] Shutting down plugin 'INNODB_BUFFER_POOL_STATS'
2019-08-28T12:38:33.065458Z 0 [Note] Shutting down plugin 'INNODB_BUFFER_PAGE_LRU'
2019-08-28T12:38:33.066456Z 0 [Note] Shutting down plugin 'INNODB_BUFFER_PAGE'
2019-08-28T12:38:33.067454Z 0 [Note] Shutting down plugin 'INNODB_CMP_PER_INDEX_RESET'
2019-08-28T12:38:33.068452Z 0 [Note] Shutting down plugin 'INNODB_CMP_PER_INDEX'
2019-08-28T12:38:33.069450Z 0 [Note] Shutting down plugin 'INNODB_CMPMEM_RESET'
2019-08-28T12:38:33.070448Z 0 [Note] Shutting down plugin 'INNODB_CMPMEM'
2019-08-28T12:38:33.071446Z 0 [Note] Shutting down plugin 'INNODB_CMP_RESET'
2019-08-28T12:38:33.072444Z 0 [Note] Shutting down plugin 'INNODB_CMP'
2019-08-28T12:38:33.073442Z 0 [Note] Shutting down plugin 'INNODB_LOCK_WAITS'
2019-08-28T12:38:33.074441Z 0 [Note] Shutting down plugin 'INNODB_LOCKS'
2019-08-28T12:38:33.075439Z 0 [Note] Shutting down plugin 'INNODB_TRX'
2019-08-28T12:38:33.076437Z 0 [Note] Shutting down plugin 'InnoDB'
2019-08-28T12:38:33.077628Z 0 [Note] InnoDB: FTS optimize thread exiting.
2019-08-28T12:38:33.078629Z 0 [Note] InnoDB: Starting shutdown...
2019-08-28T12:38:33.183393Z 0 [Note] InnoDB: Dumping buffer pool(s) to K:\Tmp\PRWB1920\UwAmp\bin\database\mysql-5.7.11\data\ib_buffer_pool
2019-08-28T12:38:33.191380Z 0 [Note] InnoDB: Buffer pool(s) dump completed at 190828 14:38:33
2019-08-28T12:38:34.593193Z 0 [Note] InnoDB: Shutdown completed; log sequence number 58379058
2019-08-28T12:38:34.594690Z 0 [Note] InnoDB: Removed temporary tablespace data file: "ibtmp1"
2019-08-28T12:38:34.596187Z 0 [Note] Shutting down plugin 'MEMORY'
2019-08-28T12:38:34.596686Z 0 [Note] Shutting down plugin 'CSV'
2019-08-28T12:38:34.597684Z 0 [Note] Shutting down plugin 'sha256_password'
2019-08-28T12:38:34.598682Z 0 [Note] Shutting down plugin 'mysql_native_password'
2019-08-28T12:38:34.600179Z 0 [Note] Shutting down plugin 'binlog'
2019-08-28T12:38:34.601677Z 0 [Note] K:\Tmp\PRWB1920\UwAmp\bin\database\mysql-5.7.11\bin\mysqld.exe: Shutdown complete

2019-08-28T12:38:35.403199Z 0 [Warning] TIMESTAMP with implicit DEFAULT value is deprecated. Please use --explicit_defaults_for_timestamp server option (see documentation for more details).
2019-08-28T12:38:35.403199Z 0 [Warning] 'NO_ZERO_DATE', 'NO_ZERO_IN_DATE' and 'ERROR_FOR_DIVISION_BY_ZERO' sql modes should be used with strict mode. They will be merged with strict mode in a future release.
2019-08-28T12:38:35.403199Z 0 [Warning] 'NO_AUTO_CREATE_USER' sql mode was not set.
2019-08-28T12:38:35.403199Z 0 [Warning] Insecure configuration for --secure-file-priv: Current value does not restrict location of generated files. Consider setting it to a valid, non-empty path.
2019-08-28T12:38:35.403199Z 0 [ERROR] Cannot open Windows EventLog; check privileges, or start server with --log_syslog=0
2019-08-28T12:38:35.403199Z 0 [Note] K:\Tmp\PRWB1920\UwAmp\bin\database\mysql-5.7.11\bin\mysqld.exe (mysqld 5.7.11) starting as process 22404 ...
2019-08-28T12:38:35.421665Z 0 [ERROR] Can't open shared library 'K:\Tmp\PRWB1920\UwAmp\bin\database\mysql-5.7.11\lib\plugin\keyring_file.dll' (errno: 126 The specified module could not be found.)
2019-08-28T12:38:35.424659Z 0 [ERROR] Couldn't load plugin named 'keyring_file' with soname 'keyring_file.dll'.
2019-08-28T12:38:35.426655Z 0 [Note] InnoDB: Mutexes and rw_locks use Windows interlocked functions
2019-08-28T12:38:35.428651Z 0 [Note] InnoDB: Uses event mutexes
2019-08-28T12:38:35.429648Z 0 [Note] InnoDB: Memory barrier is not used
2019-08-28T12:38:35.430646Z 0 [Note] InnoDB: Compressed tables use zlib 1.2.3
2019-08-28T12:38:35.431644Z 0 [Note] InnoDB: Number of pools: 1
2019-08-28T12:38:35.432642Z 0 [Note] InnoDB: Not using CPU crc32 instructions
2019-08-28T12:38:35.477059Z 0 [Note] InnoDB: Initializing buffer pool, total size = 128M, instances = 1, chunk size = 128M
2019-08-28T12:38:35.485543Z 0 [Note] InnoDB: Completed initialization of buffer pool
2019-08-28T12:38:35.618290Z 0 [Note] InnoDB: Highest supported file format is Barracuda.
2019-08-28T12:38:36.279029Z 0 [Note] InnoDB: Creating shared tablespace for temporary tables
2019-08-28T12:38:36.280526Z 0 [Note] InnoDB: Setting file '.\ibtmp1' size to 12 MB. Physically writing the file full; Please wait ...
2019-08-28T12:38:37.001544Z 0 [Note] InnoDB: File '.\ibtmp1' size is now 12 MB.
2019-08-28T12:38:37.012026Z 0 [Note] InnoDB: 96 redo rollback segment(s) found. 96 redo rollback segment(s) are active.
2019-08-28T12:38:37.016517Z 0 [Note] InnoDB: 32 non-redo rollback segment(s) are active.
2019-08-28T12:38:37.020512Z 0 [Note] InnoDB: Waiting for purge to start
2019-08-28T12:38:37.100438Z 0 [Note] InnoDB: 5.7.11 started; log sequence number 58379058
2019-08-28T12:38:37.104433Z 0 [Note] InnoDB: Loading buffer pool(s) from K:\Tmp\PRWB1920\UwAmp\bin\database\mysql-5.7.11\data\ib_buffer_pool
2019-08-28T12:38:37.104933Z 0 [Note] Plugin 'FEDERATED' is disabled.
2019-08-28T12:38:37.248950Z 0 [Warning] Failed to set up SSL because of the following SSL library error: SSL context is not usable without certificate and private key
2019-08-28T12:38:37.254940Z 0 [Note] Server hostname (bind-address): '*'; port: 3306
2019-08-28T12:38:37.256936Z 0 [Note] IPv6 is available.
2019-08-28T12:38:37.257932Z 0 [Note]   - '::' resolves to '::';
2019-08-28T12:38:37.258931Z 0 [Note] Server socket created on IP: '::'.
2019-08-28T12:38:37.479012Z 0 [Note] Event Scheduler: Loaded 0 events
2019-08-28T12:38:37.480010Z 0 [Note] K:\Tmp\PRWB1920\UwAmp\bin\database\mysql-5.7.11\bin\mysqld.exe: ready for connections.
Version: '5.7.11'  socket: ''  port: 3306  MySQL Community Server (GPL)
2019-08-28T12:38:37.579322Z 0 [Note] InnoDB: Buffer pool(s) load completed at 190828 14:38:37
2019-08-28T13:00:30.828079Z 0 [Note] K:\Tmp\PRWB1920\UwAmp\bin\database\mysql-5.7.11\bin\mysqld.exe: Normal shutdown

2019-08-28T13:00:30.830074Z 0 [Note] Giving 0 client threads a chance to die gracefully
2019-08-28T13:00:30.832070Z 0 [Note] Shutting down slave threads
2019-08-28T13:00:30.833068Z 0 [Note] Forcefully disconnecting 0 remaining clients
2019-08-28T13:00:30.834068Z 0 [Note] Event Scheduler: Purging the queue. 0 events
2019-08-28T13:00:30.835565Z 0 [Note] Binlog end
2019-08-28T13:00:30.838060Z 0 [Note] Shutting down plugin 'ngram'
2019-08-28T13:00:30.839058Z 0 [Note] Shutting down plugin 'partition'
2019-08-28T13:00:30.840056Z 0 [Note] Shutting down plugin 'BLACKHOLE'
2019-08-28T13:00:30.841054Z 0 [Note] Shutting down plugin 'ARCHIVE'
2019-08-28T13:00:30.842052Z 0 [Note] Shutting down plugin 'PERFORMANCE_SCHEMA'
2019-08-28T13:00:30.843050Z 0 [Note] Shutting down plugin 'MRG_MYISAM'
2019-08-28T13:00:30.844048Z 0 [Note] Shutting down plugin 'MyISAM'
2019-08-28T13:00:30.845046Z 0 [Note] Shutting down plugin 'INNODB_SYS_VIRTUAL'
2019-08-28T13:00:30.846044Z 0 [Note] Shutting down plugin 'INNODB_SYS_DATAFILES'
2019-08-28T13:00:30.847043Z 0 [Note] Shutting down plugin 'INNODB_SYS_TABLESPACES'
2019-08-28T13:00:30.848542Z 0 [Note] Shutting down plugin 'INNODB_SYS_FOREIGN_COLS'
2019-08-28T13:00:30.849538Z 0 [Note] Shutting down plugin 'INNODB_SYS_FOREIGN'
2019-08-28T13:00:30.850536Z 0 [Note] Shutting down plugin 'INNODB_SYS_FIELDS'
2019-08-28T13:00:30.851534Z 0 [Note] Shutting down plugin 'INNODB_SYS_COLUMNS'
2019-08-28T13:00:30.852534Z 0 [Note] Shutting down plugin 'INNODB_SYS_INDEXES'
2019-08-28T13:00:30.853532Z 0 [Note] Shutting down plugin 'INNODB_SYS_TABLESTATS'
2019-08-28T13:00:30.854530Z 0 [Note] Shutting down plugin 'INNODB_SYS_TABLES'
2019-08-28T13:00:30.856026Z 0 [Note] Shutting down plugin 'INNODB_FT_INDEX_TABLE'
2019-08-28T13:00:30.857024Z 0 [Note] Shutting down plugin 'INNODB_FT_INDEX_CACHE'
2019-08-28T13:00:30.858022Z 0 [Note] Shutting down plugin 'INNODB_FT_CONFIG'
2019-08-28T13:00:30.859020Z 0 [Note] Shutting down plugin 'INNODB_FT_BEING_DELETED'
2019-08-28T13:00:30.860018Z 0 [Note] Shutting down plugin 'INNODB_FT_DELETED'
2019-08-28T13:00:30.861016Z 0 [Note] Shutting down plugin 'INNODB_FT_DEFAULT_STOPWORD'
2019-08-28T13:00:30.862513Z 0 [Note] Shutting down plugin 'INNODB_METRICS'
2019-08-28T13:00:30.863512Z 0 [Note] Shutting down plugin 'INNODB_TEMP_TABLE_INFO'
2019-08-28T13:00:30.864510Z 0 [Note] Shutting down plugin 'INNODB_BUFFER_POOL_STATS'
2019-08-28T13:00:30.865507Z 0 [Note] Shutting down plugin 'INNODB_BUFFER_PAGE_LRU'
2019-08-28T13:00:30.867005Z 0 [Note] Shutting down plugin 'INNODB_BUFFER_PAGE'
2019-08-28T13:00:30.868003Z 0 [Note] Shutting down plugin 'INNODB_CMP_PER_INDEX_RESET'
2019-08-28T13:00:30.869003Z 0 [Note] Shutting down plugin 'INNODB_CMP_PER_INDEX'
2019-08-28T13:00:30.870001Z 0 [Note] Shutting down plugin 'INNODB_CMPMEM_RESET'
2019-08-28T13:00:30.871000Z 0 [Note] Shutting down plugin 'INNODB_CMPMEM'
2019-08-28T13:00:30.872496Z 0 [Note] Shutting down plugin 'INNODB_CMP_RESET'
2019-08-28T13:00:30.873492Z 0 [Note] Shutting down plugin 'INNODB_CMP'
2019-08-28T13:00:30.873991Z 0 [Note] Shutting down plugin 'INNODB_LOCK_WAITS'
2019-08-28T13:00:30.875488Z 0 [Note] Shutting down plugin 'INNODB_LOCKS'
2019-08-28T13:00:30.876488Z 0 [Note] Shutting down plugin 'INNODB_TRX'
2019-08-28T13:00:30.876986Z 0 [Note] Shutting down plugin 'InnoDB'
2019-08-28T13:00:30.877984Z 0 [Note] InnoDB: FTS optimize thread exiting.
2019-08-28T13:00:30.879488Z 0 [Note] InnoDB: Starting shutdown...
2019-08-28T13:00:30.980979Z 0 [Note] InnoDB: Dumping buffer pool(s) to K:\Tmp\PRWB1920\UwAmp\bin\database\mysql-5.7.11\data\ib_buffer_pool
2019-08-28T13:00:30.988968Z 0 [Note] InnoDB: Buffer pool(s) dump completed at 190828 15:00:30
2019-08-28T13:00:31.974749Z 0 [Note] InnoDB: Shutdown completed; log sequence number 58379086
2019-08-28T13:00:31.978741Z 0 [Note] InnoDB: Removed temporary tablespace data file: "ibtmp1"
2019-08-28T13:00:31.980235Z 0 [Note] Shutting down plugin 'MEMORY'
2019-08-28T13:00:31.981233Z 0 [Note] Shutting down plugin 'CSV'
2019-08-28T13:00:31.982231Z 0 [Note] Shutting down plugin 'sha256_password'
2019-08-28T13:00:31.983229Z 0 [Note] Shutting down plugin 'mysql_native_password'
2019-08-28T13:00:31.984227Z 0 [Note] Shutting down plugin 'binlog'
2019-08-28T13:00:31.986223Z 0 [Note] K:\Tmp\PRWB1920\UwAmp\bin\database\mysql-5.7.11\bin\mysqld.exe: Shutdown complete

2019-08-31T11:31:16.522478Z 0 [Warning] TIMESTAMP with implicit DEFAULT value is deprecated. Please use --explicit_defaults_for_timestamp server option (see documentation for more details).
2019-08-31T11:31:16.522478Z 0 [Warning] 'NO_ZERO_DATE', 'NO_ZERO_IN_DATE' and 'ERROR_FOR_DIVISION_BY_ZERO' sql modes should be used with strict mode. They will be merged with strict mode in a future release.
2019-08-31T11:31:16.522478Z 0 [Warning] 'NO_AUTO_CREATE_USER' sql mode was not set.
2019-08-31T11:31:16.522977Z 0 [Warning] Insecure configuration for --secure-file-priv: Current value does not restrict location of generated files. Consider setting it to a valid, non-empty path.
2019-08-31T11:31:16.522977Z 0 [ERROR] Cannot open Windows EventLog; check privileges, or start server with --log_syslog=0
2019-08-31T11:31:16.523476Z 0 [Note] K:\EPFC\PRID\2019-2020\PRID1920\UwAmp\bin\database\mysql-5.7.11\bin\mysqld.exe (mysqld 5.7.11) starting as process 33160 ...
2019-08-31T11:31:16.548929Z 0 [ERROR] Can't open shared library 'K:\EPFC\PRID\2019-2020\PRID1920\UwAmp\bin\database\mysql-5.7.11\lib\plugin\keyring_file.dll' (errno: 126 The specified module could not be found.)
2019-08-31T11:31:16.553420Z 0 [ERROR] Couldn't load plugin named 'keyring_file' with soname 'keyring_file.dll'.
2019-08-31T11:31:16.556415Z 0 [Note] InnoDB: Mutexes and rw_locks use Windows interlocked functions
2019-08-31T11:31:16.557912Z 0 [Note] InnoDB: Uses event mutexes
2019-08-31T11:31:16.559409Z 0 [Note] InnoDB: Memory barrier is not used
2019-08-31T11:31:16.560906Z 0 [Note] InnoDB: Compressed tables use zlib 1.2.3
2019-08-31T11:31:16.562902Z 0 [Note] InnoDB: Number of pools: 1
2019-08-31T11:31:16.564400Z 0 [Note] InnoDB: Not using CPU crc32 instructions
2019-08-31T11:31:16.623787Z 0 [Note] InnoDB: Initializing buffer pool, total size = 128M, instances = 1, chunk size = 128M
2019-08-31T11:31:16.635765Z 0 [Note] InnoDB: Completed initialization of buffer pool
2019-08-31T11:31:16.783982Z 0 [Note] InnoDB: Highest supported file format is Barracuda.
2019-08-31T11:31:17.490633Z 0 [Note] InnoDB: Creating shared tablespace for temporary tables
2019-08-31T11:31:17.493128Z 0 [Note] InnoDB: Setting file '.\ibtmp1' size to 12 MB. Physically writing the file full; Please wait ...
2019-08-31T11:31:18.476255Z 0 [Note] InnoDB: File '.\ibtmp1' size is now 12 MB.
2019-08-31T11:31:18.482742Z 0 [Note] InnoDB: 96 redo rollback segment(s) found. 96 redo rollback segment(s) are active.
2019-08-31T11:31:18.485239Z 0 [Note] InnoDB: 32 non-redo rollback segment(s) are active.
2019-08-31T11:31:18.487234Z 0 [Note] InnoDB: Waiting for purge to start
2019-08-31T11:31:18.565585Z 0 [Note] InnoDB: 5.7.11 started; log sequence number 58379086
2019-08-31T11:31:18.568579Z 0 [Note] InnoDB: Loading buffer pool(s) from K:\EPFC\PRID\2019-2020\PRID1920\UwAmp\bin\database\mysql-5.7.11\data\ib_buffer_pool
2019-08-31T11:31:18.568579Z 0 [Note] Plugin 'FEDERATED' is disabled.
2019-08-31T11:31:18.960925Z 0 [Warning] Failed to set up SSL because of the following SSL library error: SSL context is not usable without certificate and private key
2019-08-31T11:31:18.968911Z 0 [Note] Server hostname (bind-address): '*'; port: 3306
2019-08-31T11:31:18.971905Z 0 [Note] IPv6 is available.
2019-08-31T11:31:18.972902Z 0 [Note]   - '::' resolves to '::';
2019-08-31T11:31:18.974404Z 0 [Note] Server socket created on IP: '::'.
2019-08-31T11:31:19.276824Z 0 [Note] Event Scheduler: Loaded 0 events
2019-08-31T11:31:19.278321Z 0 [Note] K:\EPFC\PRID\2019-2020\PRID1920\UwAmp\bin\database\mysql-5.7.11\bin\mysqld.exe: ready for connections.
Version: '5.7.11'  socket: ''  port: 3306  MySQL Community Server (GPL)
2019-08-31T11:31:19.466464Z 0 [Note] InnoDB: Buffer pool(s) load completed at 190831 13:31:19
2019-08-31T11:32:29.617147Z 0 [Note] K:\EPFC\PRID\2019-2020\PRID1920\UwAmp\bin\database\mysql-5.7.11\bin\mysqld.exe: Normal shutdown

2019-08-31T11:32:29.621638Z 0 [Note] Giving 0 client threads a chance to die gracefully
2019-08-31T11:32:29.624136Z 0 [Note] Shutting down slave threads
2019-08-31T11:32:29.625631Z 0 [Note] Forcefully disconnecting 0 remaining clients
2019-08-31T11:32:29.627628Z 0 [Note] Event Scheduler: Purging the queue. 0 events
2019-08-31T11:32:29.630623Z 0 [Note] Binlog end
2019-08-31T11:32:29.634115Z 0 [Note] Shutting down plugin 'ngram'
2019-08-31T11:32:29.635612Z 0 [Note] Shutting down plugin 'partition'
2019-08-31T11:32:29.637109Z 0 [Note] Shutting down plugin 'BLACKHOLE'
2019-08-31T11:32:29.638107Z 0 [Note] Shutting down plugin 'ARCHIVE'
2019-08-31T11:32:29.639604Z 0 [Note] Shutting down plugin 'PERFORMANCE_SCHEMA'
2019-08-31T11:32:29.641102Z 0 [Note] Shutting down plugin 'MRG_MYISAM'
2019-08-31T11:32:29.642598Z 0 [Note] Shutting down plugin 'MyISAM'
2019-08-31T11:32:29.643596Z 0 [Note] Shutting down plugin 'INNODB_SYS_VIRTUAL'
2019-08-31T11:32:29.645094Z 0 [Note] Shutting down plugin 'INNODB_SYS_DATAFILES'
2019-08-31T11:32:29.646591Z 0 [Note] Shutting down plugin 'INNODB_SYS_TABLESPACES'
2019-08-31T11:32:29.648088Z 0 [Note] Shutting down plugin 'INNODB_SYS_FOREIGN_COLS'
2019-08-31T11:32:29.649585Z 0 [Note] Shutting down plugin 'INNODB_SYS_FOREIGN'
2019-08-31T11:32:29.651082Z 0 [Note] Shutting down plugin 'INNODB_SYS_FIELDS'
2019-08-31T11:32:29.652580Z 0 [Note] Shutting down plugin 'INNODB_SYS_COLUMNS'
2019-08-31T11:32:29.654077Z 0 [Note] Shutting down plugin 'INNODB_SYS_INDEXES'
2019-08-31T11:32:29.655574Z 0 [Note] Shutting down plugin 'INNODB_SYS_TABLESTATS'
2019-08-31T11:32:29.657071Z 0 [Note] Shutting down plugin 'INNODB_SYS_TABLES'
2019-08-31T11:32:29.658569Z 0 [Note] Shutting down plugin 'INNODB_FT_INDEX_TABLE'
2019-08-31T11:32:29.660065Z 0 [Note] Shutting down plugin 'INNODB_FT_INDEX_CACHE'
2019-08-31T11:32:29.661562Z 0 [Note] Shutting down plugin 'INNODB_FT_CONFIG'
2019-08-31T11:32:29.663059Z 0 [Note] Shutting down plugin 'INNODB_FT_BEING_DELETED'
2019-08-31T11:32:29.664557Z 0 [Note] Shutting down plugin 'INNODB_FT_DELETED'
2019-08-31T11:32:29.666054Z 0 [Note] Shutting down plugin 'INNODB_FT_DEFAULT_STOPWORD'
2019-08-31T11:32:29.667551Z 0 [Note] Shutting down plugin 'INNODB_METRICS'
2019-08-31T11:32:29.669048Z 0 [Note] Shutting down plugin 'INNODB_TEMP_TABLE_INFO'
2019-08-31T11:32:29.670545Z 0 [Note] Shutting down plugin 'INNODB_BUFFER_POOL_STATS'
2019-08-31T11:32:29.672042Z 0 [Note] Shutting down plugin 'INNODB_BUFFER_PAGE_LRU'
2019-08-31T11:32:29.673540Z 0 [Note] Shutting down plugin 'INNODB_BUFFER_PAGE'
2019-08-31T11:32:29.675037Z 0 [Note] Shutting down plugin 'INNODB_CMP_PER_INDEX_RESET'
2019-08-31T11:32:29.676536Z 0 [Note] Shutting down plugin 'INNODB_CMP_PER_INDEX'
2019-08-31T11:32:29.678031Z 0 [Note] Shutting down plugin 'INNODB_CMPMEM_RESET'
2019-08-31T11:32:29.679529Z 0 [Note] Shutting down plugin 'INNODB_CMPMEM'
2019-08-31T11:32:29.681027Z 0 [Note] Shutting down plugin 'INNODB_CMP_RESET'
2019-08-31T11:32:29.682523Z 0 [Note] Shutting down plugin 'INNODB_CMP'
2019-08-31T11:32:29.683522Z 0 [Note] Shutting down plugin 'INNODB_LOCK_WAITS'
2019-08-31T11:32:29.685018Z 0 [Note] Shutting down plugin 'INNODB_LOCKS'
2019-08-31T11:32:29.686516Z 0 [Note] Shutting down plugin 'INNODB_TRX'
2019-08-31T11:32:29.688013Z 0 [Note] Shutting down plugin 'InnoDB'
2019-08-31T11:32:29.689014Z 0 [Note] InnoDB: FTS optimize thread exiting.
2019-08-31T11:32:29.690509Z 0 [Note] InnoDB: Starting shutdown...
2019-08-31T11:32:29.796834Z 0 [Note] InnoDB: Dumping buffer pool(s) to K:\EPFC\PRID\2019-2020\PRID1920\UwAmp\bin\database\mysql-5.7.11\data\ib_buffer_pool
2019-08-31T11:32:29.805318Z 0 [Note] InnoDB: Buffer pool(s) dump completed at 190831 13:32:29
2019-08-31T11:32:30.982510Z 0 [Note] InnoDB: Shutdown completed; log sequence number 58418627
2019-08-31T11:32:30.985006Z 0 [Note] InnoDB: Removed temporary tablespace data file: "ibtmp1"
2019-08-31T11:32:30.987001Z 0 [Note] Shutting down plugin 'MEMORY'
2019-08-31T11:32:30.988000Z 0 [Note] Shutting down plugin 'CSV'
2019-08-31T11:32:30.989497Z 0 [Note] Shutting down plugin 'sha256_password'
2019-08-31T11:32:30.990993Z 0 [Note] Shutting down plugin 'mysql_native_password'
2019-08-31T11:32:30.992491Z 0 [Note] Shutting down plugin 'binlog'
2019-08-31T11:32:30.994985Z 0 [Note] K:\EPFC\PRID\2019-2020\PRID1920\UwAmp\bin\database\mysql-5.7.11\bin\mysqld.exe: Shutdown complete

2019-08-31T11:33:44.412650Z 0 [Warning] TIMESTAMP with implicit DEFAULT value is deprecated. Please use --explicit_defaults_for_timestamp server option (see documentation for more details).
2019-08-31T11:33:44.412650Z 0 [Warning] 'NO_ZERO_DATE', 'NO_ZERO_IN_DATE' and 'ERROR_FOR_DIVISION_BY_ZERO' sql modes should be used with strict mode. They will be merged with strict mode in a future release.
2019-08-31T11:33:44.412650Z 0 [Warning] 'NO_AUTO_CREATE_USER' sql mode was not set.
2019-08-31T11:33:44.412650Z 0 [Warning] Insecure configuration for --secure-file-priv: Current value does not restrict location of generated files. Consider setting it to a valid, non-empty path.
2019-08-31T11:33:44.413149Z 0 [ERROR] Cannot open Windows EventLog; check privileges, or start server with --log_syslog=0
2019-08-31T11:33:44.413149Z 0 [Note] K:\EPFC\PRID\2019-2020\PRID1920\uwamp\bin\database\mysql-5.7.11\bin\mysqld.exe (mysqld 5.7.11) starting as process 33592 ...
2019-08-31T11:33:44.438600Z 0 [ERROR] Can't open shared library 'K:\EPFC\PRID\2019-2020\PRID1920\uwamp\bin\database\mysql-5.7.11\lib\plugin\keyring_file.dll' (errno: 126 The specified module could not be found.)
2019-08-31T11:33:44.443089Z 0 [ERROR] Couldn't load plugin named 'keyring_file' with soname 'keyring_file.dll'.
2019-08-31T11:33:44.447082Z 0 [Note] InnoDB: Mutexes and rw_locks use Windows interlocked functions
2019-08-31T11:33:44.449078Z 0 [Note] InnoDB: Uses event mutexes
2019-08-31T11:33:44.450575Z 0 [Note] InnoDB: Memory barrier is not used
2019-08-31T11:33:44.451573Z 0 [Note] InnoDB: Compressed tables use zlib 1.2.3
2019-08-31T11:33:44.453570Z 0 [Note] InnoDB: Number of pools: 1
2019-08-31T11:33:44.455067Z 0 [Note] InnoDB: Not using CPU crc32 instructions
2019-08-31T11:33:44.514455Z 0 [Note] InnoDB: Initializing buffer pool, total size = 128M, instances = 1, chunk size = 128M
2019-08-31T11:33:44.526433Z 0 [Note] InnoDB: Completed initialization of buffer pool
2019-08-31T11:33:44.653191Z 0 [Note] InnoDB: Highest supported file format is Barracuda.
2019-08-31T11:33:45.496582Z 0 [Note] InnoDB: Creating shared tablespace for temporary tables
2019-08-31T11:33:45.499078Z 0 [Note] InnoDB: Setting file '.\ibtmp1' size to 12 MB. Physically writing the file full; Please wait ...
2019-08-31T11:33:46.448998Z 0 [Note] InnoDB: File '.\ibtmp1' size is now 12 MB.
2019-08-31T11:33:46.455978Z 0 [Note] InnoDB: 96 redo rollback segment(s) found. 96 redo rollback segment(s) are active.
2019-08-31T11:33:46.460469Z 0 [Note] InnoDB: 32 non-redo rollback segment(s) are active.
2019-08-31T11:33:46.464462Z 0 [Note] InnoDB: Waiting for purge to start
2019-08-31T11:33:46.555462Z 0 [Note] InnoDB: 5.7.11 started; log sequence number 58418627
2019-08-31T11:33:46.636300Z 0 [Note] Plugin 'FEDERATED' is disabled.
2019-08-31T11:33:46.636300Z 0 [Note] InnoDB: Loading buffer pool(s) from K:\EPFC\PRID\2019-2020\PRID1920\uwamp\bin\database\mysql-5.7.11\data\ib_buffer_pool
2019-08-31T11:33:46.970165Z 0 [Warning] Failed to set up SSL because of the following SSL library error: SSL context is not usable without certificate and private key
2019-08-31T11:33:46.978148Z 0 [Note] Server hostname (bind-address): '*'; port: 3306
2019-08-31T11:33:46.980645Z 0 [Note] IPv6 is available.
2019-08-31T11:33:46.982142Z 0 [Note]   - '::' resolves to '::';
2019-08-31T11:33:46.983140Z 0 [Note] Server socket created on IP: '::'.
2019-08-31T11:33:47.225179Z 0 [Note] Event Scheduler: Loaded 0 events
2019-08-31T11:33:47.233164Z 0 [Note] K:\EPFC\PRID\2019-2020\PRID1920\uwamp\bin\database\mysql-5.7.11\bin\mysqld.exe: ready for connections.
Version: '5.7.11'  socket: ''  port: 3306  MySQL Community Server (GPL)
2019-08-31T11:33:47.271091Z 0 [Note] InnoDB: Buffer pool(s) load completed at 190831 13:33:47
2019-08-31T11:33:52.269996Z 0 [Note] K:\EPFC\PRID\2019-2020\PRID1920\uwamp\bin\database\mysql-5.7.11\bin\mysqld.exe: Normal shutdown

2019-08-31T11:33:52.272989Z 0 [Note] Giving 0 client threads a chance to die gracefully
2019-08-31T11:33:52.275985Z 0 [Note] Shutting down slave threads
2019-08-31T11:33:52.277480Z 0 [Note] Forcefully disconnecting 0 remaining clients
2019-08-31T11:33:52.279977Z 0 [Note] Event Scheduler: Purging the queue. 0 events
2019-08-31T11:33:52.281473Z 0 [Note] Binlog end
2019-08-31T11:33:52.283470Z 0 [Note] Shutting down plugin 'ngram'
2019-08-31T11:33:52.284968Z 0 [Note] Shutting down plugin 'partition'
2019-08-31T11:33:52.285966Z 0 [Note] Shutting down plugin 'BLACKHOLE'
2019-08-31T11:33:52.287463Z 0 [Note] Shutting down plugin 'ARCHIVE'
2019-08-31T11:33:52.288961Z 0 [Note] Shutting down plugin 'PERFORMANCE_SCHEMA'
2019-08-31T11:33:52.290455Z 0 [Note] Shutting down plugin 'MRG_MYISAM'
2019-08-31T11:33:52.291454Z 0 [Note] Shutting down plugin 'MyISAM'
2019-08-31T11:33:52.292950Z 0 [Note] Shutting down plugin 'INNODB_SYS_VIRTUAL'
2019-08-31T11:33:52.294447Z 0 [Note] Shutting down plugin 'INNODB_SYS_DATAFILES'
2019-08-31T11:33:52.295944Z 0 [Note] Shutting down plugin 'INNODB_SYS_TABLESPACES'
2019-08-31T11:33:52.297444Z 0 [Note] Shutting down plugin 'INNODB_SYS_FOREIGN_COLS'
2019-08-31T11:33:52.298938Z 0 [Note] Shutting down plugin 'INNODB_SYS_FOREIGN'
2019-08-31T11:33:52.300441Z 0 [Note] Shutting down plugin 'INNODB_SYS_FIELDS'
2019-08-31T11:33:52.301934Z 0 [Note] Shutting down plugin 'INNODB_SYS_COLUMNS'
2019-08-31T11:33:52.303432Z 0 [Note] Shutting down plugin 'INNODB_SYS_INDEXES'
2019-08-31T11:33:52.304929Z 0 [Note] Shutting down plugin 'INNODB_SYS_TABLESTATS'
2019-08-31T11:33:52.306426Z 0 [Note] Shutting down plugin 'INNODB_SYS_TABLES'
2019-08-31T11:33:52.307922Z 0 [Note] Shutting down plugin 'INNODB_FT_INDEX_TABLE'
2019-08-31T11:33:52.309419Z 0 [Note] Shutting down plugin 'INNODB_FT_INDEX_CACHE'
2019-08-31T11:33:52.310918Z 0 [Note] Shutting down plugin 'INNODB_FT_CONFIG'
2019-08-31T11:33:52.312414Z 0 [Note] Shutting down plugin 'INNODB_FT_BEING_DELETED'
2019-08-31T11:33:52.314412Z 0 [Note] Shutting down plugin 'INNODB_FT_DELETED'
2019-08-31T11:33:52.315409Z 0 [Note] Shutting down plugin 'INNODB_FT_DEFAULT_STOPWORD'
2019-08-31T11:33:52.317404Z 0 [Note] Shutting down plugin 'INNODB_METRICS'
2019-08-31T11:33:52.318901Z 0 [Note] Shutting down plugin 'INNODB_TEMP_TABLE_INFO'
2019-08-31T11:33:52.320399Z 0 [Note] Shutting down plugin 'INNODB_BUFFER_POOL_STATS'
2019-08-31T11:33:52.321896Z 0 [Note] Shutting down plugin 'INNODB_BUFFER_PAGE_LRU'
2019-08-31T11:33:52.323396Z 0 [Note] Shutting down plugin 'INNODB_BUFFER_PAGE'
2019-08-31T11:33:52.324893Z 0 [Note] Shutting down plugin 'INNODB_CMP_PER_INDEX_RESET'
2019-08-31T11:33:52.326387Z 0 [Note] Shutting down plugin 'INNODB_CMP_PER_INDEX'
2019-08-31T11:33:52.327887Z 0 [Note] Shutting down plugin 'INNODB_CMPMEM_RESET'
2019-08-31T11:33:52.329384Z 0 [Note] Shutting down plugin 'INNODB_CMPMEM'
2019-08-31T11:33:52.330881Z 0 [Note] Shutting down plugin 'INNODB_CMP_RESET'
2019-08-31T11:33:52.332379Z 0 [Note] Shutting down plugin 'INNODB_CMP'
2019-08-31T11:33:52.333377Z 0 [Note] Shutting down plugin 'INNODB_LOCK_WAITS'
2019-08-31T11:33:52.334872Z 0 [Note] Shutting down plugin 'INNODB_LOCKS'
2019-08-31T11:33:52.336369Z 0 [Note] Shutting down plugin 'INNODB_TRX'
2019-08-31T11:33:52.337866Z 0 [Note] Shutting down plugin 'InnoDB'
2019-08-31T11:33:52.338865Z 0 [Note] InnoDB: FTS optimize thread exiting.
2019-08-31T11:33:52.340861Z 0 [Note] InnoDB: Starting shutdown...
2019-08-31T11:33:52.449948Z 0 [Note] InnoDB: Dumping buffer pool(s) to K:\EPFC\PRID\2019-2020\PRID1920\uwamp\bin\database\mysql-5.7.11\data\ib_buffer_pool
2019-08-31T11:33:52.458433Z 0 [Note] InnoDB: Buffer pool(s) dump completed at 190831 13:33:52
2019-08-31T11:33:53.147559Z 0 [Note] InnoDB: Shutdown completed; log sequence number 58418655
2019-08-31T11:33:53.149556Z 0 [Note] InnoDB: Removed temporary tablespace data file: "ibtmp1"
2019-08-31T11:33:53.151552Z 0 [Note] Shutting down plugin 'MEMORY'
2019-08-31T11:33:53.152550Z 0 [Note] Shutting down plugin 'CSV'
2019-08-31T11:33:53.154047Z 0 [Note] Shutting down plugin 'sha256_password'
2019-08-31T11:33:53.155045Z 0 [Note] Shutting down plugin 'mysql_native_password'
2019-08-31T11:33:53.157043Z 0 [Note] Shutting down plugin 'binlog'
2019-08-31T11:33:53.159038Z 0 [Note] K:\EPFC\PRID\2019-2020\PRID1920\uwamp\bin\database\mysql-5.7.11\bin\mysqld.exe: Shutdown complete

2019-08-31T11:34:20.100355Z 0 [Warning] TIMESTAMP with implicit DEFAULT value is deprecated. Please use --explicit_defaults_for_timestamp server option (see documentation for more details).
2019-08-31T11:34:20.100355Z 0 [Warning] 'NO_ZERO_DATE', 'NO_ZERO_IN_DATE' and 'ERROR_FOR_DIVISION_BY_ZERO' sql modes should be used with strict mode. They will be merged with strict mode in a future release.
2019-08-31T11:34:20.100355Z 0 [Warning] 'NO_AUTO_CREATE_USER' sql mode was not set.
2019-08-31T11:34:20.100355Z 0 [Warning] Insecure configuration for --secure-file-priv: Current value does not restrict location of generated files. Consider setting it to a valid, non-empty path.
2019-08-31T11:34:20.100855Z 0 [ERROR] Cannot open Windows EventLog; check privileges, or start server with --log_syslog=0
2019-08-31T11:34:20.100855Z 0 [Note] k:\EPFC\PRID\2019-2020\PRID1920\uwamp\bin\database\mysql-5.7.11\bin\mysqld.exe (mysqld 5.7.11) starting as process 16120 ...
2019-08-31T11:34:20.126804Z 0 [ERROR] Can't open shared library 'k:\EPFC\PRID\2019-2020\PRID1920\uwamp\bin\database\mysql-5.7.11\lib\plugin\keyring_file.dll' (errno: 126 The specified module could not be found.)
2019-08-31T11:34:20.130796Z 0 [ERROR] Couldn't load plugin named 'keyring_file' with soname 'keyring_file.dll'.
2019-08-31T11:34:20.133791Z 0 [Note] InnoDB: Mutexes and rw_locks use Windows interlocked functions
2019-08-31T11:34:20.135288Z 0 [Note] InnoDB: Uses event mutexes
2019-08-31T11:34:20.136785Z 0 [Note] InnoDB: Memory barrier is not used
2019-08-31T11:34:20.138282Z 0 [Note] InnoDB: Compressed tables use zlib 1.2.3
2019-08-31T11:34:20.140279Z 0 [Note] InnoDB: Number of pools: 1
2019-08-31T11:34:20.141276Z 0 [Note] InnoDB: Not using CPU crc32 instructions
2019-08-31T11:34:20.201164Z 0 [Note] InnoDB: Initializing buffer pool, total size = 128M, instances = 1, chunk size = 128M
2019-08-31T11:34:20.213141Z 0 [Note] InnoDB: Completed initialization of buffer pool
2019-08-31T11:34:20.329418Z 0 [Note] InnoDB: Highest supported file format is Barracuda.
2019-08-31T11:34:20.897339Z 0 [Note] InnoDB: Creating shared tablespace for temporary tables
2019-08-31T11:34:20.899834Z 0 [Note] InnoDB: Setting file '.\ibtmp1' size to 12 MB. Physically writing the file full; Please wait ...
2019-08-31T11:34:21.446792Z 0 [Note] InnoDB: File '.\ibtmp1' size is now 12 MB.
2019-08-31T11:34:21.452780Z 0 [Note] InnoDB: 96 redo rollback segment(s) found. 96 redo rollback segment(s) are active.
2019-08-31T11:34:21.455276Z 0 [Note] InnoDB: 32 non-redo rollback segment(s) are active.
2019-08-31T11:34:21.457272Z 0 [Note] InnoDB: Waiting for purge to start
2019-08-31T11:34:21.537617Z 0 [Note] InnoDB: 5.7.11 started; log sequence number 58418655
2019-08-31T11:34:21.540613Z 0 [Note] InnoDB: Loading buffer pool(s) from k:\EPFC\PRID\2019-2020\PRID1920\uwamp\bin\database\mysql-5.7.11\data\ib_buffer_pool
2019-08-31T11:34:21.540613Z 0 [Note] Plugin 'FEDERATED' is disabled.
2019-08-31T11:34:21.834553Z 0 [Warning] Failed to set up SSL because of the following SSL library error: SSL context is not usable without certificate and private key
2019-08-31T11:34:21.842538Z 0 [Note] Server hostname (bind-address): '*'; port: 3306
2019-08-31T11:34:21.845532Z 0 [Note] IPv6 is available.
2019-08-31T11:34:21.846530Z 0 [Note]   - '::' resolves to '::';
2019-08-31T11:34:21.847528Z 0 [Note] Server socket created on IP: '::'.
2019-08-31T11:34:22.040658Z 0 [Note] Event Scheduler: Loaded 0 events
2019-08-31T11:34:22.042154Z 0 [Note] k:\EPFC\PRID\2019-2020\PRID1920\uwamp\bin\database\mysql-5.7.11\bin\mysqld.exe: ready for connections.
Version: '5.7.11'  socket: ''  port: 3306  MySQL Community Server (GPL)
2019-08-31T11:34:22.225299Z 0 [Note] InnoDB: Buffer pool(s) load completed at 190831 13:34:22
2019-08-31T11:34:28.192244Z 0 [Note] k:\EPFC\PRID\2019-2020\PRID1920\uwamp\bin\database\mysql-5.7.11\bin\mysqld.exe: Normal shutdown

2019-08-31T11:34:28.195238Z 0 [Note] Giving 0 client threads a chance to die gracefully
2019-08-31T11:34:28.198232Z 0 [Note] Shutting down slave threads
2019-08-31T11:34:28.199732Z 0 [Note] Forcefully disconnecting 0 remaining clients
2019-08-31T11:34:28.201227Z 0 [Note] Event Scheduler: Purging the queue. 0 events
2019-08-31T11:34:28.203222Z 0 [Note] Binlog end
2019-08-31T11:34:28.205219Z 0 [Note] Shutting down plugin 'ngram'
2019-08-31T11:34:28.206217Z 0 [Note] Shutting down plugin 'partition'
2019-08-31T11:34:28.207715Z 0 [Note] Shutting down plugin 'BLACKHOLE'
2019-08-31T11:34:28.209212Z 0 [Note] Shutting down plugin 'ARCHIVE'
2019-08-31T11:34:28.210210Z 0 [Note] Shutting down plugin 'PERFORMANCE_SCHEMA'
2019-08-31T11:34:28.211706Z 0 [Note] Shutting down plugin 'MRG_MYISAM'
2019-08-31T11:34:28.213206Z 0 [Note] Shutting down plugin 'MyISAM'
2019-08-31T11:34:28.214700Z 0 [Note] Shutting down plugin 'INNODB_SYS_VIRTUAL'
2019-08-31T11:34:28.216200Z 0 [Note] Shutting down plugin 'INNODB_SYS_DATAFILES'
2019-08-31T11:34:28.217696Z 0 [Note] Shutting down plugin 'INNODB_SYS_TABLESPACES'
2019-08-31T11:34:28.219193Z 0 [Note] Shutting down plugin 'INNODB_SYS_FOREIGN_COLS'
2019-08-31T11:34:28.220691Z 0 [Note] Shutting down plugin 'INNODB_SYS_FOREIGN'
2019-08-31T11:34:28.222187Z 0 [Note] Shutting down plugin 'INNODB_SYS_FIELDS'
2019-08-31T11:34:28.223684Z 0 [Note] Shutting down plugin 'INNODB_SYS_COLUMNS'
2019-08-31T11:34:28.225181Z 0 [Note] Shutting down plugin 'INNODB_SYS_INDEXES'
2019-08-31T11:34:28.226678Z 0 [Note] Shutting down plugin 'INNODB_SYS_TABLESTATS'
2019-08-31T11:34:28.228176Z 0 [Note] Shutting down plugin 'INNODB_SYS_TABLES'
2019-08-31T11:34:28.229676Z 0 [Note] Shutting down plugin 'INNODB_FT_INDEX_TABLE'
2019-08-31T11:34:28.231173Z 0 [Note] Shutting down plugin 'INNODB_FT_INDEX_CACHE'
2019-08-31T11:34:28.232670Z 0 [Note] Shutting down plugin 'INNODB_FT_CONFIG'
2019-08-31T11:34:28.234167Z 0 [Note] Shutting down plugin 'INNODB_FT_BEING_DELETED'
2019-08-31T11:34:28.235664Z 0 [Note] Shutting down plugin 'INNODB_FT_DELETED'
2019-08-31T11:34:28.237161Z 0 [Note] Shutting down plugin 'INNODB_FT_DEFAULT_STOPWORD'
2019-08-31T11:34:28.239157Z 0 [Note] Shutting down plugin 'INNODB_METRICS'
2019-08-31T11:34:28.240156Z 0 [Note] Shutting down plugin 'INNODB_TEMP_TABLE_INFO'
2019-08-31T11:34:28.242150Z 0 [Note] Shutting down plugin 'INNODB_BUFFER_POOL_STATS'
2019-08-31T11:34:28.243647Z 0 [Note] Shutting down plugin 'INNODB_BUFFER_PAGE_LRU'
2019-08-31T11:34:28.245144Z 0 [Note] Shutting down plugin 'INNODB_BUFFER_PAGE'
2019-08-31T11:34:28.246641Z 0 [Note] Shutting down plugin 'INNODB_CMP_PER_INDEX_RESET'
2019-08-31T11:34:28.248139Z 0 [Note] Shutting down plugin 'INNODB_CMP_PER_INDEX'
2019-08-31T11:34:28.249636Z 0 [Note] Shutting down plugin 'INNODB_CMPMEM_RESET'
2019-08-31T11:34:28.251133Z 0 [Note] Shutting down plugin 'INNODB_CMPMEM'
2019-08-31T11:34:28.252630Z 0 [Note] Shutting down plugin 'INNODB_CMP_RESET'
2019-08-31T11:34:28.254127Z 0 [Note] Shutting down plugin 'INNODB_CMP'
2019-08-31T11:34:28.255624Z 0 [Note] Shutting down plugin 'INNODB_LOCK_WAITS'
2019-08-31T11:34:28.257121Z 0 [Note] Shutting down plugin 'INNODB_LOCKS'
2019-08-31T11:34:28.258120Z 0 [Note] Shutting down plugin 'INNODB_TRX'
2019-08-31T11:34:28.259617Z 0 [Note] Shutting down plugin 'InnoDB'
2019-08-31T11:34:28.261114Z 0 [Note] InnoDB: FTS optimize thread exiting.
2019-08-31T11:34:28.262611Z 0 [Note] InnoDB: Starting shutdown...
2019-08-31T11:34:28.370209Z 0 [Note] InnoDB: Dumping buffer pool(s) to k:\EPFC\PRID\2019-2020\PRID1920\uwamp\bin\database\mysql-5.7.11\data\ib_buffer_pool
2019-08-31T11:34:28.378700Z 0 [Note] InnoDB: Buffer pool(s) dump completed at 190831 13:34:28
2019-08-31T11:34:29.152974Z 0 [Note] InnoDB: Shutdown completed; log sequence number 58418683
2019-08-31T11:34:29.155470Z 0 [Note] InnoDB: Removed temporary tablespace data file: "ibtmp1"
2019-08-31T11:34:29.157466Z 0 [Note] Shutting down plugin 'MEMORY'
2019-08-31T11:34:29.158963Z 0 [Note] Shutting down plugin 'CSV'
2019-08-31T11:34:29.160460Z 0 [Note] Shutting down plugin 'sha256_password'
2019-08-31T11:34:29.161957Z 0 [Note] Shutting down plugin 'mysql_native_password'
2019-08-31T11:34:29.163954Z 0 [Note] Shutting down plugin 'binlog'
2019-08-31T11:34:29.166449Z 0 [Note] k:\EPFC\PRID\2019-2020\PRID1920\uwamp\bin\database\mysql-5.7.11\bin\mysqld.exe: Shutdown complete

2019-09-13T15:47:55.861342Z 0 [Warning] TIMESTAMP with implicit DEFAULT value is deprecated. Please use --explicit_defaults_for_timestamp server option (see documentation for more details).
2019-09-13T15:47:55.861342Z 0 [Warning] 'NO_ZERO_DATE', 'NO_ZERO_IN_DATE' and 'ERROR_FOR_DIVISION_BY_ZERO' sql modes should be used with strict mode. They will be merged with strict mode in a future release.
2019-09-13T15:47:55.861342Z 0 [Warning] 'NO_AUTO_CREATE_USER' sql mode was not set.
2019-09-13T15:47:55.861342Z 0 [Warning] Insecure configuration for --secure-file-priv: Current value does not restrict location of generated files. Consider setting it to a valid, non-empty path.
2019-09-13T15:47:55.861342Z 0 [ERROR] Cannot open Windows EventLog; check privileges, or start server with --log_syslog=0
2019-09-13T15:47:55.861342Z 0 [Note] k:\EPFC\PRID\2019-2020\PRID1920\uwamp\bin\database\mysql-5.7.11\bin\mysqld.exe (mysqld 5.7.11) starting as process 17128 ...
2019-09-13T15:47:56.252158Z 0 [ERROR] Can't open shared library 'k:\EPFC\PRID\2019-2020\PRID1920\uwamp\bin\database\mysql-5.7.11\lib\plugin\keyring_file.dll' (errno: 126 The specified module could not be found.)
2019-09-13T15:47:56.252158Z 0 [ERROR] Couldn't load plugin named 'keyring_file' with soname 'keyring_file.dll'.
2019-09-13T15:47:56.252158Z 0 [Note] InnoDB: Mutexes and rw_locks use Windows interlocked functions
2019-09-13T15:47:56.252158Z 0 [Note] InnoDB: Uses event mutexes
2019-09-13T15:47:56.252158Z 0 [Note] InnoDB: Memory barrier is not used
2019-09-13T15:47:56.252158Z 0 [Note] InnoDB: Compressed tables use zlib 1.2.3
2019-09-13T15:47:56.252158Z 0 [Note] InnoDB: Number of pools: 1
2019-09-13T15:47:56.252158Z 0 [Note] InnoDB: Not using CPU crc32 instructions
2019-09-13T15:47:56.314661Z 0 [Note] InnoDB: Initializing buffer pool, total size = 128M, instances = 1, chunk size = 128M
2019-09-13T15:47:56.330281Z 0 [Note] InnoDB: Completed initialization of buffer pool
2019-09-13T15:47:56.924009Z 0 [Note] InnoDB: Highest supported file format is Barracuda.
2019-09-13T15:48:03.277723Z 0 [Note] InnoDB: Creating shared tablespace for temporary tables
2019-09-13T15:48:03.282720Z 0 [Note] InnoDB: Setting file '.\ibtmp1' size to 12 MB. Physically writing the file full; Please wait ...
2019-09-13T15:48:03.846197Z 0 [Note] InnoDB: File '.\ibtmp1' size is now 12 MB.
2019-09-13T15:48:03.889966Z 0 [Note] InnoDB: 96 redo rollback segment(s) found. 96 redo rollback segment(s) are active.
2019-09-13T15:48:03.894966Z 0 [Note] InnoDB: 32 non-redo rollback segment(s) are active.
2019-09-13T15:48:03.899961Z 0 [Note] InnoDB: Waiting for purge to start
2019-09-13T15:48:03.953613Z 0 [Note] InnoDB: page_cleaner: 1000ms intended loop took 7623ms. The settings might not be optimal. (flushed=0 and evicted=0, during the time.)
2019-09-13T15:48:04.006075Z 0 [Note] InnoDB: 5.7.11 started; log sequence number 58418683
2019-09-13T15:48:04.010077Z 0 [Note] Plugin 'FEDERATED' is disabled.
2019-09-13T15:48:04.017152Z 0 [Note] InnoDB: Loading buffer pool(s) from k:\EPFC\PRID\2019-2020\PRID1920\uwamp\bin\database\mysql-5.7.11\data\ib_buffer_pool
2019-09-13T15:48:04.405196Z 0 [Warning] Failed to set up SSL because of the following SSL library error: SSL context is not usable without certificate and private key
2019-09-13T15:48:04.423184Z 0 [Note] Server hostname (bind-address): '*'; port: 3306
2019-09-13T15:48:04.429179Z 0 [Note] IPv6 is available.
2019-09-13T15:48:04.432177Z 0 [Note]   - '::' resolves to '::';
2019-09-13T15:48:04.434176Z 0 [Note] Server socket created on IP: '::'.
2019-09-13T15:48:06.050003Z 0 [Note] InnoDB: Buffer pool(s) load completed at 190913 17:48:06
2019-09-13T15:48:09.029256Z 0 [Note] Event Scheduler: Loaded 0 events
2019-09-13T15:48:09.030256Z 0 [Note] k:\EPFC\PRID\2019-2020\PRID1920\uwamp\bin\database\mysql-5.7.11\bin\mysqld.exe: ready for connections.
Version: '5.7.11'  socket: ''  port: 3306  MySQL Community Server (GPL)
2019-09-13T15:48:59.458504Z 0 [Note] k:\EPFC\PRID\2019-2020\PRID1920\uwamp\bin\database\mysql-5.7.11\bin\mysqld.exe: Normal shutdown

2019-09-13T15:48:59.458504Z 0 [Note] Giving 0 client threads a chance to die gracefully
2019-09-13T15:48:59.458504Z 0 [Note] Shutting down slave threads
2019-09-13T15:48:59.458504Z 0 [Note] Forcefully disconnecting 0 remaining clients
2019-09-13T15:48:59.458504Z 0 [Note] Event Scheduler: Purging the queue. 0 events
2019-09-13T15:48:59.458504Z 0 [Note] Binlog end
2019-09-13T15:48:59.474126Z 0 [Note] Shutting down plugin 'ngram'
2019-09-13T15:48:59.474126Z 0 [Note] Shutting down plugin 'partition'
2019-09-13T15:48:59.474126Z 0 [Note] Shutting down plugin 'BLACKHOLE'
2019-09-13T15:48:59.474126Z 0 [Note] Shutting down plugin 'ARCHIVE'
2019-09-13T15:48:59.474126Z 0 [Note] Shutting down plugin 'PERFORMANCE_SCHEMA'
2019-09-13T15:48:59.474126Z 0 [Note] Shutting down plugin 'MRG_MYISAM'
2019-09-13T15:48:59.474126Z 0 [Note] Shutting down plugin 'MyISAM'
2019-09-13T15:48:59.474126Z 0 [Note] Shutting down plugin 'INNODB_SYS_VIRTUAL'
2019-09-13T15:48:59.474126Z 0 [Note] Shutting down plugin 'INNODB_SYS_DATAFILES'
2019-09-13T15:48:59.474126Z 0 [Note] Shutting down plugin 'INNODB_SYS_TABLESPACES'
2019-09-13T15:48:59.474126Z 0 [Note] Shutting down plugin 'INNODB_SYS_FOREIGN_COLS'
2019-09-13T15:48:59.474126Z 0 [Note] Shutting down plugin 'INNODB_SYS_FOREIGN'
2019-09-13T15:48:59.474126Z 0 [Note] Shutting down plugin 'INNODB_SYS_FIELDS'
2019-09-13T15:48:59.489753Z 0 [Note] Shutting down plugin 'INNODB_SYS_COLUMNS'
2019-09-13T15:48:59.489753Z 0 [Note] Shutting down plugin 'INNODB_SYS_INDEXES'
2019-09-13T15:48:59.489753Z 0 [Note] Shutting down plugin 'INNODB_SYS_TABLESTATS'
2019-09-13T15:48:59.489753Z 0 [Note] Shutting down plugin 'INNODB_SYS_TABLES'
2019-09-13T15:48:59.489753Z 0 [Note] Shutting down plugin 'INNODB_FT_INDEX_TABLE'
2019-09-13T15:48:59.489753Z 0 [Note] Shutting down plugin 'INNODB_FT_INDEX_CACHE'
2019-09-13T15:48:59.489753Z 0 [Note] Shutting down plugin 'INNODB_FT_CONFIG'
2019-09-13T15:48:59.489753Z 0 [Note] Shutting down plugin 'INNODB_FT_BEING_DELETED'
2019-09-13T15:48:59.489753Z 0 [Note] Shutting down plugin 'INNODB_FT_DELETED'
2019-09-13T15:48:59.489753Z 0 [Note] Shutting down plugin 'INNODB_FT_DEFAULT_STOPWORD'
2019-09-13T15:48:59.489753Z 0 [Note] Shutting down plugin 'INNODB_METRICS'
2019-09-13T15:48:59.489753Z 0 [Note] Shutting down plugin 'INNODB_TEMP_TABLE_INFO'
2019-09-13T15:48:59.489753Z 0 [Note] Shutting down plugin 'INNODB_BUFFER_POOL_STATS'
2019-09-13T15:48:59.505376Z 0 [Note] Shutting down plugin 'INNODB_BUFFER_PAGE_LRU'
2019-09-13T15:48:59.505376Z 0 [Note] Shutting down plugin 'INNODB_BUFFER_PAGE'
2019-09-13T15:48:59.505376Z 0 [Note] Shutting down plugin 'INNODB_CMP_PER_INDEX_RESET'
2019-09-13T15:48:59.505376Z 0 [Note] Shutting down plugin 'INNODB_CMP_PER_INDEX'
2019-09-13T15:48:59.505376Z 0 [Note] Shutting down plugin 'INNODB_CMPMEM_RESET'
2019-09-13T15:48:59.505376Z 0 [Note] Shutting down plugin 'INNODB_CMPMEM'
2019-09-13T15:48:59.505376Z 0 [Note] Shutting down plugin 'INNODB_CMP_RESET'
2019-09-13T15:48:59.505376Z 0 [Note] Shutting down plugin 'INNODB_CMP'
2019-09-13T15:48:59.505376Z 0 [Note] Shutting down plugin 'INNODB_LOCK_WAITS'
2019-09-13T15:48:59.505376Z 0 [Note] Shutting down plugin 'INNODB_LOCKS'
2019-09-13T15:48:59.505376Z 0 [Note] Shutting down plugin 'INNODB_TRX'
2019-09-13T15:48:59.505376Z 0 [Note] Shutting down plugin 'InnoDB'
2019-09-13T15:48:59.505376Z 0 [Note] InnoDB: FTS optimize thread exiting.
2019-09-13T15:48:59.521001Z 0 [Note] InnoDB: Starting shutdown...
2019-09-13T15:48:59.630380Z 0 [Note] InnoDB: Dumping buffer pool(s) to k:\EPFC\PRID\2019-2020\PRID1920\uwamp\bin\database\mysql-5.7.11\data\ib_buffer_pool
2019-09-13T15:48:59.630380Z 0 [Note] InnoDB: Buffer pool(s) dump completed at 190913 17:48:59
2019-09-13T15:49:00.864775Z 0 [Note] InnoDB: Shutdown completed; log sequence number 58418727
2019-09-13T15:49:00.864775Z 0 [Note] InnoDB: Removed temporary tablespace data file: "ibtmp1"
2019-09-13T15:49:00.864775Z 0 [Note] Shutting down plugin 'MEMORY'
2019-09-13T15:49:00.864775Z 0 [Note] Shutting down plugin 'CSV'
2019-09-13T15:49:00.864775Z 0 [Note] Shutting down plugin 'sha256_password'
2019-09-13T15:49:00.880393Z 0 [Note] Shutting down plugin 'mysql_native_password'
2019-09-13T15:49:00.880393Z 0 [Note] Shutting down plugin 'binlog'
2019-09-13T15:49:00.880393Z 0 [Note] k:\EPFC\PRID\2019-2020\PRID1920\uwamp\bin\database\mysql-5.7.11\bin\mysqld.exe: Shutdown complete

